10031;31649410376;Berg;€1,25;65;Pricing Template TrendCall Flexible;0;0;0;0;;2-6-2006;80;3;NL;TrendCall;trendcall.nl;8931162111800016252;41773419;Porting planned on dec 3rd  - T-mobile SIM sent on Nov 16, 2018 13:08;On;On;On;On;On;On;On
10041;31637007007;Hondel;€12,50;65;Pricing Template TrendCall Flexible;0;0;0;data barring;;3-2-2005;80;24;NL;SOS Mobiel;central-services.nl;8931162111800015734;78050840;Porting planned on dec 3rd  - T-mobile SIM sent on Nov 16, 2018 13:05;On;Off;Off;Off;On;On;On
10075;31649409725;Thoor;€1,25;65;Pricing Template TrendCall Flexible;0;0;0;0;;25-5-2005;80;12;NL;TrendCall;trendcall.nl;8931162111800016088;58281365;Porting planned on dec 3rd  - T-mobile SIM sent on Nov 16, 2018 13:07;On;On;On;On;On;On;On
10077;31649409712;Provoost;€12,50;65;Pricing Template TrendCall Flexible;0;0;0;0;;27-5-2005;80;12;NL;TrendCall;trendcall.nl;8931162111800015254;33729754;Porting planned on dec 3rd  - T-mobile SIM sent on Nov 16, 2018 13:02;On;On;On;On;On;On;On
10107;31625013461;Oude Reimerink;€4,95;65;Pricing Template TrendCall Flexible;0;0;0;0;;12-7-2005;80;12;NL;TrendCall;trendcall.nl;8931162111800015965;94718044;Porting planned on dec 3rd  - T-mobile SIM sent on Nov 16, 2018 13:06;On;On;On;On;On;On;On
10178;31649409868;Teensma;€4,95;65;Pricing Template TrendCall Flexible;0;0;0;data barring;;26-9-2005;80;12;NL;TrendCall;trendcall.nl;8931162111800015767;77452288;Porting planned on dec 3rd  - T-mobile SIM sent on Nov 16, 2018 13:05;On;Off;Off;Off;Off;Off;Off
10184;31649409879;Xu;€0,00;68;Pricing Template TrendCall FreeRider;0;0;0;0;;5-10-2005;80;12;NL;TrendCall;trendcall.nl;8931162111800015650;25028873;Porting planned on dec 3rd  - T-mobile SIM sent on Nov 16, 2018 13:04;On;On;On;On;On;On;On
10203;31653894455;Bouma;€0,00;68;Pricing Template TrendCall FreeRider;0;0;0;0;;18-10-2005;80;12;NL;TrendCall;trendcall.nl;8931162111800015668;23103424;Porting planned on dec 3rd  - T-mobile SIM sent on Nov 16, 2018 13:04;On;On;On;On;On;On;On
10256;31649409987;Thissen-van Dijk;€1,25;65;Pricing Template TrendCall Flexible;0;0;0;0;;17-11-2005;80;12;NL;TrendCall;trendcall.nl;8931162111800015569;99473952;Porting planned on dec 3rd  - T-mobile SIM sent on Nov 16, 2018 13:04;On;On;On;On;On;On;On
10313;31615680923;Langeveld;€0,00;68;Pricing Template TrendCall FreeRider;0;0;0;0;;29-12-2005;80;12;NL;TrendCall;trendcall.nl;8931162111800015577;63205036;Porting planned on dec 3rd  - T-mobile SIM sent on Nov 16, 2018 13:04;On;On;On;On;On;On;On
10374;31615625920;Magaz;€12,50;65;Pricing Template TrendCall Flexible;0;0;0;0;;21-2-2006;80;12;NL;TrendCall;trendcall.nl;8931162111800020536;63682081;Porting planned on dec 3rd  - T-mobile SIM sent on Nov 19, 2018 15:44;On;On;On;On;On;On;On
10390;31649406192;Kerkhof;€1,25;65;Pricing Template TrendCall Flexible;0;0;0;data barring;;24-2-2006;80;12;NL;TrendCall;trendcall.nl;8931162111800015403;48737464;Porting planned on dec 3rd  - T-mobile SIM sent on Nov 16, 2018 13:03;On;Off;On;On;On;On;On
10468;31649406520;Lingen;€15,70;65;Pricing Template TrendCall Flexible;0;0;0;Data NL+EU 1 GB;;13-4-2006;80;12;NL;TrendCall;trendcall.nl;8931162111800016336;61848592;Porting planned on dec 3rd  - T-mobile SIM sent on Nov 16, 2018 13:08;On;On;On;On;On;On;On
10476;31649406297;Werf;€12,50;65;Pricing Template TrendCall Flexible;0;0;0;0;;19-4-2006;80;12;NL;TrendCall;trendcall.nl;8931162111800020304;27399233;Porting planned on dec 3rd  - T-mobile SIM sent on Nov 19, 2018 14:53;On;On;On;On;On;On;On
10512;31649406364;Ploeg;€0,00;68;Pricing Template TrendCall FreeRider;0;0;0;data barring;;23-5-2006;80;12;NL;TrendCall;trendcall.nl;8931162111800016385;83576434;Porting planned on dec 3rd  - T-mobile SIM sent on Nov 16, 2018 13:08;On;Off;On;On;On;On;On
10535;31630018276;Beveren;€4,95;65;Pricing Template TrendCall Flexible;0;0;0;data barring;;29-5-2006;80;12;NL;TrendCall;trendcall.nl;8931162111800016393;35578846;Porting planned on dec 3rd  - T-mobile SIM sent on Nov 16, 2018 13:08;On;Off;Off;Off;On;Off;On
10535;31649406225;Beveren;€0,00;68;Pricing Template TrendCall FreeRider;0;0;0;data barring;;29-5-2006;80;12;NL;TrendCall;trendcall.nl;8931162111800016377;69959973;Porting planned on dec 3rd  - T-mobile SIM sent on Nov 16, 2018 13:08;On;Off;On;On;On;Off;On
10627;31614914960;Houtveen;€1,25;65;Pricing Template TrendCall Flexible;0;0;0;0;;27-10-2006;80;12;NL;TrendCall;trendcall.nl;8931162111800015361;29342324;Porting planned on dec 3rd  - T-mobile SIM sent on Nov 16, 2018 13:03;On;On;On;On;On;On;On
10648;31649485130;Ockhuizen;€12,50;65;Pricing Template TrendCall Flexible;0;0;0;data barring;;7-11-2006;80;3;NL;TrendCall;trendcall.nl;8931162111800015346;81430085;Porting planned on dec 3rd  - T-mobile SIM sent on Nov 16, 2018 13:03;On;Off;On;On;On;On;On
10689;31649487281;Scholten;€0,00;68;Pricing Template TrendCall FreeRider;0;0;0;0;;27-12-2006;80;12;NL;TrendCall;trendcall.nl;8931162111800020361;23760107;Porting planned on dec 3rd  - T-mobile SIM sent on Nov 19, 2018 14:53;On;On;On;On;On;On;On
10704;31649485207;Bruijne;€12,50;65;Pricing Template TrendCall Flexible;0;0;0;data barring;;10-1-2007;80;24;NL;TrendCall;trendcall.nl;8931162111800015262;88882586;Porting planned on dec 3rd  - T-mobile SIM sent on Nov 16, 2018 13:02;On;Off;On;On;On;On;On
10737;31649485248;Kowsoleea;€4,95;65;Pricing Template TrendCall Flexible;0;0;0;0;;10-2-2007;80;3;NL;TrendCall;trendcall.nl;8931162111800015890;23015782;Porting planned on dec 3rd  - T-mobile SIM sent on Nov 16, 2018 13:05;On;On;On;On;On;On;On
10746;31642957265;Nederpel;€4,20;65;Pricing Template TrendCall Flexible;0;0;0;Data NL+EU 100 MB;;15-2-2007;80;12;NL;TrendCall;trendcall.nl;8931162111800016575;20655854;Porting planned on dec 3rd  - T-mobile SIM sent on Nov 16, 2018 13:10;On;On;On;On;On;On;On
10768;31620553904;Berg;€29,00;65;Pricing Template TrendCall Flexible;0;Domestic Unlimited (1500 min/SMS);International Large (750 min/SMS);0;;6-3-2007;80;12;NL;TrendCall;trendcall.nl;8931162111800020346;42563798;Porting planned on dec 3rd  - T-mobile SIM sent on Nov 19, 2018 14:53;On;On;On;On;On;On;On
10863;31655142618;Wassink;€12,50;65;Pricing Template TrendCall Flexible;0;0;0;0;;8-6-2007;80;24;NL;TrendCall;trendcall.nl;8931162111800016120;89560776;Porting planned on dec 3rd  - T-mobile SIM sent on Nov 16, 2018 13:07;On;On;On;On;On;On;On
10907;31649485441;Geluk;€7,45;66;Pricing Template CargoFone Flexible;0;0;0;data barring;;25-6-2007;80;2;NL;Routiers Bellen;central-services.nl;8931162111800015205;58007002;Porting planned on dec 3rd  - T-mobile SIM sent on Nov 16, 2018 13:02;On;Off;On;On;On;On;On
10923;31649485501;Ginkel;€12,50;65;Pricing Template TrendCall Flexible;0;0;0;data barring;;25-7-2007;80;12;NL;TrendCall;trendcall.nl;8931162111800015155;16974387;Porting planned on dec 3rd  - T-mobile SIM sent on Nov 16, 2018 13:02;On;Off;On;On;On;On;On
10985;31649485591;Eeken;€0,00;68;Pricing Template TrendCall FreeRider;0;0;0;0;;12-7-2007;80;12;NL;TrendCall;trendcall.nl;8931162111800015585;33301092;Porting planned on dec 3rd  - T-mobile SIM sent on Nov 16, 2018 13:04;On;On;On;On;On;On;On
11058;31648762954;Soetens;€12,50;65;Pricing Template TrendCall Flexible;0;0;0;0;;28-8-2007;80;12;NL;TrendCall;trendcall.nl;8931162111800015270;65842021;Porting planned on dec 3rd  - T-mobile SIM sent on Nov 16, 2018 13:02;On;On;On;On;On;On;On
11083;31637008803;DOI;€0,00;69;Pricing Template JP Standard FreeRider;0;0;0;0;;15-9-2007;250;3;JP;TrendCall;trendcall.nl;8931162111800022888;90699129;Porting planned on dec 3rd  - T-mobile SIM sent on Nov 16, 2018 10:10;On;On;On;On;On;On;On
11083;31649485829;DOI;€0,00;69;Pricing Template JP Standard FreeRider;0;0;0;data barring;;15-9-2007;250;3;JP;TrendCall;trendcall.nl;8931162111800022870;80148567;Porting planned on dec 3rd  - T-mobile SIM sent on Nov 16, 2018 10:10;On;Off;Off;Off;On;On;On
11089;31649485838;Peters;€4,95;65;Pricing Template TrendCall Flexible;0;0;0;0;;1-10-2007;80;12;NL;TrendCall;trendcall.nl;8931162111800015718;16983068;Porting planned on dec 3rd  - T-mobile SIM sent on Nov 16, 2018 13:05;On;On;On;On;On;On;On
11144;31610596020;Berg;€4,95;70;Pricing Template SeniorFoon SOS mobiel Flexible;0;Domestic Small (200 min/SMS);0;data barring;;22-11-2007;80;12;NL;TrendCall;trendcall.nl;8931162111800020353;17130437;Porting planned on dec 3rd  - T-mobile SIM sent on Nov 19, 2018 14:53;On;Off;On;On;On;Off;On
11262;31629072915;Wieren;€4,95;65;Pricing Template TrendCall Flexible;0;0;0;0;;25-4-2008;80;24;NL;TrendCall;trendcall.nl;8931162111800015676;18954234;Porting planned on dec 3rd  - T-mobile SIM sent on Nov 16, 2018 13:04;On;On;On;On;On;On;On
11274;31649487216;Betlem;€0,00;68;Pricing Template TrendCall FreeRider;0;0;0;0;;9-5-2008;80;12;NL;TrendCall;trendcall.nl;8931162111800015684;43869079;Porting planned on dec 3rd  - T-mobile SIM sent on Nov 16, 2018 13:04;On;On;On;On;On;On;On
11285;31616612108;Heemstra;€1,25;65;Pricing Template TrendCall Flexible;0;0;0;0;;28-5-2008;80;12;NL;TrendCall;trendcall.nl;8931162111800015908;90093816;Porting planned on dec 3rd  - T-mobile SIM sent on Nov 16, 2018 13:06;On;On;On;On;On;On;On
11327;31613509709;Yokoyama;€13,63;67;Pricing Template JP-standard Flexible;0;Domestic Very Small (100 min/SMS);0;Data NL+EU 400 MB;;10-12-2010;250;12;JP;TrendCall;trendcall.nl;8931162111800021484;46173538;Porting planned on dec 3rd  - T-mobile SIM sent on Nov 16, 2018 10:21;On;On;Off;Off;On;On;On
11327;31633685239;Yokoyama;€0,00;69;Pricing Template JP Standard FreeRider;0;0;0;0;;10-12-2010;250;12;JP;TrendCall;trendcall.nl;8931162111800022524;92519281;Porting planned on dec 3rd  - T-mobile SIM sent on Nov 16, 2018 10:12;On;On;On;On;On;On;On
11327;31637095567;Yokoyama;€0,00;69;Pricing Template JP Standard FreeRider;0;0;0;0;;10-12-2010;250;12;JP;TrendCall;trendcall.nl;8931162111800022631;68062032;Porting planned on dec 3rd  - T-mobile SIM sent on Nov 16, 2018 10:11;On;On;On;On;On;On;On
11372;31619858282;Berk;€4,95;68;Pricing Template TrendCall FreeRider;0;0;0;0;;6-1-2009;80;3;NL;TrendCall;trendcall.nl;8931162111800015593;24027564;Porting planned on dec 3rd  - T-mobile SIM sent on Nov 16, 2018 13:04;On;On;On;On;On;On;On
11408;31637009117;Albers;€4,95;68;Pricing Template TrendCall FreeRider;0;0;0;0;;18-2-2009;80;12;NL;TrendCall;trendcall.nl;8931162111800015536;22819163;Porting planned on dec 3rd  - T-mobile SIM sent on Nov 16, 2018 13:04;On;On;On;On;On;On;On
11411;31654326263;Hoeflaken;€12,50;65;Pricing Template TrendCall Flexible;0;0;0;0;;27-2-2009;80;12;NL;TrendCall;trendcall.nl;8931162111800020197;27418605;Porting planned on dec 3rd  - T-mobile SIM sent on Nov 20, 2018 11:20;On;On;On;On;On;On;On
11458;31615538593;Wakamizu;€0,00;69;Pricing Template JP Standard FreeRider;0;0;0;0;;22-5-2009;250;12;JP;TrendCall;trendcall.nl;8931162111800022961;49708206;Porting planned on dec 3rd  - T-mobile SIM sent on Nov 16, 2018 10:10;On;On;On;On;On;On;On
11458;31627421617;Wakamizu;€0,00;69;Pricing Template JP Standard FreeRider;0;0;0;0;;22-5-2009;250;12;JP;TrendCall;trendcall.nl;8931162111800022946;51495734;Porting planned on dec 3rd  - T-mobile SIM sent on Nov 16, 2018 10:10;On;On;On;On;On;On;On
11470;31644270163;Euser;€12,50;65;Pricing Template TrendCall Flexible;0;0;0;0;;1-9-2009;80;12;NL;TrendCall;trendcall.nl;8931162111800015288;68868139;Porting planned on dec 3rd  - T-mobile SIM sent on Nov 16, 2018 13:02;On;On;On;On;On;On;On
11496;31637008751;Doensen;€2,50;65;Pricing Template TrendCall Flexible;0;0;0;0;;25-7-2009;80;12;NL;TrendCall;trendcall.nl;8931162111800020247;24232161;Porting planned on dec 3rd  - T-mobile SIM sent on Nov 20, 2018 11:20;On;On;On;On;On;On;On
11499;31616698372;Beernink;€12,50;65;Pricing Template TrendCall Flexible;0;0;0;data barring;;11-8-2009;80;12;NL;TrendCall;trendcall.nl;8931162111800015296;19711134;Porting planned on dec 3rd  - T-mobile SIM sent on Nov 16, 2018 13:03;On;Off;On;On;On;On;On
11543;31637008818;Goris;€4,95;65;Pricing Template TrendCall Flexible;0;0;0;0;;11-4-2009;80;12;NL;TrendCall;trendcall.nl;8931162111800015544;69880513;Porting planned on dec 3rd  - T-mobile SIM sent on Nov 16, 2018 13:04;On;On;On;On;On;On;On
11567;31620960242;Hoekstra;€1,25;65;Pricing Template TrendCall Flexible;0;0;0;data barring;;22-1-2010;80;12;NL;TrendCall;trendcall.nl;8931162111800015601;68505328;Porting planned on dec 3rd  - T-mobile SIM sent on Nov 16, 2018 13:04;On;Off;On;On;On;Off;On
11615;31622403378;Miltenburg;€18,25;65;Pricing Template TrendCall Flexible;0;0;0;Data NL+EU 400 MB;;3-5-2010;80;12;NL;TrendCall;trendcall.nl;8931162111800016195;16574234;Porting planned on dec 3rd  - T-mobile SIM sent on Nov 16, 2018 13:07;On;On;On;On;On;On;On
11631;31637007605;Vos;€0,00;65;Pricing Template TrendCall Flexible;0;0;0;0;;7-6-2010;80;12;NL;TrendCall;trendcall.nl;8931162111800015411;14366875;Porting planned on dec 3rd  - T-mobile SIM sent on Nov 16, 2018 13:03;On;On;On;On;On;On;On
11649;31637007676;Moerman-Bakker;€4,95;68;Pricing Template TrendCall FreeRider;0;0;0;0;;22-6-2010;80;12;NL;TrendCall;trendcall.nl;8931162111800015619;16191647;Porting planned on dec 3rd  - T-mobile SIM sent on Nov 16, 2018 13:04;On;On;On;On;On;On;On
11713;31623678980;Huisken;€4,95;66;Pricing Template CargoFone Flexible;0;0;0;0;;2-9-2009;80;12;NL;CargoFone;cargofone.nl;8931162111800016468;77852448;Porting planned on dec 3rd  - T-mobile SIM sent on Nov 16, 2018 13:09;On;On;On;On;On;On;On
11713;31637007651;Huisken;€4,95;66;Pricing Template CargoFone Flexible;0;0;0;0;;2-9-2009;80;12;NL;CargoFone;cargofone.nl;8931162111800016591;69017386;Porting planned on dec 3rd  - T-mobile SIM sent on Nov 16, 2018 13:10;On;On;On;On;On;On;On
11769;31648341103;Hinoue;€0,00;69;Pricing Template JP Standard FreeRider;0;0;0;0;;2-1-1900;250;12;JP;TrendCall;trendcall.nl;8931162111800022912;99082744;Porting planned on dec 3rd  - T-mobile SIM sent on Nov 16, 2018 10:10;On;On;On;On;On;On;On
11822;31637007616;Renes;€12,50;65;Pricing Template TrendCall Flexible;0;0;0;0;;5-1-2011;80;3;NL;TrendCall;trendcall.nl;8931162111800015692;61973607;Porting planned on dec 3rd  - T-mobile SIM sent on Nov 16, 2018 13:04;On;On;On;On;On;On;On
11872;31622607269;Herber;€18,25;65;Pricing Template TrendCall Flexible;0;0;0;Data NL+EU 400 MB;;2-2-2018;80;12;NL;TrendCall;trendcall.nl;8931162111800015817;31813377;Porting planned on dec 3rd  - T-mobile SIM sent on Nov 16, 2018 13:05;On;On;Off;Off;On;On;On
11872;31651339121;Herber;€0,00;65;Pricing Template TrendCall Flexible;0;0;0;data barring;;2-2-2018;80;12;NL;TrendCall;trendcall.nl;8931162111800015726;65488934;Porting planned on dec 3rd  - T-mobile SIM sent on Nov 16, 2018 13:05;On;Off;On;On;On;On;On
12067;31640023015;Wit;€20,62;70;Pricing Template SeniorFoon SOS mobiel Flexible;0;Domestic Small (200 min/SMS);0;0;;13-5-2011;80;24;NL;SeniorFoon;central-services.nl;8931162111800020296;93071083;Porting planned on dec 3rd  - T-mobile SIM sent on Nov 19, 2018 14:53;On;On;On;On;On;On;On
12086;31637007848;Nennie;€20,62;70;Pricing Template SeniorFoon SOS mobiel Flexible;0;Domestic Small (200 min/SMS);0;0;;18-5-2011;80;24;NL;SeniorFoon;central-services.nl;8931162111800015643;59770431;Porting planned on dec 3rd  - T-mobile SIM sent on Nov 16, 2018 13:04;On;On;On;On;On;On;On
12154;31637007957;Bergen-Vilsterman;€1,25;65;Pricing Template TrendCall Flexible;0;0;0;0;;31-5-2011;80;3;NL;TrendCall;trendcall.nl;8931162111800016450;38281774;Porting planned on dec 3rd  - T-mobile SIM sent on Nov 16, 2018 13:09;On;On;On;On;On;On;On
12286;31637008130;Luinen;€12,50;65;Pricing Template TrendCall Flexible;0;0;0;0;;29-6-2011;80;12;NL;TrendCall;trendcall.nl;8931162111800015320;68746698;Porting planned on dec 3rd  - T-mobile SIM sent on Nov 16, 2018 13:03;On;On;On;On;On;On;On
12324;31637008142;Groot;€15,00;70;Pricing Template SeniorFoon SOS mobiel Flexible;0;Domestic Small (200 min/SMS);0;0;;6-7-2011;80;24;NL;SeniorFoon;central-services.nl;8931162111800020288;60392916;Porting planned on dec 3rd  - T-mobile SIM sent on Nov 19, 2018 14:53;On;On;On;On;On;On;On
12389;31637008245;Vries;€4,95;66;Pricing Template CargoFone Flexible;0;0;0;0;;30-7-2011;80;12;NL;CargoFone;cargofone.nl;8931162111800016286;83889287;Porting planned on dec 3rd  - T-mobile SIM sent on Nov 16, 2018 13:08;On;On;On;On;On;On;On
12470;31637008278;Houben;€0,00;70;Pricing Template SeniorFoon SOS mobiel Flexible;0;Domestic Small (200 min/SMS);0;0;;23-8-2011;80;24;NL;SeniorFoon;central-services.nl;8931162111800015510;14470126;Porting planned on dec 3rd  - T-mobile SIM sent on Nov 16, 2018 13:04;On;On;On;On;On;On;On
12747;31643350900;Krol;€4,95;66;Pricing Template CargoFone Flexible;0;0;0;0;;28-10-2011;80;12;NL;CargoFone;cargofone.nl;8931162111800015163;58493689;Porting planned on dec 3rd  - T-mobile SIM sent on Nov 16, 2018 13:02;On;On;On;On;On;On;On
12751;31637007743;Tienstra;€34,95;66;Pricing Template CargoFone Flexible;0;Domestic Large (750 min/SMS);International Large (750 min/SMS);Data NL+EU 3 GB;;28-10-2011;80;12;NL;CargoFone;cargofone.nl;8931162111800015486;33785619;Porting planned on dec 3rd  - T-mobile SIM sent on Nov 16, 2018 13:03;On;On;On;On;On;On;On
12751;31637009042;Tienstra;€14,85;66;Pricing Template CargoFone Flexible;0;Domestic Very Small (100 min/SMS);International Small (100 min/SMS);Data NL+EU 400 MB;;28-10-2011;80;12;NL;CargoFone;cargofone.nl;8931162111800016559;25592349;Porting planned on dec 3rd  - T-mobile SIM sent on Nov 16, 2018 13:09;On;On;On;On;On;On;On
12751;31650507925;Tienstra;€34,95;66;Pricing Template CargoFone Flexible;0;Domestic Large (750 min/SMS);International Large (750 min/SMS);Data NL+EU 3 GB;;28-10-2011;80;12;NL;CargoFone;cargofone.nl;8931162111800015494;64958207;Porting planned on dec 3rd  - T-mobile SIM sent on Nov 16, 2018 13:03;On;On;On;On;On;On;On
12751;31650507927;Tienstra;€34,95;66;Pricing Template CargoFone Flexible;0;Domestic Large (750 min/SMS);International Large (750 min/SMS);Data NL+EU 3 GB;;28-10-2011;80;12;NL;CargoFone;cargofone.nl;8931162111800015478;83760946;Porting planned on dec 3rd  - T-mobile SIM sent on Nov 16, 2018 13:03;On;On;On;On;On;On;On
12751;31650507937;Tienstra;€14,85;66;Pricing Template CargoFone Flexible;0;Domestic Very Small (100 min/SMS);International Small (100 min/SMS);Data NL+EU 400 MB;;28-10-2011;80;12;NL;CargoFone;cargofone.nl;8931162111800015460;34195249;Porting planned on dec 3rd  - T-mobile SIM sent on Nov 16, 2018 13:03;On;On;On;On;On;On;On
12751;31682744055;Tienstra;€7,45;66;Pricing Template CargoFone Flexible;0;0;0;data barring;;28-10-2011;80;12;NL;CargoFone;cargofone.nl;8931162111800016104;83047159;Porting planned on dec 3rd  - T-mobile SIM sent on Nov 16, 2018 13:07;On;Off;Off;Off;On;On;On
12777;31637007721;Bijenhof;€20,62;70;Pricing Template SeniorFoon SOS mobiel Flexible;0;Domestic Small (200 min/SMS);0;0;;7-11-2011;80;24;NL;SeniorFoon;central-services.nl;8931162111800020270;93033685;Porting planned on dec 3rd  - T-mobile SIM sent on Nov 19, 2018 14:53;On;On;On;On;On;On;On
12885;31630002418;Jong;€14,40;66;Pricing Template CargoFone Flexible;0;0;0;Data NL+EU 1 GB;;13-1-2012;80;12;NL;CargoFone;cargofone.nl;8931162111800016567;92730519;Porting planned on dec 3rd  - T-mobile SIM sent on Nov 16, 2018 13:10;On;On;Off;Off;On;On;On
12892;31637007020;Lith;€20,97;70;Pricing Template SeniorFoon SOS mobiel Flexible;0;Domestic Small (200 min/SMS);0;0;;28-12-2011;80;24;NL;SeniorFoon;central-services.nl;8931162111800015528;20645307;Porting planned on dec 3rd  - T-mobile SIM sent on Nov 16, 2018 13:04;On;On;On;On;On;On;On
12915;31637008283;Bonth;€12,50;65;Pricing Template TrendCall Flexible;0;0;0;0;;18-1-2012;80;12;NL;TrendCall;trendcall.nl;8931162111800016138;79836095;Porting planned on dec 3rd  - T-mobile SIM sent on Nov 16, 2018 13:07;On;On;On;On;On;On;On
12933;31646456050;Jans-Rat;€4,95;66;Pricing Template CargoFone Flexible;0;0;0;0;;13-2-2012;80;3;NL;CargoFone;cargofone.nl;8931162111800015171;27499841;Porting planned on dec 3rd  - T-mobile SIM sent on Nov 16, 2018 13:02;On;On;On;On;On;On;On
12996;31651639277;Simons;€7,45;66;Pricing Template CargoFone Flexible;0;0;0;0;;3-5-2012;80;3;NL;CargoFone;cargofone.nl;8931162111800020213;88231853;Porting planned on dec 3rd  - T-mobile SIM sent on Nov 20, 2018 11:20;On;On;On;On;On;On;On
13000;31637008437;Prade;€4,95;66;Pricing Template CargoFone Flexible;0;0;0;0;;24-3-2012;80;12;NL;CargoFone;cargofone.nl;8931162111800015932;73523685;Porting planned on dec 3rd  - T-mobile SIM sent on Nov 16, 2018 13:06;On;On;On;On;On;On;On
13000;31637009072;Prade;€17,10;66;Pricing Template CargoFone Flexible;0;0;0;Data NL+EU 400 MB;;24-3-2012;80;12;NL;CargoFone;cargofone.nl;8931162111800015924;86858025;Porting planned on dec 3rd  - T-mobile SIM sent on Nov 16, 2018 13:06;On;On;On;On;On;On;On
13038;31611180932;Kusakari;€13,63;67;Pricing Template JP-standard Flexible;0;Domestic Very Small (100 min/SMS);0;Data NL+EU 400 MB;;9-5-2012;250;12;JP;TrendCall;trendcall.nl;8931162111800022920;89987247;Porting planned on dec 3rd  - T-mobile SIM sent on Nov 16, 2018 10:10;On;On;On;On;On;On;On
13038;31657802778;Kusakari;€0,00;69;Pricing Template JP Standard FreeRider;0;0;0;data barring;;9-5-2012;250;12;JP;TrendCall;trendcall.nl;8931162111800021807;50211481;Porting planned on dec 3rd  - T-mobile SIM sent on Nov 16, 2018 10:18;On;Off;Off;Off;On;On;On
13038;31682541535;Kusakari;€0,00;69;Pricing Template JP Standard FreeRider;0;0;0;data barring;;9-5-2012;250;12;JP;TrendCall;trendcall.nl;8931162111800022318;71573341;Porting planned on dec 3rd  - T-mobile SIM sent on Nov 16, 2018 10:13;On;Off;Off;Off;On;On;On
13070;31637009105;Rijn;€20,62;70;Pricing Template SeniorFoon SOS mobiel Flexible;0;Domestic Small (200 min/SMS);0;0;;22-6-2012;80;24;NL;SeniorFoon;central-services.nl;8931162111800020262;29392700;Porting planned on dec 3rd  - T-mobile SIM sent on Nov 19, 2018 14:53;On;On;On;On;On;On;On
13165;31637008432;Francke;€1,25;65;Pricing Template TrendCall Flexible;0;0;0;0;;8-11-2012;80;15;NL;TrendCall;trendcall.nl;8931162111800015627;56222595;Porting planned on dec 3rd  - T-mobile SIM sent on Nov 16, 2018 13:04;On;On;On;On;On;On;On
13169;31637009188;Leenhouwers;€0,00;65;Pricing Template TrendCall Flexible;0;0;0;0;;22-11-2012;80;12;NL;TrendCall;trendcall.nl;8931162111800016278;97517934;Porting planned on dec 3rd  - T-mobile SIM sent on Nov 16, 2018 13:08;On;On;On;On;On;On;On
13169;31637009319;Leenhouwers;€12,50;65;Pricing Template TrendCall Flexible;0;0;0;0;;22-11-2012;80;12;NL;TrendCall;trendcall.nl;8931162111800015429;24791319;Porting planned on dec 3rd  - T-mobile SIM sent on Nov 16, 2018 13:03;On;On;On;On;On;On;On
13191;31637009392;Bokxem-ZamZam Nawawi;€12,50;65;Pricing Template TrendCall Flexible;0;0;0;0;;5-1-2013;80;12;NL;TrendCall;trendcall.nl;8931162111800015551;61166464;Porting planned on dec 3rd  - T-mobile SIM sent on Nov 16, 2018 13:04;On;On;On;On;On;On;On
13193;31637009387;Dieleman;€29,00;66;Pricing Template CargoFone Flexible;0;Domestic Unlimited (1500 min/SMS);0;0;;1-8-2014;80;24;NL;CargoFone;cargofone.nl;8931162111800015775;73449168;Porting planned on dec 3rd  - T-mobile SIM sent on Nov 16, 2018 13:05;On;On;On;On;On;On;On
13212;31644319046;Eldor;€5,45;65;Pricing Template TrendCall Flexible;0;0;0;0;;15-2-2013;80;12;NL;TrendCall;trendcall.nl;8931162111800015742;38441680;Porting planned on dec 3rd  - T-mobile SIM sent on Nov 16, 2018 13:05;On;On;On;On;On;On;On
13212;31682745566;Eldor;€1,25;65;Pricing Template TrendCall Flexible;0;0;0;data barring;;15-2-2013;80;12;NL;TrendCall;trendcall.nl;8931162111800016112;39082334;Porting planned on dec 3rd  - T-mobile SIM sent on Nov 16, 2018 13:07;On;Off;Off;Off;On;On;On
13213;31636105324;Pol;€26,95;66;Pricing Template CargoFone Flexible;0;Domestic Medium (300 min/SMS);International Medium (300 min/SMS);Data NL+EU 1,2 GB;;1-10-2015;80;12;NL;CargoFone;cargofone.nl;8931162111800016013;41057329;Porting planned on dec 3rd  - T-mobile SIM sent on Nov 16, 2018 13:06;On;On;On;On;On;On;On
13213;31636105325;Pol;€12,85;66;Pricing Template CargoFone Flexible;0;Domestic Very Small (100 min/SMS);International Small (100 min/SMS);Data NL+EU 400 MB;;1-10-2015;80;12;NL;CargoFone;cargofone.nl;8931162111800016005;76675092;Porting planned on dec 3rd  - T-mobile SIM sent on Nov 16, 2018 13:06;On;On;On;On;On;On;On
13260;31651832710;Kuijer;€29,95;66;Pricing Template CargoFone Flexible;0;Domestic Medium (300 min/SMS);International Medium (300 min/SMS);Data NL+EU 1,2 GB;;23-4-2013;80;24;NL;CargoFone;cargofone.nl;8931162111800020239;38622168;Porting planned on dec 3rd  - T-mobile SIM sent on Nov 20, 2018 11:20;On;On;On;On;On;On;On
13266;31653788081;Voogd;€45,00;65;Pricing Template TrendCall Flexible;0;Domestic Unlimited (1500 min/SMS);Domestic Unlimited (1500 min/SMS);data barring;;26-8-2013;80;12;NL;Routiers Bellen;central-services.nl;8931162111800015221;77975873;Porting planned on dec 3rd  - T-mobile SIM sent on Nov 16, 2018 13:02;On;Off;On;On;On;On;On
13298;31626066348;Hammingh;€4,20;65;Pricing Template TrendCall Flexible;0;0;0;Data NL+EU 100 MB;;30-6-2013;80;12;NL;TrendCall;trendcall.nl;8931162111800020221;21397267;Porting planned on dec 3rd  - T-mobile SIM sent on Nov 20, 2018 11:20;On;On;On;On;On;On;On
13303;31621545033;Cornelissen;€12,50;65;Pricing Template TrendCall Flexible;0;0;0;0;;7-7-2013;80;12;NL;Routiers Bellen;central-services.nl;8931162111800020205;25551835;Porting planned on dec 3rd  - T-mobile SIM sent on Nov 20, 2018 11:20;On;On;On;On;On;On;On
13312;31610000758;Matsuoka;€19,38;67;Pricing Template JP-standard Flexible;0;Domestic Very Small (100 min/SMS);0;Data NL+EU 1 GB;;17-7-2013;250;12;JP;TrendCall;trendcall.nl;8931162111800021666;90043666;Porting planned on dec 3rd  - T-mobile SIM sent on Nov 16, 2018 10:19;On;On;Off;Off;On;On;On
13312;31637009380;Matsuoka;€18,90;69;Pricing Template JP Standard FreeRider;0;0;0;Data NL+EU 1 GB;;17-7-2013;250;12;JP;TrendCall;trendcall.nl;8931162111800022862;80649618;Porting planned on dec 3rd  - T-mobile SIM sent on Nov 16, 2018 10:10;On;On;On;On;On;On;On
13312;31637089303;Matsuoka;€18,90;69;Pricing Template JP Standard FreeRider;0;0;0;Data NL+EU 1 GB;;17-7-2013;250;12;JP;TrendCall;trendcall.nl;8931162111800022854;40633819;Porting planned on dec 3rd  - T-mobile SIM sent on Nov 16, 2018 10:10;On;On;On;On;On;On;On
13401;31625594136;Evers;€7,45;66;Pricing Template CargoFone Flexible;0;0;0;0;;9-12-2013;80;24;NL;CargoFone;cargofone.nl;8931162111800015379;76079515;Porting planned on dec 3rd  - T-mobile SIM sent on Nov 16, 2018 13:03;On;On;On;On;On;On;On
13405;31624897962;Smit;€1,25;65;Pricing Template TrendCall Flexible;0;0;0;0;;22-11-2013;80;24;NL;TrendCall;trendcall.nl;8931162111800015304;54858019;Porting planned on dec 3rd  - T-mobile SIM sent on Nov 16, 2018 13:03;On;On;On;On;On;On;On
13414;31642885655;Price;€7,00;65;Pricing Template TrendCall Flexible;0;0;0;Data NL+EU 100 MB;;8-12-2013;80;12;NL;TrendCall;trendcall.nl;8931162111800015312;62219233;Porting planned on dec 3rd  - T-mobile SIM sent on Nov 16, 2018 13:03;On;On;On;On;On;On;On
13434;31637009138;Ysebaert;€29,00;66;Pricing Template CargoFone Flexible;0;Domestic Unlimited (1500 min/SMS);0;0;;30-12-2013;80;12;NL;CargoFone;cargofone.nl;8931162111800015809;64600601;Porting planned on dec 3rd  - T-mobile SIM sent on Nov 16, 2018 13:05;On;On;On;On;On;On;On
13434;31683946882;Ysebaert;€29,95;66;Pricing Template CargoFone Flexible;0;Domestic Medium (300 min/SMS);International Medium (300 min/SMS);Data NL+EU 1,2 GB;;30-12-2013;80;12;NL;CargoFone;cargofone.nl;8931162111800016146;46385497;Porting planned on dec 3rd  - T-mobile SIM sent on Nov 16, 2018 13:07;On;On;Off;Off;On;On;On
13436;31610595616;Nieboer;€0,00;66;Pricing Template CargoFone Flexible;0;0;0;data barring;;1-1-2014;80;12;NL;CargoFone;cargofone.nl;8931162111800015833;30542644;Porting planned on dec 3rd  - T-mobile SIM sent on Nov 16, 2018 13:05;On;Off;Off;Off;On;On;On
13458;31613062382;Pecht;€7,45;66;Pricing Template CargoFone Flexible;0;0;0;0;;31-1-2014;80;24;NL;CargoFone;cargofone.nl;8931162111800015874;88265472;Porting planned on dec 3rd  - T-mobile SIM sent on Nov 16, 2018 13:05;On;On;On;On;On;On;On
13459;31637089343;Haren;€29,70;66;Pricing Template CargoFone Flexible;0;Domestic Very Small (100 min/SMS);International Small (100 min/SMS);Data NL+EU 400 MB;;5-2-2014;80;3;NL;TrendCall;trendcall.nl;8931162111800015858;43512220;Porting planned on dec 3rd  - T-mobile SIM sent on Nov 16, 2018 13:05;On;On;Off;Off;On;On;On
13465;31640414884;Brunia;€4,95;65;Pricing Template TrendCall Flexible;0;0;0;data barring;;2-5-2014;80;12;NL;TrendCall;trendcall.nl;8931162111800015635;89941620;Porting planned on dec 3rd  - T-mobile SIM sent on Nov 16, 2018 13:04;On;Off;On;On;On;On;On
13488;31653459650;Boom;€4,95;65;Pricing Template TrendCall Flexible;0;0;0;0;;17-10-2017;80;12;NL;TrendCall;trendcall.nl;8931162111800015445;16917341;Porting planned on dec 3rd  - T-mobile SIM sent on Nov 16, 2018 13:03;On;On;On;On;On;On;On
13488;31654214178;Boom;€4,95;65;Pricing Template TrendCall Flexible;0;0;0;0;;17-10-2017;80;12;NL;TrendCall;trendcall.nl;8931162111800015437;39968883;Porting planned on dec 3rd  - T-mobile SIM sent on Nov 16, 2018 13:03;On;On;On;On;On;On;On
13491;31610743588;Takeda;€4,95;67;Pricing Template JP-standard Flexible;0;0;0;data barring;;21-3-2014;250;12;JP;TrendCall;trendcall.nl;8931162111800022433;98976888;Porting planned on dec 3rd  - T-mobile SIM sent on Nov 16, 2018 10:13;On;Off;Off;Off;On;On;On
13491;31637003588;Takeda;€13,63;67;Pricing Template JP-standard Flexible;0;Domestic Very Small (100 min/SMS);0;Data NL+EU 400 MB;;21-3-2014;250;12;JP;TrendCall;trendcall.nl;8931162111800022953;48603118;Porting planned on dec 3rd  - T-mobile SIM sent on Nov 16, 2018 10:10;On;On;On;On;On;On;On
13491;31637103588;Takeda;€0,00;69;Pricing Template JP Standard FreeRider;0;0;0;0;;21-3-2014;250;12;JP;TrendCall;trendcall.nl;8931162111800022979;62763746;Porting planned on dec 3rd  - T-mobile SIM sent on Nov 16, 2018 10:10;On;On;On;On;On;On;On
13494;31630921225;Plas;€14,85;66;Pricing Template CargoFone Flexible;0;Domestic Very Small (100 min/SMS);International Small (100 min/SMS);Data NL+EU 400 MB;;28-4-2014;80;12;NL;Routiers Bellen;central-services.nl;8931162111800016328;23661058;Porting planned on dec 3rd  - T-mobile SIM sent on Nov 16, 2018 13:08;On;On;On;On;On;On;On
13515;31637095588;Nakamura;€13,63;67;Pricing Template JP-standard Flexible;0;Domestic Very Small (100 min/SMS);0;Data NL+EU 400 MB;;17-4-2014;250;12;JP;TrendCall;trendcall.nl;8931162111800022565;56463407;Porting planned on dec 3rd  - T-mobile SIM sent on Nov 16, 2018 10:12;On;On;On;On;On;On;On
13515;31637095596;Nakamura;€18,90;69;Pricing Template JP Standard FreeRider;0;0;0;Data NL+EU 1 GB;;17-4-2014;250;12;JP;TrendCall;trendcall.nl;8931162111800022839;33098262;Porting planned on dec 3rd  - T-mobile SIM sent on Nov 16, 2018 10:10;On;On;On;On;On;On;On
13520;31647880381;Moesbergen;€1,25;65;Pricing Template TrendCall Flexible;0;0;0;data barring;;23-4-2014;80;12;NL;TrendCall;trendcall.nl;8931162111800016344;96488941;Porting planned on dec 3rd  - T-mobile SIM sent on Nov 16, 2018 13:08;On;Off;On;On;On;On;On
13565;31610914594;Bouman;€29,95;66;Pricing Template CargoFone Flexible;0;Domestic Medium (300 min/SMS);International Medium (300 min/SMS);Data NL+EU 1,2 GB;;1-7-2014;80;24;NL;CargoFone;cargofone.nl;8931162111800015189;13591185;Porting planned on dec 3rd  - T-mobile SIM sent on Nov 16, 2018 13:02;On;On;On;On;On;On;On
13582;31637095630;Herder;€7,45;66;Pricing Template CargoFone Flexible;0;0;0;data barring;;23-7-2014;80;12;NL;CargoFone;cargofone.nl;8931162111800015502;49959664;Porting planned on dec 3rd  - T-mobile SIM sent on Nov 16, 2018 13:04;On;Off;On;On;On;On;On
13582;31637095631;Herder;€61,50;66;Pricing Template CargoFone Flexible;0;Domestic Unlimited (1500 min/SMS);0;Data NL+EU 3 GB;;23-7-2014;80;12;NL;CargoFone;cargofone.nl;8931162111800015700;45884704;Porting planned on dec 3rd  - T-mobile SIM sent on Nov 16, 2018 13:05;On;On;On;On;On;On;On
13599;31637096040;Nakao;€0,00;69;Pricing Template JP Standard FreeRider;0;0;0;0;;23-8-2014;250;12;JP;TrendCall;trendcall.nl;8931162111800022904;12395212;Porting planned on dec 3rd  - T-mobile SIM sent on Nov 16, 2018 10:10;On;On;On;On;On;On;On
13625;31637096060;Murakami;€21,45;69;Pricing Template JP Standard FreeRider;0;0;0;Data NL+EU 1 GB;;30-10-2014;250;12;JP;TrendCall;trendcall.nl;8931162111800022375;57699957;Porting planned on dec 3rd  - T-mobile SIM sent on Nov 16, 2018 10:13;On;On;On;On;On;On;On
13646;31646348633;Lagae;€4,95;65;Pricing Template TrendCall Flexible;0;0;0;data barring;;2-2-2015;80;12;NL;TrendCall;trendcall.nl;8931162111800015940;71361083;Porting planned on dec 3rd  - T-mobile SIM sent on Nov 16, 2018 13:06;On;Off;Off;Off;On;On;On
13652;31613545813;Prins;€12,35;65;Pricing Template TrendCall Flexible;0;0;0;Data NL+EU 100 MB;;2-2-2015;80;12;EN;ExpatMobile;expatmobile.nl;8931162111800020338;99996313;Porting planned on dec 3rd  - T-mobile SIM sent on Nov 19, 2018 14:53;On;On;Off;Off;On;On;On
13664;31640061179;Brinkerink;€19,79;70;Pricing Template SeniorFoon SOS mobiel Flexible;0;Domestic Very Small (100 min/SMS);0;data barring;;7-3-2015;80;12;NL;SOS Mobiel;central-services.nl;8931162111800020254;16634128;Porting planned on dec 3rd  - T-mobile SIM sent on Nov 19, 2018 14:53;On;Off;Off;Off;On;On;On
13689;31613310232;Nishi;€13,63;67;Pricing Template JP-standard Flexible;0;Domestic Very Small (100 min/SMS);0;Data NL+EU 400 MB;;14-4-2015;250;12;NL;TrendCall;trendcall.nl;8931162111800015841;73149605;Porting planned on dec 3rd  - T-mobile SIM sent on Nov 16, 2018 13:05;On;On;Off;Off;On;On;On
13691;31613556280;Miyoshi;€4,95;67;Pricing Template JP-standard Flexible;0;0;0;data barring;;15-4-2015;250;12;JP;TrendCall;trendcall.nl;8931162111800021567;37716915;Porting planned on dec 3rd  - T-mobile SIM sent on Nov 16, 2018 10:20;On;Off;On;On;On;On;On
13717;31613542961;Kato;€19,38;67;Pricing Template JP-standard Flexible;0;Domestic Very Small (100 min/SMS);0;Data NL+EU 1 GB;;16-6-2015;250;12;JP;TrendCall;trendcall.nl;8931162111800022805;49645643;Porting planned on dec 3rd  - T-mobile SIM sent on Nov 16, 2018 10:11;On;On;Off;Off;On;On;On
13718;31613533883;Yabuki;€17,72;67;Pricing Template JP-standard Flexible;0;Domestic Very Small (100 min/SMS);International Small (100 min/SMS);Data NL+EU 400 MB;;25-6-2015;250;12;JP;TrendCall;trendcall.nl;8931162111800022797;19973988;Porting planned on dec 3rd  - T-mobile SIM sent on Nov 16, 2018 10:11;On;On;Off;Off;On;On;On
13718;31613542231;Yabuki;€17,72;67;Pricing Template JP-standard Flexible;0;Domestic Very Small (100 min/SMS);International Small (100 min/SMS);Data NL+EU 400 MB;;25-6-2015;250;12;JP;TrendCall;trendcall.nl;8931162111800022789;18826915;Porting planned on dec 3rd  - T-mobile SIM sent on Nov 16, 2018 10:11;On;On;Off;Off;On;On;On
13719;31627233552;Cornelisse;€59,95;65;Pricing Template TrendCall Flexible;0;Domestic Unlimited (1500 min/SMS);International Large (750 min/SMS);Data NL+EU 2 GB;;2-7-2015;80;24;NL;TrendCall;trendcall.nl;8931162111800016229;99261252;Porting planned on dec 3rd  - T-mobile SIM sent on Nov 16, 2018 13:08;On;On;Off;Off;On;On;On
13719;31646605706;Cornelisse;€59,95;65;Pricing Template TrendCall Flexible;0;Domestic Unlimited (1500 min/SMS);International Large (750 min/SMS);Data NL+EU 2 GB;;2-7-2015;80;24;NL;TrendCall;trendcall.nl;8931162111800016211;21315184;Porting planned on dec 3rd  - T-mobile SIM sent on Nov 16, 2018 13:07;On;On;Off;Off;On;On;On
13734;31683943972;Wolters;€12,36;70;Pricing Template SeniorFoon SOS mobiel Flexible;0;Domestic Very Small (100 min/SMS);0;data barring;;30-7-2015;80;12;NL;SOS Mobiel;central-services.nl;8931162111800016245;38376137;Porting planned on dec 3rd  - T-mobile SIM sent on Nov 16, 2018 13:08;On;Off;Off;Off;On;On;On
13735;31683944502;Menon;€4,95;65;Pricing Template TrendCall Flexible;0;0;0;data barring;;9-8-2015;80;12;NL;TrendCall;trendcall.nl;8931162111800016260;71786629;Porting planned on dec 3rd  - T-mobile SIM sent on Nov 16, 2018 13:08;On;Off;Off;Off;On;Off;On
13742;31657802243;Takano;€13,63;67;Pricing Template JP-standard Flexible;0;Domestic Very Small (100 min/SMS);0;Data NL+EU 400 MB;;20-8-2015;250;12;JP;TrendCall;trendcall.nl;8931162111800021781;71082865;Porting planned on dec 3rd  - T-mobile SIM sent on Nov 16, 2018 10:18;On;On;On;On;On;On;On
13742;31683946564;Takano;€13,63;67;Pricing Template JP-standard Flexible;0;Domestic Very Small (100 min/SMS);0;Data NL+EU 400 MB;;20-8-2015;250;12;JP;TrendCall;trendcall.nl;8931162111800022771;94029251;Porting planned on dec 3rd  - T-mobile SIM sent on Nov 16, 2018 10:11;On;On;Off;On;On;On;On
13760;31683948171;Kikuchi;€13,63;67;Pricing Template JP-standard Flexible;0;Domestic Very Small (100 min/SMS);0;Data NL+EU 400 MB;;21-10-2015;250;12;NL;TrendCall;trendcall.nl;8931162111800016187;89301912;Porting planned on dec 3rd  - T-mobile SIM sent on Nov 16, 2018 13:07;On;On;Off;Off;On;On;On
13763;31683944926;Tsuchida;€13,63;67;Pricing Template JP-standard Flexible;0;Domestic Very Small (100 min/SMS);0;Data NL+EU 400 MB;;3-11-2015;250;12;JP;TrendCall;trendcall.nl;8931162111800022151;39662978;Porting planned on dec 3rd  - T-mobile SIM sent on Nov 16, 2018 10:15;On;On;Off;Off;On;On;On
13764;31681405792;Ochiai;€13,63;67;Pricing Template JP-standard Flexible;0;Domestic Very Small (100 min/SMS);0;Data NL+EU 400 MB;;3-11-2015;250;12;JP;TrendCall;trendcall.nl;8931162111800022144;21113874;Porting planned on dec 3rd  - T-mobile SIM sent on Nov 16, 2018 10:15;On;On;Off;Off;On;On;On
13771;31683945281;Kakita;€13,63;67;Pricing Template JP-standard Flexible;0;Domestic Very Small (100 min/SMS);0;Data NL+EU 400 MB;;3-12-2015;250;12;JP;TrendCall;trendcall.nl;8931162111800022128;78470439;Porting planned on dec 3rd  - T-mobile SIM sent on Nov 16, 2018 10:15;On;On;Off;Off;On;On;On
13778;31683945541;Suehiro;€13,63;67;Pricing Template JP-standard Flexible;0;Domestic Very Small (100 min/SMS);0;Data NL+EU 400 MB;;23-12-2015;250;12;JP;TrendCall;trendcall.nl;8931162111800022243;47268199;Porting planned on dec 3rd  - T-mobile SIM sent on Nov 16, 2018 10:14;On;On;Off;Off;On;On;On
13782;31683945664;Tashiro;€13,63;67;Pricing Template JP-standard Flexible;0;Domestic Very Small (100 min/SMS);0;Data NL+EU 400 MB;;18-1-2016;250;3;JP;TrendCall;trendcall.nl;8931162111800022235;82609054;Porting planned on dec 3rd  - T-mobile SIM sent on Nov 16, 2018 10:14;On;On;Off;Off;On;On;On
13783;31683945702;Fujita;€13,63;67;Pricing Template JP-standard Flexible;0;Domestic Very Small (100 min/SMS);0;Data NL+EU 400 MB;;15-1-2016;250;12;JP;TrendCall;trendcall.nl;8931162111800022227;27760699;Porting planned on dec 3rd  - T-mobile SIM sent on Nov 16, 2018 10:14;On;On;Off;Off;On;On;On
13786;31683946166;Watanabe;€19,38;67;Pricing Template JP-standard Flexible;0;Domestic Very Small (100 min/SMS);0;Data NL+EU 1 GB;;22-1-2016;250;12;JP;TrendCall;trendcall.nl;8931162111800022219;23833136;Porting planned on dec 3rd  - T-mobile SIM sent on Nov 16, 2018 10:14;On;On;Off;Off;On;On;On
13793;31683945918;Murata;€17,72;67;Pricing Template JP-standard Flexible;0;Domestic Very Small (100 min/SMS);International Small (100 min/SMS);Data NL+EU 400 MB;;11-3-2016;250;12;JP;TrendCall;trendcall.nl;8931162111800022201;97553106;Porting planned on dec 3rd  - T-mobile SIM sent on Nov 16, 2018 10:14;On;On;Off;Off;On;On;On
13805;31683946856;Kawaguchi;€4,95;67;Pricing Template JP-standard Flexible;0;0;0;data barring;;9-4-2016;250;12;JP;TrendCall;trendcall.nl;8931162111800022425;20369572;Porting planned on dec 3rd  - T-mobile SIM sent on Nov 16, 2018 10:13;On;Off;Off;Off;On;On;On
13805;31683946863;Kawaguchi;€4,95;67;Pricing Template JP-standard Flexible;0;0;0;data barring;;9-4-2016;250;12;JP;TrendCall;trendcall.nl;8931162111800022417;34901166;Porting planned on dec 3rd  - T-mobile SIM sent on Nov 16, 2018 10:13;On;Off;Off;Off;On;On;On
13806;31683946739;Nakata;€13,63;67;Pricing Template JP-standard Flexible;0;Domestic Very Small (100 min/SMS);0;Data NL+EU 400 MB;;26-4-2016;250;12;JP;TrendCall;trendcall.nl;8931162111800022169;51501411;Porting planned on dec 3rd  - T-mobile SIM sent on Nov 16, 2018 10:14;On;On;Off;Off;On;On;On
13806;31683946743;Nakata;€13,63;67;Pricing Template JP-standard Flexible;0;Domestic Very Small (100 min/SMS);0;Data NL+EU 400 MB;;26-4-2016;250;12;JP;TrendCall;trendcall.nl;8931162111800022300;63189280;Porting planned on dec 3rd  - T-mobile SIM sent on Nov 16, 2018 10:13;On;On;Off;Off;On;On;On
13813;31611282359;Hata;€13,63;67;Pricing Template JP-standard Flexible;0;Domestic Very Small (100 min/SMS);0;Data NL+EU 400 MB;;29-4-2016;250;12;JP;TrendCall;trendcall.nl;8931162111800022409;29656511;Porting planned on dec 3rd  - T-mobile SIM sent on Nov 16, 2018 10:13;On;On;Off;Off;On;On;On
13817;31683946827;Sato;€13,63;67;Pricing Template JP-standard Flexible;0;Domestic Very Small (100 min/SMS);0;Data NL+EU 400 MB;;12-5-2016;250;12;JP;TrendCall;trendcall.nl;8931162111800022185;37756453;Porting planned on dec 3rd  - T-mobile SIM sent on Nov 16, 2018 10:14;On;On;Off;Off;On;On;On
13817;31683946836;Sato;€13,63;67;Pricing Template JP-standard Flexible;0;Domestic Very Small (100 min/SMS);0;Data NL+EU 400 MB;;12-5-2016;250;12;JP;TrendCall;trendcall.nl;8931162111800022177;54802197;Porting planned on dec 3rd  - T-mobile SIM sent on Nov 16, 2018 10:14;On;On;Off;Off;On;On;On
13819;31611166508;Tsuboi;€13,63;67;Pricing Template JP-standard Flexible;0;Domestic Very Small (100 min/SMS);0;Data NL+EU 400 MB;;8-5-2016;250;12;JP;TrendCall;trendcall.nl;8931162111800022391;92653258;Porting planned on dec 3rd  - T-mobile SIM sent on Nov 16, 2018 10:13;On;On;Off;Off;On;On;On
13827;31683947166;Kuzawa;€13,63;67;Pricing Template JP-standard Flexible;0;Domestic Very Small (100 min/SMS);0;Data NL+EU 400 MB;;21-6-2016;250;12;JP;TrendCall;trendcall.nl;8931162111800022342;60723010;Porting planned on dec 3rd  - T-mobile SIM sent on Nov 16, 2018 10:13;On;On;Off;Off;On;On;On
13828;31682538208;Nara;€23,47;67;Pricing Template JP-standard Flexible;0;Domestic Very Small (100 min/SMS);International Small (100 min/SMS);Data NL+EU 1 GB;;8-7-2016;250;12;JP;TrendCall;trendcall.nl;8931162111800022334;43787422;Porting planned on dec 3rd  - T-mobile SIM sent on Nov 16, 2018 10:13;On;On;Off;Off;On;On;On
13839;31682539053;Suwa;€17,72;67;Pricing Template JP-standard Flexible;0;Domestic Very Small (100 min/SMS);International Small (100 min/SMS);Data NL+EU 400 MB;;28-7-2016;250;12;JP;TrendCall;trendcall.nl;8931162111800022474;13919658;Porting planned on dec 3rd  - T-mobile SIM sent on Nov 16, 2018 10:12;On;On;Off;Off;On;On;On
13843;31682539783;Kato;€13,63;67;Pricing Template JP-standard Flexible;0;Domestic Very Small (100 min/SMS);0;Data NL+EU 400 MB;;6-8-2016;250;12;JP;TrendCall;trendcall.nl;8931162111800022466;77214606;Porting planned on dec 3rd  - T-mobile SIM sent on Nov 16, 2018 10:12;On;On;Off;Off;On;On;On
13845;31682540581;Kagotani;€19,38;67;Pricing Template JP-standard Flexible;0;Domestic Very Small (100 min/SMS);0;Data NL+EU 1 GB;;12-8-2016;250;12;JP;TrendCall;trendcall.nl;8931162111800022326;20521964;Porting planned on dec 3rd  - T-mobile SIM sent on Nov 16, 2018 10:13;On;On;Off;Off;On;On;On
13849;31682541736;Igarashi;€23,47;67;Pricing Template JP-standard Flexible;0;Domestic Very Small (100 min/SMS);International Small (100 min/SMS);Data NL+EU 1 GB;;4-9-2016;250;12;JP;TrendCall;trendcall.nl;8931162111800022292;86643727;Porting planned on dec 3rd  - T-mobile SIM sent on Nov 16, 2018 10:14;On;On;Off;Off;On;On;On
13863;31682740879;Hayashi;€19,38;67;Pricing Template JP-standard Flexible;0;Domestic Very Small (100 min/SMS);0;Data NL+EU 1 GB;;10-11-2016;250;12;JP;TrendCall;trendcall.nl;8931162111800022458;84287018;Porting planned on dec 3rd  - T-mobile SIM sent on Nov 16, 2018 10:13;On;On;Off;Off;On;On;On
13865;31682742012;Coelingh;€4,95;65;Pricing Template TrendCall Flexible;0;0;0;data barring;;7-12-2016;80;3;NL;TrendCall;trendcall.nl;8931162111800015999;55824151;Porting planned on dec 3rd  - T-mobile SIM sent on Nov 16, 2018 13:06;On;Off;Off;Off;On;On;On
13871;31682741232;Oda;€19,38;67;Pricing Template JP-standard Flexible;0;Domestic Very Small (100 min/SMS);0;Data NL+EU 1 GB;;15-12-2016;250;17400;NL;TrendCall;trendcall.nl;8931162111800016096;75373731;Porting planned on dec 3rd  - T-mobile SIM sent on Nov 16, 2018 13:07;On;On;Off;Off;On;On;On
13892;31682744577;Zuidam;€7,90;65;Pricing Template TrendCall Flexible;0;0;0;Data NL+EU 100 MB;;17-2-2017;80;3;NL;TrendCall;trendcall.nl;8931162111800016609;32993225;Porting planned on dec 3rd  - T-mobile SIM sent on Nov 16, 2018 13:10;On;On;Off;Off;On;On;On
13905;31682743231;Fujiwara;€13,63;67;Pricing Template JP-standard Flexible;0;Domestic Very Small (100 min/SMS);0;Data NL+EU 400 MB;;24-3-2017;250;12;JP;TrendCall;trendcall.nl;8931162111800022748;15669656;Porting planned on dec 3rd  - T-mobile SIM sent on Nov 16, 2018 10:11;On;On;Off;Off;On;On;On
13908;31682743376;Funayama;€13,63;67;Pricing Template JP-standard Flexible;0;Domestic Very Small (100 min/SMS);0;Data NL+EU 400 MB;;10-4-2017;250;12;JP;TrendCall;trendcall.nl;8931162111800022730;59781413;Porting planned on dec 3rd  - T-mobile SIM sent on Nov 16, 2018 10:11;On;On;Off;Off;On;On;On
13908;31682743412;Funayama;€13,63;67;Pricing Template JP-standard Flexible;0;Domestic Very Small (100 min/SMS);0;Data NL+EU 400 MB;;10-4-2017;250;12;JP;TrendCall;trendcall.nl;8931162111800022722;81932850;Porting planned on dec 3rd  - T-mobile SIM sent on Nov 16, 2018 10:11;On;On;Off;Off;On;On;On
13909;31682743525;Masui;€13,63;67;Pricing Template JP-standard Flexible;0;Domestic Very Small (100 min/SMS);0;Data NL+EU 400 MB;;12-4-2017;250;12;JP;TrendCall;trendcall.nl;8931162111800022672;93660383;Porting planned on dec 3rd  - T-mobile SIM sent on Nov 16, 2018 10:11;On;On;Off;Off;On;On;On
13909;31682744305;Masui;€13,63;67;Pricing Template JP-standard Flexible;0;Domestic Very Small (100 min/SMS);0;Data NL+EU 400 MB;;12-4-2017;250;12;JP;TrendCall;trendcall.nl;8931162111800022656;63738523;Porting planned on dec 3rd  - T-mobile SIM sent on Nov 16, 2018 10:11;On;On;Off;Off;On;On;On
13912;31682743837;Matsumoto;€13,63;67;Pricing Template JP-standard Flexible;0;Domestic Very Small (100 min/SMS);0;Data NL+EU 400 MB;;10-4-2017;250;12;JP;TrendCall;trendcall.nl;8931162111800022680;30399933;Porting planned on dec 3rd  - T-mobile SIM sent on Nov 16, 2018 10:11;On;On;Off;Off;On;On;On
13914;31682743990;Kunitomo;€13,63;67;Pricing Template JP-standard Flexible;0;Domestic Very Small (100 min/SMS);0;Data NL+EU 400 MB;;10-4-2017;250;12;JP;TrendCall;trendcall.nl;8931162111800022698;50401632;Porting planned on dec 3rd  - T-mobile SIM sent on Nov 16, 2018 10:11;On;On;Off;Off;On;On;On
13915;31682744287;Koide;€17,72;67;Pricing Template JP-standard Flexible;0;Domestic Very Small (100 min/SMS);International Small (100 min/SMS);Data NL+EU 400 MB;;10-4-2017;250;12;JP;TrendCall;trendcall.nl;8931162111800022706;59732852;Porting planned on dec 3rd  - T-mobile SIM sent on Nov 16, 2018 10:11;On;On;Off;Off;On;On;On
13916;31682744027;Yamada;€13,63;67;Pricing Template JP-standard Flexible;0;Domestic Very Small (100 min/SMS);0;Data NL+EU 400 MB;;10-4-2017;250;12;JP;TrendCall;trendcall.nl;8931162111800022714;66582888;Porting planned on dec 3rd  - T-mobile SIM sent on Nov 16, 2018 10:11;On;On;Off;Off;On;On;On
13917;31682743815;Ijichi;€13,63;67;Pricing Template JP-standard Flexible;0;Domestic Very Small (100 min/SMS);0;Data NL+EU 400 MB;;12-4-2017;250;12;JP;TrendCall;trendcall.nl;8931162111800022664;81509831;Porting planned on dec 3rd  - T-mobile SIM sent on Nov 16, 2018 10:11;On;On;Off;Off;On;On;On
13918;31615071920;Terada;€17,72;67;Pricing Template JP-standard Flexible;0;Domestic Very Small (100 min/SMS);International Small (100 min/SMS);Data NL+EU 400 MB;;27-4-2017;250;12;JP;TrendCall;trendcall.nl;8931162111800021757;54660907;Porting planned on dec 3rd  - T-mobile SIM sent on Nov 16, 2018 10:18;On;On;Off;Off;On;On;On
13919;31682744356;Nakajima;€13,63;67;Pricing Template JP-standard Flexible;0;Domestic Very Small (100 min/SMS);0;Data NL+EU 400 MB;;29-4-2017;250;12;JP;TrendCall;trendcall.nl;8931162111800022623;23818819;Porting planned on dec 3rd  - T-mobile SIM sent on Nov 16, 2018 10:11;On;On;Off;Off;On;On;On
13922;31682744797;Konishi;€17,72;67;Pricing Template JP-standard Flexible;0;Domestic Very Small (100 min/SMS);International Small (100 min/SMS);Data NL+EU 400 MB;;1-6-2017;250;12;JP;TrendCall;trendcall.nl;8931162111800022599;49197354;Porting planned on dec 3rd  - T-mobile SIM sent on Nov 16, 2018 10:12;On;On;Off;Off;On;On;On
13927;31613552282;Yamaguchi;€13,63;67;Pricing Template JP-standard Flexible;0;Domestic Very Small (100 min/SMS);0;Data NL+EU 400 MB;;19-7-2017;250;12;NL;TrendCall;trendcall.nl;8931162111800016054;26222799;Porting planned on dec 3rd  - T-mobile SIM sent on Nov 16, 2018 13:07;On;On;Off;Off;On;On;On
13929;31613553040;Fujii;€13,63;67;Pricing Template JP-standard Flexible;0;Domestic Very Small (100 min/SMS);0;Data NL+EU 400 MB;;10-8-2017;250;12;NL;TrendCall;trendcall.nl;8931162111800016062;52972738;Porting planned on dec 3rd  - T-mobile SIM sent on Nov 16, 2018 13:07;On;On;Off;Off;On;On;On
13929;31613553101;Fujii;€13,63;67;Pricing Template JP-standard Flexible;0;Domestic Very Small (100 min/SMS);0;Data NL+EU 400 MB;;10-8-2017;250;12;NL;TrendCall;trendcall.nl;8931162111800016070;43281272;Porting planned on dec 3rd  - T-mobile SIM sent on Nov 16, 2018 13:07;On;On;Off;Off;On;On;On
13941;31613556107;Takahashi;€13,63;67;Pricing Template JP-standard Flexible;0;Domestic Very Small (100 min/SMS);0;Data NL+EU 400 MB;;8-9-2017;250;12;JP;TrendCall;trendcall.nl;8931162111800022482;82093655;Porting planned on dec 3rd  - T-mobile SIM sent on Nov 16, 2018 10:12;On;On;Off;Off;On;On;On
13954;31630000331;Terada;€17,72;67;Pricing Template JP-standard Flexible;0;Domestic Very Small (100 min/SMS);International Small (100 min/SMS);Data NL+EU 400 MB;;6-10-2017;250;12;JP;TrendCall;trendcall.nl;8931162111800021534;72056373;Porting planned on dec 3rd  - T-mobile SIM sent on Nov 16, 2018 10:21;On;On;On;On;On;On;On
13961;31630001056;Inuzuka;€7,90;67;Pricing Template JP-standard Flexible;0;0;0;Data NL+EU 100 MB;;21-11-2017;250;12;JP;TrendCall;trendcall.nl;8931162111800021518;28365201;Porting planned on dec 3rd  - T-mobile SIM sent on Nov 16, 2018 10:21;On;On;Off;Off;On;On;On
13968;31630015936;Takeda;€17,72;67;Pricing Template JP-standard Flexible;0;Domestic Very Small (100 min/SMS);International Small (100 min/SMS);Data NL+EU 400 MB;;18-12-2017;250;12;JP;TrendCall;trendcall.nl;8931162111800021500;92520391;Porting planned on dec 3rd  - T-mobile SIM sent on Nov 16, 2018 10:21;On;On;Off;Off;On;On;On
13971;31630017545;van Ganzewinkel;€7,45;66;Pricing Template CargoFone Flexible;0;0;0;data barring;;11-1-2018;80;24;NL;CargoFone;cargofone.nl;8931162111800020163;25174300;Porting planned on dec 3rd  - T-mobile SIM sent on Nov 16, 2018 13:08;On;Off;Off;Off;On;On;On
13974;31630017553;Kawasaki;€19,38;67;Pricing Template JP-standard Flexible;0;Domestic Very Small (100 min/SMS);0;Data NL+EU 1 GB;;14-1-2018;250;12;JP;TrendCall;trendcall.nl;8931162111800021468;25589464;Porting planned on dec 3rd  - T-mobile SIM sent on Nov 16, 2018 10:21;On;On;Off;Off;On;On;On
13975;31630017563;Sato;€13,63;67;Pricing Template JP-standard Flexible;0;Domestic Very Small (100 min/SMS);0;Data NL+EU 400 MB;;14-1-2018;250;12;NL;TrendCall;trendcall.nl;8931162111800016583;55142802;Porting planned on dec 3rd  - T-mobile SIM sent on Nov 16, 2018 13:10;On;On;Off;Off;On;On;On
13996;31630018532;Verdonschot;€4,95;65;Pricing Template TrendCall Flexible;0;0;0;data barring;;25-1-2018;80;12;NL;TrendCall;trendcall.nl;8931162111800020171;59974573;Porting planned on dec 3rd  - T-mobile SIM sent on Nov 16, 2018 11:35;Off;Off;Off;Off;On;On;On
14017;31630019786;Hirakawa;€13,63;67;Pricing Template JP-standard Flexible;0;Domestic Very Small (100 min/SMS);0;Data NL+EU 400 MB;;15-2-2018;250;12;JP;TrendCall;trendcall.nl;8931162111800022094;85918617;Porting planned on dec 3rd  - T-mobile SIM sent on Nov 16, 2018 10:15;On;On;Off;Off;On;On;On
14049;31630025023;Ujiie;€13,63;67;Pricing Template JP-standard Flexible;0;Domestic Very Small (100 min/SMS);0;Data NL+EU 400 MB;;28-3-2018;250;12;JP;TrendCall;trendcall.nl;8931162111800021922;81628821;Porting planned on dec 3rd  - T-mobile SIM sent on Nov 16, 2018 10:16;On;On;Off;Off;On;On;On
14052;31630155682;Ito;€13,63;67;Pricing Template JP-standard Flexible;0;Domestic Very Small (100 min/SMS);0;Data NL+EU 400 MB;;28-3-2018;250;12;JP;TrendCall;trendcall.nl;8931162111800021708;87660183;Porting planned on dec 3rd  - T-mobile SIM sent on Nov 16, 2018 10:19;On;On;On;On;On;On;On
14054;31630034495;Shimizu;€13,63;67;Pricing Template JP-standard Flexible;0;Domestic Very Small (100 min/SMS);0;Data NL+EU 400 MB;;28-3-2018;250;12;JP;TrendCall;trendcall.nl;8931162111800021963;63280873;Porting planned on dec 3rd  - T-mobile SIM sent on Nov 16, 2018 10:16;On;On;Off;Off;On;On;On
14057;31630025249;Mukohara;€4,95;67;Pricing Template JP-standard Flexible;0;0;0;data barring;;28-3-2018;250;12;JP;TrendCall;trendcall.nl;8931162111800021906;84032034;Porting planned on dec 3rd  - T-mobile SIM sent on Nov 16, 2018 10:17;On;Off;Off;Off;On;On;On
14057;31630025976;Mukohara;€4,95;67;Pricing Template JP-standard Flexible;0;0;0;data barring;;28-3-2018;250;12;JP;TrendCall;trendcall.nl;8931162111800021898;48942104;Porting planned on dec 3rd  - T-mobile SIM sent on Nov 16, 2018 10:17;On;Off;Off;Off;On;On;On
14057;31630026293;Mukohara;€4,95;67;Pricing Template JP-standard Flexible;0;0;0;data barring;;28-3-2018;250;12;JP;TrendCall;trendcall.nl;8931162111800021880;69498651;Porting planned on dec 3rd  - T-mobile SIM sent on Nov 16, 2018 10:17;On;Off;Off;Off;On;On;On
14057;31630026455;Mukohara;€4,95;67;Pricing Template JP-standard Flexible;0;0;0;data barring;;28-3-2018;250;12;JP;TrendCall;trendcall.nl;8931162111800021872;59375195;Porting planned on dec 3rd  - T-mobile SIM sent on Nov 16, 2018 10:17;On;Off;Off;Off;On;On;On
14057;31630026710;Mukohara;€4,95;67;Pricing Template JP-standard Flexible;0;0;0;data barring;;28-3-2018;250;12;JP;TrendCall;trendcall.nl;8931162111800021864;16734360;Porting planned on dec 3rd  - T-mobile SIM sent on Nov 16, 2018 10:17;On;Off;Off;Off;On;On;On
14057;31630026759;Mukohara;€4,95;67;Pricing Template JP-standard Flexible;0;0;0;data barring;;28-3-2018;250;12;JP;TrendCall;trendcall.nl;8931162111800021856;11953534;Porting planned on dec 3rd  - T-mobile SIM sent on Nov 16, 2018 10:17;On;Off;Off;Off;On;On;On
14057;31630027146;Mukohara;€4,95;67;Pricing Template JP-standard Flexible;0;0;0;data barring;;28-3-2018;250;12;JP;TrendCall;trendcall.nl;8931162111800021849;82325354;Porting planned on dec 3rd  - T-mobile SIM sent on Nov 16, 2018 10:17;On;Off;Off;Off;On;On;On
14057;31630027524;Mukohara;€4,95;67;Pricing Template JP-standard Flexible;0;0;0;data barring;;28-3-2018;250;12;JP;TrendCall;trendcall.nl;8931162111800021831;34776334;Porting planned on dec 3rd  - T-mobile SIM sent on Nov 16, 2018 10:17;On;Off;Off;Off;On;On;On
14057;31630029389;Mukohara;€4,95;67;Pricing Template JP-standard Flexible;0;0;0;data barring;;28-3-2018;250;12;JP;TrendCall;trendcall.nl;8931162111800021823;79802658;Porting planned on dec 3rd  - T-mobile SIM sent on Nov 16, 2018 10:17;On;Off;Off;Off;On;On;On
14057;31630029793;Mukohara;€4,95;67;Pricing Template JP-standard Flexible;0;0;0;data barring;;28-3-2018;250;12;JP;TrendCall;trendcall.nl;8931162111800021815;26927647;Porting planned on dec 3rd  - T-mobile SIM sent on Nov 16, 2018 10:17;On;Off;Off;Off;On;On;On
14061;31657801871;Momose;€13,63;67;Pricing Template JP-standard Flexible;0;Domestic Very Small (100 min/SMS);0;Data NL+EU 400 MB;;4-4-2018;250;12;JP;TrendCall;trendcall.nl;8931162111800022102;35480708;Porting planned on dec 3rd  - T-mobile SIM sent on Nov 16, 2018 10:15;On;On;Off;Off;On;On;On
14107;31657803462;UMEDA;€19,38;67;Pricing Template JP-standard Flexible;0;Domestic Very Small (100 min/SMS);0;Data NL+EU 1 GB;;29-5-2018;250;12;JP;ExpatMobile;expatmobile.nl;8931162111800021732;79290835;Porting planned on dec 3rd  - T-mobile SIM sent on Nov 16, 2018 10:18;On;On;Off;Off;On;On;On
14157;31610614816;Gerner;€4,95;65;Pricing Template TrendCall Flexible;0;0;0;data barring;;6-7-2018;80;24;NL;TrendCall;trendcall.nl;8931162111800016500;43974281;Porting planned on dec 3rd  - T-mobile SIM sent on Nov 16, 2018 13:09;On;Off;Off;Off;On;On;On
14157;31653130456;Gerner;€4,95;65;Pricing Template TrendCall Flexible;0;0;0;data barring;;6-7-2018;80;24;NL;TrendCall;trendcall.nl;8931162111800016492;75714938;Porting planned on dec 3rd  - T-mobile SIM sent on Nov 16, 2018 13:09;On;Off;Off;Off;On;On;On
14185;31657840769;Nakanishi;€13,63;67;Pricing Template JP-standard Flexible;0;Domestic Very Small (100 min/SMS);0;Data NL+EU 400 MB;;23-7-2018;250;12;NL;TrendCall;trendcall.nl;8931162111800016419;87202291;Porting planned on dec 3rd  - T-mobile SIM sent on Nov 16, 2018 13:09;On;On;Off;Off;On;On;On
14204;31630155635;Azuma;€13,63;67;Pricing Template JP-standard Flexible;0;Domestic Very Small (100 min/SMS);0;Data NL+EU 400 MB;;1-8-2018;250;12;JP;TrendCall;trendcall.nl;8931162111800021690;73498223;Porting planned on dec 3rd  - T-mobile SIM sent on Nov 16, 2018 10:19;On;On;On;On;On;On;On
14250;31610000767;Otani;€19,38;67;Pricing Template JP-standard Flexible;0;Domestic Very Small (100 min/SMS);0;Data NL+EU 1 GB;;17-8-2018;250;12;JP;TrendCall;trendcall.nl;8931162111800021658;73048866;Porting planned on dec 3rd  - T-mobile SIM sent on Nov 16, 2018 10:19;On;On;Off;Off;On;On;On
14399;31610011050;Kempen;€28,90;65;Pricing Template TrendCall Flexible;0;Domestic Unlimited (1500 min/SMS);International Large (750 min/SMS);Data NL+EU 1 GB;;2-10-2018;80;24;NL;TrendCall;trendcall.nl;8931162111800016435;10141664;Porting planned on dec 3rd  - T-mobile SIM sent on Nov 16, 2018 13:09;On;On;Off;Off;On;On;On
14472;31610011514;Furukawa;€19,38;67;Pricing Template JP Standard;0;Domestic Very Small (100 min/SMS);0;Data NL+EU 1 GB;;23-10-2018;250;12;JP;TrendCall;trendcall.nl;8931162111800021591;84337698;Porting planned on dec 3rd  - T-mobile SIM sent on Nov 16, 2018 10:20;On;On;Off;Off;On;On;On
14472;31610011531;Furukawa;€19,38;67;Pricing Template JP Standard;0;Domestic Very Small (100 min/SMS);0;Data NL+EU 1 GB;;23-10-2018;250;12;JP;TrendCall;trendcall.nl;8931162111800021583;13379566;Porting planned on dec 3rd  - T-mobile SIM sent on Nov 16, 2018 10:20;On;On;Off;Off;On;On;On
