<?xml version="1.0" standalone="no"?>
<!DOCTYPE svg PUBLIC "-//W3C//DTD SVG 1.1//EN" "http://www.w3.org/Graphics/SVG/1.1/DTD/svg11.dtd" >
<!--
2016-8-24: Created with FontForge (http://fontforge.org)
-->
<svg xmlns="http://www.w3.org/2000/svg" xmlns:xlink="http://www.w3.org/1999/xlink" version="1.1">
<metadata>
Created by FontForge 20150913 at Wed Aug 24 16:52:08 2016
 By Joost van Cadsand
Copyright (c) 2016, Joost van Cadsand
</metadata>
<defs>
<font id="deltafont" horiz-adv-x="512" >
  <font-face 
    font-family="deltafont"
    font-weight="400"
    font-stretch="normal"
    units-per-em="512"
    panose-1="2 0 5 3 0 0 0 0 0 0"
    ascent="448"
    descent="-64"
    bbox="-5.50586 -69.5059 517.506 453.506"
    underline-thickness="25.6"
    underline-position="-51.2"
    unicode-range="U+0020-F105"
  />
    <missing-glyph />
    <glyph glyph-name="space" unicode=" " horiz-adv-x="200" 
 />
    <glyph glyph-name="uniF102" unicode="&#xf102;" 
d="M449.474 432.421v0c15.4385 16.8428 30.877 17.1934 46.3154 1.05273c15.4395 -16.1406 15.4395 -31.9297 0 -47.3682l-218.947 -218.947c-5.61328 -7.01758 -13.333 -10.5264 -23.1572 -10.5264c-9.8252 0 -17.5439 3.50879 -23.1582 10.5264l-218.947 218.947
c-15.4385 15.4385 -15.4385 31.2275 0 47.3682s30.877 15.79 46.3154 -1.05273l195.79 -193.684z" />
    <glyph glyph-name="uniF103" unicode="&#xf103;" 
d="M116.1 215.801h185.76v69.6592c0 25.6396 -9.07031 47.5283 -27.2109 65.6689s-40.0303 27.2109 -65.6689 27.2109s-47.5283 -9.07031 -65.6689 -27.2109s-27.2109 -40.0293 -27.2109 -65.6689v-69.6592zM417.959 180.971v-208.979
c0 -9.6748 -3.38574 -17.8994 -10.1582 -24.6719s-14.9961 -10.1582 -24.6719 -10.1582h-348.299c-9.6748 0 -17.8984 3.38574 -24.6709 10.1582c-6.77344 6.77246 -10.1592 14.9971 -10.1592 24.6719v208.979c0 9.6748 3.38574 17.8984 10.1592 24.6709
c6.77246 6.77246 14.9961 10.1592 24.6709 10.1592h11.6094v69.6592c0 44.5059 15.9639 82.7217 47.8916 114.649c31.9277 31.9268 70.1436 47.8906 114.648 47.8906s82.7207 -15.9639 114.648 -47.8906c31.9277 -31.9277 47.8916 -70.1436 47.8916 -114.649v-69.6592
h11.6094c9.67578 0 17.8994 -3.38672 24.6719 -10.1592s10.1582 -14.9961 10.1582 -24.6709v0z" />
    <glyph glyph-name="uniF105" unicode="&#xf105;" 
d="M-5.50586 453.506v-523.012h523.012v523.012h-523.012zM5.50586 -58.4941v500.988h500.988v-500.988h-500.988zM0 -64v512h512v-512h-512z" />
    <glyph glyph-name="uniF104" unicode="&#xf104;" 
d="M298.667 32v64c0 3.11133 -1 5.66699 -3 7.66699s-4.55566 3 -7.66699 3h-64c-3.11133 0 -5.66699 -1 -7.66699 -3s-3 -4.55566 -3 -7.66699v-64c0 -3.11133 1 -5.66699 3 -7.66699s4.55566 -3 7.66699 -3h64c3.11133 0 5.66699 1 7.66699 3s3 4.55566 3 7.66699v0z
M384 256c0 19.5557 -6.16699 37.667 -18.5 54.333c-12.333 16.667 -27.7217 29.5557 -46.167 38.667c-18.4443 9.11133 -37.333 13.667 -56.666 13.667c-54.001 0 -95.2227 -23.667 -123.667 -71c-3.33301 -5.33398 -2.44434 -10 2.66699 -14l44 -33.334
c1.55566 -1.33301 3.66602 -2 6.33301 -2c3.55566 0 6.33301 1.33398 8.33301 4c11.7783 15.1113 21.334 25.334 28.667 30.667c7.55566 5.33301 17.1113 8 28.667 8c10.666 0 20.166 -2.88867 28.5 -8.66699c8.33301 -5.77734 12.5 -12.333 12.5 -19.666
c0 -8.44434 -2.22266 -15.2227 -6.66699 -20.334c-4.44434 -5.11035 -12 -10.1104 -22.667 -15c-14 -6.22168 -26.833 -15.833 -38.5 -28.833c-11.666 -13 -17.5 -26.9443 -17.5 -41.833v-12c0 -3.11133 1 -5.66699 3 -7.66699s4.55566 -3 7.66699 -3h64
c3.11133 0 5.66699 1 7.66699 3s3 4.55566 3 7.66699c0 4.22168 2.38867 9.72168 7.16602 16.5c4.77832 6.77734 10.834 12.2773 18.167 16.5c7.11133 4 12.5557 7.16602 16.333 9.5c3.77832 2.33301 8.88965 6.22168 15.334 11.666s11.3887 10.7783 14.833 16
c3.44434 5.22266 6.55566 11.9443 9.33301 20.167c2.77832 8.22266 4.16699 17.2217 4.16699 27v0zM512 192c0 -46.4443 -11.4443 -89.2773 -34.333 -128.5c-22.8896 -39.2227 -53.9443 -70.2773 -93.167 -93.167c-39.2227 -22.8887 -82.0557 -34.333 -128.5 -34.333
s-89.2773 11.4443 -128.5 34.333c-39.2227 22.8896 -70.2773 53.9443 -93.167 93.167c-22.8887 39.2227 -34.333 82.0557 -34.333 128.5s11.4443 89.2773 34.333 128.5c22.8896 39.2227 53.9443 70.2773 93.167 93.167c39.2227 22.8887 82.0557 34.333 128.5 34.333
s89.2773 -11.4443 128.5 -34.333c39.2227 -22.8896 70.2773 -53.9443 93.167 -93.167c22.8887 -39.2227 34.333 -82.0557 34.333 -128.5v0z" />
  </font>
</defs></svg>
