"initial","salutation","firstname","middlename","lastname","id","deltaid","caiwayid","address1","housenumber","alphabet","postcode","city","country","delta_address1","delta_housenumber","delta_alphabet","delta_postcode","delta_city","delta_country","caiway_address1","caiway_housenumber","caiway_alphabet","caiway_postcode","caiway_city","caiway_country","email","phonenumber","phonenumber2","iban","brand","date_modified"
"","Dhr.","J.","","Dekker","947405","M405261","","Oosterscheldestraat","71","","4302 WH","Zierikzee","NL","Oosterscheldestraat","71","","4302 WH","Zierikzee","NL","","","","","","","stratos@kpnmail.nl","0641877611","","NL76INGB0666468095","Delta","2019-08-06 21:32:49"
"","Dhr.","H.F.J.","","Anders","947408","M432979","","Hoogaars","5","","4341 ML","Arnemuiden","NL","Hoogaars","5","","4341 ML","Arnemuiden","NL","","","","","","","handers@zeelandnet.nl","31610939216","","NL17RABO0144343800","Delta","2019-08-07 09:00:07"
"","Dhr.","J.","","Scheenhart","947409","M474430 VERLENGINGSAANBOD","","Molenstraat","82","","4698 BD","Oud-Vossemeer","NL","Molenstraat","82","","4698 BD","Oud-Vossemeer","NL","","","","","","","scheenhart@zeelandnet.nl","31166672556","","NL39RABO0362625123","Delta","2019-08-07 09:17:50"
"","Dhr.","J.","","van den  Broeke","947410","M468369","","Paauwenburgweg","37","","4384 JB","Vlissingen","NL","Paauwenburgweg","37","","4384 JB","Vlissingen","NL","","","","","","","janvandenbroeke@zeelandnet.nl","0118472434","","NL96ABNA0810806894","Delta","2019-08-07 09:58:38"
"","Mevr.","A.G.E.","","Heijman","947412","K10045062","","Stoofstraat","5","","4588 KE","Walsoorden","NL","Stoofstraat","5","","4588 KE","Walsoorden","NL","","","","","","","astrid65@zeelandnet.nl","31612565817","","NL97RABO0127249311","Delta","2019-08-07 11:00:49"
"","Dhr.","A.J.J.","","Remijn","947413","K00329876","","V.d.Spiegelstraat","36","","4461 LL","Goes","NL","V.d.Spiegelstraat","36","","4461 LL","Goes","NL","","","","","","","aremijn@zeelandnet.nl","31113220404","","NL93RABO0320518973","Delta","2019-08-07 11:18:11"
"","Dhr.","W.H.","","Vermaas","947414","M","","Hoenderweg","114","","4697 BM","Sint-Annaland","NL","Hoenderweg","114","","4697 BM","Sint-Annaland","NL","","","","","","","wvermaas1@zeelandnet.nl","3116665341","","NL11INGB0000942468","Delta","2019-08-07 11:25:37"
"","Dhr.","Y.L.M.","","Oosterbaan","947415","K01049139","","van Speykstraat 47 ","","","4535 BN","Terneuzen","NL","van Speykstraat 47 ","","","4535 BN","Terneuzen","NL","","","","","","","ysbrandoosterbaan@gmail.com","31115615122","","NL73ABNA0816404305","Delta","2019-08-07 11:30:22"
"","Mevr.","C.","","van de Repe","947416","REPE TEST MICHIEL","","F.M. Boogaardweg 26  ","","","4697 GZ","Sint-Annaland","NL","F.M. Boogaardweg 26  ","","","4697 GZ","Sint-Annaland","NL","","","","","","","crepe@zeelandnet.nl","31166652637","","NL94RABO0303053135","Delta","2019-08-07 11:56:52"
"","Dhr.","R","","hamel","947417","M","","Oostmede","3","","4337 AW","Middelburg","NL","Oostmede","3","","4337 AW","Middelburg","NL","","","","","","","shamber@zeelandnet.nl","31118634459","","NL60ABNA0875385680","Delta","2019-08-07 12:16:54"
"","Dhr.","J.A.","","Groenewoud-Offringa","947418","M11847001","","Hammarskjöldlaan","49","","4334 EM","Middelburg","NL","Hammarskjöldlaan","49","","4334 EM","Middelburg","NL","","","","","","","offringa2000@hotmail.com","31118634962","","NL54INGB0005396322","Delta","2019-08-07 12:24:20"
"","Dhr.","J.L.","","Hendrikse","947419","M378854","","Bogerdweg","5","","4315 CB","Dreischor","NL","Bogerdweg","5","","4315 CB","Dreischor","NL","","","","","","","zeekrab49@zeelandnet.nl","31111415932","","NL39INGB0001723396","Delta","2019-08-07 12:35:58"
"","Dhr.","J.","","de Zwart","947421","M345","","John Denverlaan 29 ","","","4462 LV","Goes","NL","John Denverlaan 29 ","","","4462 LV","Goes","NL","","","","","","","jdezwart@zeelandnet.nl","31113342135","","NL05RABO0331520648","Delta","2019-08-07 12:58:03"
"","Dhr.","H.","","Vos","947422","M349181","","Schuitvlotstraat","2E","","4357 EB","Domburg","NL","Schuitvlotstraat","2E","","4357 EB","Domburg","NL","","","","","","","hendrikvos@zeelandnet.nl","31620300228","","NL60RABO0366157388","Delta","2019-08-07 13:04:51"
"","Dhr.","D.M.J.","","de Munck","947423","M127671","","Moerplein","61","","4401 HZ","Yerseke","NL","Moerplein","61","","4401 HZ","Yerseke","NL","","","","","","","muncr43@zeelandnet.nl","0651122148","","NL88INGB0002849266","Delta","2019-08-07 13:07:23"
"","Dhr.","R.","","van Velzen","947424","M124527","","Gerberalaan","19","","4542 CM","Hoek","NL","Gerberalaan","19","","4542 CM","Hoek","NL","","","","","","","ruudvv69@gmail.com","31115441594","","NL74ABNA0419217126","Delta","2019-08-07 13:09:44"
"","Dhr.","R","","van Gilst","947425","M","","Land van Straub 9  ","","","4464 JR","GOES","NL","Land van Straub 9  ","","","4464 JR","GOES","NL","","","","","","","rvg1965@gmail.com","31655585031","","NL58INGB0006029660","Delta","2019-08-07 13:38:55"
"","mevrouw","m","","Goossens","947427","M332518","","Den Omloop 12 ","","","4472 AM","'s-Heer Hendrikskinderen","NL","Den Omloop 12 ","","","4472 AM","'s-Heer Hendrikskinderen","NL","","","","","","","ajgoossens@zeelandnet.nl","0113212652","","NL03INGB0002277623","Delta","2019-08-07 14:00:02"
"","Mevr.","F.P.","","van Loon","947428","M111","","Slickenburgschans 1 toevoeging 4 ","","","4501 LD","Oostburg","NL","Slickenburgschans 1 toevoeging 4 ","","","4501 LD","Oostburg","NL","","","","","","","fpvanloon@zeeland.net","31117492171","","NL79RABO0101227930","Delta","2019-08-07 14:11:48"
"","Dhr.","A.A","","De Jonge","947429","M301664","","Werrilaan","75","","4453 VL","'s-Heerenhoek","NL","Werrilaan","75","","4453 VL","'s-Heerenhoek","NL","","","","","","","aadejonge@zeelandnet.nl","0113352406","","NL08INGB0004005879","Delta","2019-08-07 14:12:12"
"","Dhr.","A.J.W.","","Sol","947430","M111111","","Kanaalweide","18","","4553 EE","Philippine","NL","Kanaalweide","18","","4553 EE","Philippine","NL","","","","","","","sol@zeelandnet.nl","31115491382","","NL33RABO0142144231","Delta","2019-08-07 14:13:13"
"","Mevr.","H.C.","","van Tilburg","947431","M111111","","Albert Schweitzerstraat 16 ","","","4695 GN","Sint-Maartensdijk","NL","Albert Schweitzerstraat 16 ","","","4695 GN","Sint-Maartensdijk","NL","","","","","","","saarloos@zeelandnet.nl","31166664579","","NL40RABO0101202830","Delta","2019-08-07 14:20:33"
"","Dhr.","m","","wisse","947432","M111","","Mauritsstraat","36","","4421 CK","Kapelle","NL","Mauritsstraat","36","","4421 CK","Kapelle","NL","","","","","","","mdwisse@zeelandnet.nl","3113345453","","NL31RABO0369519930","Delta","2019-08-07 14:32:44"
"","Dhr.","A.F.","","Leiendecker","947433","M111111","","Noordhoutstraat","40","","4353 BL","Serooskerke","NL","Noordhoutstraat","40","","4353 BL","Serooskerke","NL","","","","","","","tweety1@zeelandnet.nl","31118591604","","NL17RABO0335043666","Delta","2019-08-07 14:44:05"
"","Dhr.","J.S.","","Hoekstra","947434","K20142104","","Kwakkel","5","","4543 PV","Zaamslag","NL","Kwakkel","5","","4543 PV","Zaamslag","NL","","","","","","","jacobshoekstra@gmail.com","31639803969","","NL73INGB0795667493","Delta","2019-08-07 14:47:53"
"","Dhr.","E.E.","","GROENEVELD","947435","M1111","","Paul Krugerstraat 130 ","","","4381 WJ","Vlissingen","NL","Paul Krugerstraat 130 ","","","4381 WJ","Vlissingen","NL","","","","","","","eegroeneveld@zeelandnet.nl","3157183723","","NL35ABNA0823887375","Delta","2019-08-07 14:48:39"
"","Dhr.","A.","","de Bruin","947436","K10107316","","van der Leijenlaan 10 ","","","4561 XK","Hulst","NL","van der Leijenlaan 10 ","","","4561 XK","Hulst","NL","","","","","","","aidebruin@zeelandnet.nl","31114850590","","NL46SNSB0924102810","Delta","2019-08-07 14:50:12"
"","Dhr.","E.J.","","Remmel","947438","M111111","","Dalemsestraat","23B","","4691 CV","Tholen","NL","Dalemsestraat","23B","","4691 CV","Tholen","NL","","","","","","","erikremmel7@gmail.com","31123456789","","NL94ABNA0482180242","Delta","2019-08-07 14:59:14"
"","Dhr.","N.G.E.M.M.","","van Abeelen","947439","536854","","Victor de Stuersstraat 36 ","","","6006 BH","Weert","NL","Victor de Stuersstraat 36 ","","","6006 BH","Weert","NL","","","","","","","nikitajocabc@live.nl","31652602435","","NL52RABO0103956832","Delta","2019-08-07 15:16:45"
"","Mevr.","S.M.J.","","van Leemput","947440","K03972308","","Willem Alexanderstraat 1 ","","","4587 BM","Kloosterzande","NL","Willem Alexanderstraat 1 ","","","4587 BM","Kloosterzande","NL","","","","","","","markias@zeelandnet.nl","31114683535","","nl94rabo0332624943","Delta","2019-08-07 15:17:21"
"","Dhr.","j","","GIST","947441","M","","Geleenstraat","88","","2515 SX","\'s-Gravenhage","NL","Geleenstraat","88","","2515 SX","\'s-Gravenhage","NL","","","","","","","abigailfanatic@gmail.com","","","nl94buNQ2033806200","Delta","2019-08-07 15:17:41"
"","Dhr.","J.S.","","Timmerman","947443","K04286012","","Valckeslotlaan","143","","4461 SC","Goes","NL","Valckeslotlaan","143","","4461 SC","Goes","NL","","","","","","","jacco101@zeelandnet.nl","31624522201","","NL33ABNA0617696160","Delta","2019-08-07 15:40:39"
"","Dhr.","H.P.E.","","Horn","947444","M111111","","Walstraat","34","","4381 EE","Vlissingen","NL","Walstraat","34","","4381 EE","Vlissingen","NL","","","","","","","hpehorn@zeelandnet.nl","31112345678","","NL19INGB0752629662","Delta","2019-08-07 15:44:57"
"","Dhr.","W.J.","","Weststrate","947445","M111111","","Vliedbergstraat","12","","4471 CG","Wolphaartsdijk","NL","Vliedbergstraat","12","","4471 CG","Wolphaartsdijk","NL","","","","","","","westbes@zeelandnet.nl","31113582101","","NL91INGB0001747874","Delta","2019-08-07 15:58:27"
"","Dhr.","C.P.","","Bolier","947446","F567","","Meanderhof","203","","4337 GT","Middelburg","NL","Meanderhof","203","","4337 GT","Middelburg","NL","","","","","","","jenniferbaltessen@hotmail.com","31638545995","","NL13RABO0385396147","Delta","2019-08-07 16:01:45"
"","Dhr.","W.J.M.","","Tournois","947447","M111111","","Koningin Wilhelminastraat 21 ","","","4507 AE","Schoondijke","NL","Koningin Wilhelminastraat 21 ","","","4507 AE","Schoondijke","NL","","","","","","","wtournois@zeelandnet.nl","31117401903","","NL24RABO0159410975","Delta","2019-08-07 16:04:18"
"","Dhr.","G.W.","","Wilschut","947449","K00794881","","Oude Rijksweg 27 ","","","4511 HW","Breskens","NL","Oude Rijksweg 27 ","","","4511 HW","Breskens","NL","","","","","","","wgovert@gmail.com","31681433187","","NL29RABO0369543440","Delta","2019-08-07 16:06:42"
"","Mevr.","H.W.S.","","Versteeg Aerdts","947452","M111111","","Huughersluis","13","","4571 TA","Axel","NL","Huughersluis","13","","4571 TA","Axel","NL","","","","","","","versteeg.ellen@gmail.com","31115564610","","NL29INGB0688392105","Delta","2019-08-07 16:25:15"
"","Mevr.","G.A.A.A","","Ruules-de Wit","947453","M111111","","Stuvesande","16","","4532 MH","Terneuzen","NL","Stuvesande","16","","4532 MH","Terneuzen","NL","","","","","","","bepruules@hetnet.nl","31115497044","","NL73ABNA0238104079","Delta","2019-08-07 16:27:19"
"","Mevr.","B.","","Tolleman","947454","H567","","Oosterscheldestraat","37","","4388 TZ","Oost-Souburg","NL","Oosterscheldestraat","37","","4388 TZ","Oost-Souburg","NL","","","","","","","btolleman@hotmail.com","31631948799","","NL76RABO0328351253","Delta","2019-08-07 16:28:44"
"","Dhr.","N.S.","","Van Schaik","947455","M","","Bewestenwege","16","","4458 CZ","\'s-Heer Arendskerke","NL","Bewestenwege","16","","4458 CZ","\'s-Heer Arendskerke","NL","","","","","","","nelliannemaljaars@hotmail.com","31113229882","","NL86RABO0320536947","Delta","2019-08-07 16:37:57"
"","Dhr.","H","","Davidse","947457","K04621222","","Schelpenlaan","31","","4533 DW","Terneuzen","NL","Schelpenlaan","31","","4533 DW","Terneuzen","NL","","","","","","","hdavidse64@hotmail.com","31115852716","","nl63rabo0103790861","Delta","2019-08-07 16:43:20"
"","Mevr.","M.C.G.","","van de Vijver","947458","K04621222","","Schelpenlaan","31","","4533 DW","Terneuzen","NL","Schelpenlaan","31","","4533 DW","Terneuzen","NL","","","","","","","mcgvijver@hotmail.com","31115852716","","NL79RABO0139490744","Delta","2019-08-07 16:50:51"
"","Mevr.","M.T.","","Zuidwijk-Janssen","947459","M111111","","Sir Winston Churchill-laan 10 ","","","4333 BC","Middelburg","NL","Sir Winston Churchill-laan 10 ","","","4333 BC","Middelburg","NL","","","","","","","zuidwijk@zeelandnet.nl","31118643448","","NL53RABO0335073379","Delta","2019-08-07 16:54:24"
"","Mevr.","J.","","van Eijzeren","947462","M111111","","Van \'t Hoffweg 5 ","","","4333 RE","Middelburg","NL","Van \'t Hoffweg 5 ","","","4333 RE","Middelburg","NL","","","","","","","hvaneijzeren@xclusiveuganda.com","31118638540","","NL97RABO0335004784","Delta","2019-08-07 17:53:54"
"","Dhr.","D.P","","Muller","947463","M","","Westmede","61","","4337 AL","Middelburg","NL","Westmede","61","","4337 AL","Middelburg","NL","","","","","","","dpmuller@zeelandnet.nl","","","NL46RABO0389334626","Delta","2019-08-07 17:59:24"
"","Dhr.","M.C.H","","Bune","947464","12345","","Schapenburg","4","","4317 ML","NOORDGOUWE","NL","Schapenburg","4","","4317 ML","NOORDGOUWE","NL","","","","","","","fambune@zeeland.nl","31636064243","","NL80ABNA0251001946","Delta","2019-08-07 18:12:55"
"","Dhr.","G","","van Boven","947465","K04376888","","Bewestenwege","18","","4458 CZ","\'s-Heer Arendskerke","NL","Bewestenwege","18","","4458 CZ","\'s-Heer Arendskerke","NL","","","","","","","gerbenenmaria@zeelandnet.nl","31113212217","","NL35RABO0117282804","Delta","2019-08-07 18:21:42"
"","Dhr.","S","","Steneker","947466","M","","Anna Blamanlaan 33 ","","","4385 KM","Vlissingen","NL","Anna Blamanlaan 33 ","","","4385 KM","Vlissingen","NL","","","","","","","steneker@zeelandnet.nl","3163731389","","NL02ABNA0497477343","Delta","2019-08-07 18:24:00"
"","Dhr.","W.","","Dalebout","947467","K03684337","","Dolfijnstraat","47","","4306 CX","Nieuwerkerk","NL","Dolfijnstraat","47","","4306 CX","Nieuwerkerk","NL","","","","","","","famdalebout@me.com","31111643842","","NL27ABNA0403398533","Delta","2019-08-07 18:35:07"
"","Mevr.","M.W.","","De Wispelaere","947469","W111111","","Helmgras","17","","4386 GT","Vlissingen","NL","Helmgras","17","","4386 GT","Vlissingen","NL","","","","","","","ceesmarjo@life.nl","3111846531","","NL73INGB0004466041","Delta","2019-08-07 18:57:53"
"","Dhr.","J.","","Vergouwe","947470","M111111","","Prinses Margrietwijk 9 ","","","4507 AA","Schoondijke","NL","Prinses Margrietwijk 9 ","","","4507 AA","Schoondijke","NL","","","","","","","verhof1@zeelandnet.nl","31117402110","","NL10ABNA0875330223","Delta","2019-08-07 19:42:35"
"","Dhr.","A.M.L","","Weyler","947471","K03073945","","Hoenderweg","43","","4697 BG","Sint-Annaland","NL","Hoenderweg","43","","4697 BG","Sint-Annaland","NL","","","","","","","spookwegje@zeelandnet.nl","31633860957","","NL98INGB0658093398","Delta","2019-08-07 19:44:09"
"","Dhr.","A. B.","","Bal","947472","M","","Heinkenszandseweg","62","","4451 NX","Heinkenszand","NL","Heinkenszandseweg","62","","4451 NX","Heinkenszand","NL","","","","","","","toineb@zeelandnet.nl","31113227631","","NL69RABO0346084822","Delta","2019-08-07 19:57:01"
"","Mevr.","C.","","Botermans","947474","W111111","","Westerenban","40","","4328 HE","Burgh-Haamstede","NL","Westerenban","40","","4328 HE","Burgh-Haamstede","NL","","","","","","","crista.boterman@gmail.com","31652345971","","NL57INGB0007557913","Delta","2019-08-07 20:43:19"
"","Dhr.","bartjan","","van van ravevesteijn","947407","","1459444","Raam","33","","3111 PL","Schiedam","NL","","","","","","","Raam","33","","3111 PL","Schiedam","NL","bartjanspoel@gmail.com","31638630393","","nl71ingb0687399912","Caiway","2019-08-07 08:13:21"
"","Dhr.","J.F.","","van Dam","947411","","41983","van Heukeslootstraat 21 ","","","2671 PA","Naaldwijk","NL","","","","","","","van Heukeslootstraat 21 ","","","2671 PA","Naaldwijk","NL","jfvandam@kabelfoon.nl","3117462569","","NL38RABO0343651262","Caiway","2019-08-07 10:47:43"
"","Dhr.","T.J.H","","Altena","947420","","1320294","Van Vordenstraat 16  ","","","7271 WR","Borculo","NL","","","","","","","Van Vordenstraat 16  ","","","7271 WR","Borculo","NL","altena16@caiway.nl","31545274271","","nl02rabo0309109531","Caiway","2019-08-07 12:54:06"
"","Dhr.","J.W.P.C","","Hartjes","947426","","1481692","Nieuwstraat","20","","6035 PB","Ospel","NL","","","","","","","Nieuwstraat","20","","6035 PB","Ospel","NL","jan@jhartjes.nl","31495625415","","NL05ABNA0620409851","Caiway","2019-08-07 13:42:09"
"","Dhr.","T","","Huls","947437","","M","Dekkersweg","31","","7715RC","Punthorst","NL","","","","","","","Dekkersweg","31","","7715RC","Punthorst","NL","theohuls@hotmail.com","31529481282","","Nl33rabo0356506665","Caiway","2019-08-07 14:55:54"
"","Dhr.","K.","","van Rijn","947442","","855477","Wagenaarhof","15","","2692 BJ","\'s-Gravenzande","NL","","","","","","","Wagenaarhof","15","","2692 BJ","\'s-Gravenzande","NL","kvrijn@caiway.nl","3117441362","","NL04RABO0323259855","Caiway","2019-08-07 15:30:41"
"","Dhr.","O.","","Heijtveldt","947448","","M","Geestweg","10","","2681 HG","Monster","NL","","","","","","","Geestweg","10","","2681 HG","Monster","NL","o.heijtveldt@kabelfoon.net","3117424225","","NL04INGB0009224939","Caiway","2019-08-07 16:06:01"
"","Mevr.","A.M.","","Humer e/v Heijtveldt","947450","","685402","Geestweg","10","","2681 HG","Monster","NL","","","","","","","Geestweg","10","","2681 HG","Monster","NL","ahumer@kabelfoon.nl","31","","NL04INGB0009224939","Caiway","2019-08-07 16:10:40"
"","Dhr.","M.","","Priem","947456","","1145113","Oudlaan","126","","2672 BR","Naaldwijk","NL","","","","","","","Oudlaan","126","","2672 BR","Naaldwijk","NL","jermerver@hotmail.com","3117450357","","NL62SNSB0928044505","Caiway","2019-08-07 16:42:26"
"","Dhr.","e","","reurink","947468","","M","Oude Dalfserweg 32  ","","","8026 PW","Zwolle","NL","","","","","","","Oude Dalfserweg 32  ","","","8026 PW","Zwolle","NL","emilereu@caiway.nl","","","NL14RABO0170751813","Caiway","2019-08-07 18:39:43"
