"CustomerNumber","IMSI","Productid","Start_date","End_Of_Contract","Date_Contract_Prolong","MRR","MRR_Discount","MRR_Discount_Duration","Date_Mutation","Brand"
"946305","204164750206548","83","2019-07-03","2019-07-29","2021-07-03","24.5000","","","2019-07-29 15:24:54","Caiway"
"946143","204164750200370","11","2019-07-29","","2019-08-29","20.0000","5.00","6","2019-07-29 00:13:45","Delta"
"945011","204164750202384","11","2019-06-05","2019-07-29","2019-08-29","20.0000","5.00","6","2019-07-29 17:17:46","Delta"
"946753","204164750213403","11","2019-07-29","","2019-08-29","20.0000","20.00","4","2019-07-29 00:13:46","Delta"
"945212","204164750202878","43","2019-07-29","","2019-08-29","25.0000","","","2019-07-29 00:13:44","Delta"
"946983","","35","2019-07-29","","2021-07-29","22.5000","20.00","4","2019-07-29 13:07:45","Delta"
"945839","204164750204068","35","2019-07-29","","2021-07-29","22.5000","5.00","6","2019-07-29 00:13:44","Delta"
"947060","","9","2019-07-29","","2019-08-29","30.0000","","","2019-07-29 16:54:30","Delta"
"946125","204164750200371","11","2019-07-29","","2019-08-29","20.0000","5.00","6","2019-07-29 00:13:45","Delta"
"946633","204164750213519","11","2019-07-30","","2019-08-30","20.0000","20.00","4","2019-07-29 14:50:05","Delta"
"944638","204164750202580","11","2019-05-31","","2019-08-29","20.0000","5.00","6","2019-07-29 13:51:16","Delta"
"946874","","11","2019-07-29","","2019-08-29","20.0000","20.00","4","2019-07-29 00:13:46","Delta"
"945212","204164750202995","43","2019-07-29","","2019-08-29","25.0000","","","2019-07-29 00:13:44","Delta"
"947010","","11","2019-07-29","","2021-07-29","20.0000","20.00","4","2019-07-29 12:17:50","Delta"
"946082","204164750201525","11","2019-07-29","","2019-08-29","20.0000","5.00","6","2019-07-29 00:13:45","Delta"
"946141","204164750201740","11","2019-07-29","","2019-08-29","20.0000","5.00","6","2019-07-29 00:13:45","Delta"
"800298","204164750203869","11","2019-07-29","","2019-08-29","20.0000","5.00","6","2019-07-29 00:13:43","Delta"
"946752","204164750213416","43","2019-07-29","","2019-08-29","25.0000","20.00","2","2019-07-29 00:13:46","Delta"
"945212","204164750202873","43","2019-07-29","","2019-08-29","25.0000","","","2019-07-29 00:13:44","Delta"
"945717","","11","2019-07-29","","2019-08-29","20.0000","20.00","4","2019-07-29 00:13:46","Delta"
"945631","204164750201689","11","2019-07-29","","2019-08-29","20.0000","5.00","6","2019-07-29 00:13:44","Delta"
"947056","","11","2019-07-29","","2019-08-29","20.0000","5.00","6","2019-07-29 16:34:06","Delta"
"946110","204164750201805","11","2019-07-29","","2019-08-29","20.0000","5.00","6","2019-07-29 00:13:45","Delta"
"945160","204164750202315","11","2019-07-29","","2019-08-29","20.0000","5.00","6","2019-07-29 00:13:43","Delta"
"946680","204164750213423","11","2019-07-29","","2019-08-29","20.0000","20.00","4","2019-07-29 00:13:46","Delta"
"945212","204164750202992","43","2019-07-29","","2019-08-29","25.0000","","","2019-07-29 00:13:44","Delta"
"946988","","13","2019-07-29","","2019-08-29","30.0000","20.00","4","2019-07-29 11:43:27","Delta"
"945212","204164750201607","43","2019-07-29","","2019-08-29","25.0000","","","2019-07-29 00:13:45","Delta"
"946126","204164750201772","11","2019-07-29","","2019-08-29","20.0000","5.00","6","2019-07-29 00:13:45","Delta"
"946733","204164750213418","11","2019-07-29","","2019-08-29","20.0000","5.00","6","2019-07-29 00:13:46","Delta"
"945212","204164750202905","43","2019-07-29","","2019-08-29","25.0000","","","2019-07-29 00:13:44","Delta"
"946909","","11","2019-07-29","","2021-07-29","20.0000","20.00","4","2019-07-29 00:13:46","Delta"
"945537","204164750200453","10","2019-07-29","","2019-08-29","7.0000","","","2019-07-29 00:13:44","Delta"
"947012","","11","2019-07-29","","2019-08-29","20.0000","20.00","4","2019-07-29 14:21:55","Delta"
"946095","204164750202269","11","2019-07-29","","2019-08-29","20.0000","5.00","6","2019-07-29 00:13:45","Delta"
"946149","204164750201773","11","2019-07-29","","2019-08-29","20.0000","5.00","6","2019-07-29 00:13:46","Delta"
"945012","204164750202383","11","2019-06-05","2019-07-29","2019-08-29","20.0000","5.00","6","2019-07-29 17:22:37","Delta"
"946764","204164750200280","11","2019-07-29","","2019-08-29","20.0000","20.00","4","2019-07-29 00:13:46","Delta"
"945212","204164750202984","43","2019-07-29","","2019-08-29","25.0000","","","2019-07-29 00:13:44","Delta"
"946985","","13","2019-07-29","","2019-08-29","30.0000","20.00","4","2019-07-29 11:50:39","Delta"
"945212","204164750201701","43","2019-07-29","","2019-08-29","25.0000","","","2019-07-29 00:13:45","Delta"
"946136","204164750201480","11","2019-07-29","","2019-08-29","20.0000","5.00","6","2019-07-29 00:13:45","Delta"
"946683","204164750213487","11","2019-07-29","","2019-08-29","20.0000","5.00","6","2019-07-29 00:13:46","Delta"
"945212","204164750202780","43","2019-07-29","","2019-08-29","25.0000","","","2019-07-29 00:13:43","Delta"
"946890","","11","2019-07-29","","2019-08-29","20.0000","5.00","6","2019-07-29 00:13:46","Delta"
"945212","204164750202997","43","2019-07-29","","2019-08-29","25.0000","","","2019-07-29 00:13:44","Delta"
"944693","","11","2019-07-29","","2019-08-29","20.0000","20.00","4","2019-07-29 11:20:02","Delta"
"946091","204164750201591","11","2019-07-29","","2019-08-29","20.0000","5.00","6","2019-07-29 00:13:45","Delta"
