"initial","salutation","firstname","middlename","lastname","id","deltaid","caiwayid","address1","housenumber","alphabet","postcode","city","country","delta_address1","delta_housenumber","delta_alphabet","delta_postcode","delta_city","delta_country","caiway_address1","caiway_housenumber","caiway_alphabet","caiway_postcode","caiway_city","caiway_country","email","phonenumber","phonenumber2","iban","brand","date_modified"
"","","J.J.","","Nipius","949986","M329867","","Zuiderbaan","35","","4386 CK","Vlissingen","NL","Zuiderbaan","35","","4386 CK","Vlissingen","NL","","","","","","","jnipius@zeelandnet.nl","0636260926","","NL04INGB0004500942","Delta","2019-10-01 10:30:47"
"","","J.","","van den Berge","949987","M379614","","Lelienlaan","22","","4382 PC","Vlissingen","NL","Lelienlaan","22","","4382 PC","Vlissingen","NL","","","","","","","hvdberge@icloud.com","0625379337","","NL08RABO0349374899","Delta","2019-10-01 10:40:24"
"","Dhr.","J","","van Drongelen","949988","M349845","","dorpsstraat","66 ","","4511 EH","Breskens","NL","dorpsstraat","66 ","","4511 EH","Breskens","NL","","","","","","","jolierob@zeelandnet.nl","31117382076","","NL86RABO0177803096","Delta","2019-10-01 11:32:18"
"","Dhr.","M.","","Depret","949989","M506606","","Waterfront","270 ","","4531 HZ","Terneuzen","NL","Waterfront","270 ","","4531 HZ","Terneuzen","NL","","","","","","","mentor.depret@gmail.com","0115823185","","BE23001692484591","Delta","2019-10-01 11:48:51"
"","Mevr.","D.E.","","Rijckborst","949990","M306521","","Meulpad ","8  ","","4371 MZ","Koudekerke","NL","Meulpad ","8  ","","4371 MZ","Koudekerke","NL","","","","","","","daanrt@zeelandnet.nl","31118552814","","NL77ABNA0412423774","Delta","2019-10-01 12:30:27"
"","Dhr.","M.A.","","Dees","949993","M","","Beethovenhof","18","","4536 AA","Terneuzen","NL","Beethovenhof","18","","4536 AA","Terneuzen","NL","","","","","","","mark_rs2@live.nl","","","NL36RABO0145948226","Delta","2019-10-01 12:52:55"
"","Mevr.","Funda","","Ozyer","949994","M","","Lorentzlaan","94","","4532 KS","Terneuzen","NL","Lorentzlaan","94","","4532 KS","Terneuzen","NL","","","","","","","fozyer@yahoo.com","31115851381","","NL80INGB0671605046","Delta","2019-10-01 13:13:48"
"","Dhr.","N.","","van der Klooster","949995","M311134 (D101135)","","Bermweg","55 ","","4388 CB","Oost-Souburg","NL","Bermweg","55 ","","4388 CB","Oost-Souburg","NL","","","","","","","nickvdklooster@hotmail.com","31118470445","","NL90INGB0008562918","Delta","2019-10-01 13:26:06"
"","Dhr.","Z. ","","Kawinska","949996","K03289462","","Wijenburg","92 ","","4385 GR","Vlissingen","NL","Wijenburg","92 ","","4385 GR","Vlissingen","NL","","","","","","","joannakrupajamk@gmail.com","31645936419","","NL56RABO0144192942","Delta","2019-10-01 13:50:00"
"","Dhr.","J.C.","","Snoep","949998","K00417882","","Bierweg ","39 ","","4424 EL","Wemeldinge","NL","Bierweg ","39 ","","4424 EL","Wemeldinge","NL","","","","","","","snoep@zeelandnet.nl","31625275526","","NL49ABNA0461641593","Delta","2019-10-01 14:22:33"
"","Mevr.","H.J.","","Stoutjesdijk - Heijboer","950000","K00171609","","Hogeweg","3  ","","4695 GZ","Sint-Maartensdijk","NL","Hogeweg","3  ","","4695 GZ","Sint-Maartensdijk","NL","","","","","","","stou50@zeelandnet.nl","31166663133","","NL40RABO0340251085","Delta","2019-10-01 14:30:41"
"","Dhr.","M.J.","","Schokkenbroek","950002","P47999301","","Vier","Ambachtenstraat","","4551 HB","Sas van Gent","NL","Vier","Ambachtenstraat","","4551 HB","Sas van Gent","NL","","","","","","","info@kwakkenbosbewindvoeringen.nl","31115851706","","NL61RABO0161852866","Delta","2019-10-01 14:34:24"
"","Mevr.","A.J. ","","Kloosterman","950004","M575731_VERLENGING","","Hoofdstraat ","4A ","","4421 JR","Kapelle","NL","Hoofdstraat ","4A ","","4421 JR","Kapelle","NL","","","","","","","a.klooster@zeelandnet.nl","31113343080","","NL96ABNA0178984493","Delta","2019-10-01 15:10:23"
"","Dhr.","M.B.J.","","bij de Vaate","950005","K03202215","","Kapellerie","6 ","","4421 KZ","Kapelle","NL","Kapellerie","6 ","","4421 KZ","Kapelle","NL","","","","","","","mbdvaate1@zeelandnet.nl","31621350673","","NL39RABO0375153837","Delta","2019-10-01 15:14:22"
"","Dhr.","A.C.A.","","de Graaf","950006","335889","","Stijn","Streuvelsstraat","","4532 CD","Terneuzen","NL","Stijn","Streuvelsstraat","","4532 CD","Terneuzen","NL","","","","","","","jacedean@msn.com","31648154345","","NL83abna0443623813","Delta","2019-10-01 15:15:35"
"","Mevr.","W.H.","","Stroo - Geijp","950007","M","","Beethovenhof","116","","4536 AC","Terneuzen","NL","Beethovenhof","116","","4536 AC","Terneuzen","NL","","","","","","","afstroo@zeelandnet.nl","","","NL06INGB0002880715","Delta","2019-10-01 15:18:06"
"","Dhr.","E.P.","","de Brouwer","950008","M133242VERLENNING","","Mozartstraat ","23 ","","4571 XH","Axel","NL","Mozartstraat ","23 ","","4571 XH","Axel","NL","","","","","","","boyan_ajax@live.nl","31115564274","","NL78INGB0003301369","Delta","2019-10-01 15:32:40"
"","Dhr.","J.","","Tuinstra ","950009","M111111","","Wijenburg","91 ","","4385 GT","Vlissingen","NL","Wijenburg","91 ","","4385 GT","Vlissingen","NL","","","","","","","jtuinstra@zeelandnet.nl","31118460739","","NL67RABO0335023851","Delta","2019-10-01 15:37:46"
"","Dhr.","M.B.J","","bij de  Vaate","950012","M111111","","Kapellerie","6 ","","4421 KZ","Kapelle","NL","Kapellerie","6 ","","4421 KZ","Kapelle","NL","","","","","","","mbdv72@gmail.com","31123456789","","NL39RABO0375153837","Delta","2019-10-01 16:04:52"
"","Mevr.","M.J.A","","Moeleker","950014","M111111","","Nieuwe","Kerkstraat","","4421 KA","Kapelle","NL","Nieuwe","Kerkstraat","","4421 KA","Kapelle","NL","","","","","","","evantwerpen@gmail.com","31123456789","","NL20RABO0360714080","Delta","2019-10-01 16:16:24"
"","Dhr.","B.","","Claaszen","950015","M","","spuikompark","6 ","","4553 BC","Philippine","NL","spuikompark","6 ","","4553 BC","Philippine","NL","","","","","","","bclaaszen@zeelandnet.nl","31653899013","","NL71RABO0113312431","Delta","2019-10-01 17:05:10"
"","Dhr.","B","","Nisic","950016","M","","Frederik van Eedenstraat 9"," ","","4532 ET","Terneuzen","NL","Frederik van Eedenstraat 9"," ","","4532 ET","Terneuzen","NL","","","","","","","bobanfcp@hotmail.com","","","Nl91ingb0664124887","Delta","2019-10-01 17:21:08"
"","Dhr.","W.j","","Kopmels","950017","M","","Ven klevenstraat 14"," ","","4463 EC","Goes","NL","Ven klevenstraat 14"," ","","4463 EC","Goes","NL","","","","","","","wkopmels@zeelandnet.nl","","","Nl42rabo0128505869","Delta","2019-10-01 17:21:31"
"","Dhr.","A.F.","","van Otterdijk","950018","K04198411","","Dorpsstraat","37","","4569 AG","Graauw","NL","Dorpsstraat","37","","4569 AG","Graauw","NL","","","","","","","aotterdi@xs4all.nl","31114851337","","NL79RBRB0979650402","Delta","2019-10-01 17:54:06"
"","Mevr.","A.","","van de Sluis-de Oude","950019","M","","Sint","Joostmeet","","4301 JS","Zierikzee","NL","Sint","Joostmeet","","4301 JS","Zierikzee","NL","","","","","","","adavdsluis@outlook.com","31111414402","","NL61RABO0375141995","Delta","2019-10-01 17:56:33"
"","Mevr.","E.","","Heshusius","949979","","1482254","Wittensteinse allee "," 5","","8278 AN","Kamperveen","NL","","","","","","","Wittensteinse allee "," 5","","8278 AN","Kamperveen","NL","ajheshusius@gmail.com","31525655907","","NL17RBRB0900140909","Caiway","2019-10-01 02:00:06"
"","Dhr.","R.G","","de Jong","949980","","907195","Hargplein","72","","3121 VE","Schiedam","NL","","","","","","","Hargplein","72","","3121 VE","Schiedam","NL","anro.dejong@caiway.nl","31102470240","","NL41INGB0001701923","Caiway","2019-10-01 02:00:18"
"","Dhr.","Pr","","Marques Falcao","949981","","1466801","Goudappel","51","","2635 MN","Den Hoorn","NL","","","","","","","Goudappel","51","","2635 MN","Den Hoorn","NL","lstmarques@outlook.com","","","Nl92ingb0749012382","Caiway","2019-10-01 02:00:29"
"","Dhr.","M.","","Heusinkveld","949982","","1467186","Karmansweg","1","","7152 CS","Eibergen","NL","","","","","","","Karmansweg","1","","7152 CS","Eibergen","NL","martijn75.heusinkveld@gmail.com","","","NL24RABO0316413623","Caiway","2019-10-01 02:00:40"
"","Dhr.","A.","","Shero","949983","","M","Gaarden","26","","7607 MJ","Almelo","NL","","","","","","","Gaarden","26","","7607 MJ","Almelo","NL","aramarakelian@yahoo.com","","","NL05INGB0656242566","Caiway","2019-10-01 02:00:51"
