"initial","salutation","firstname","middlename","lastname","id","deltaid","caiwayid","address1","housenumber","alphabet","postcode","city","country","delta_address1","delta_housenumber","delta_alphabet","delta_postcode","delta_city","delta_country","caiway_address1","caiway_housenumber","caiway_alphabet","caiway_postcode","caiway_city","caiway_country","email","phonenumber","phonenumber2","iban","brand","date_modified"
"","Dhr.","A.G.","","Paauwe","947807","M129","","John Denverlaan 24 ","","","4462 LV","Goes","NL","John Denverlaan 24 ","","","4462 LV","Goes","NL","","","","","","","agpaauwe@zeelandnet.nl","31633188535","","NL55RABO0362369240","Delta","2019-08-15 09:30:00"
"","Dhr.","S.W.S.P.","","Brouwer","947808","M129","","Roeselaerestraat","50","","4528 EP","Sint Kruis","NL","Roeselaerestraat","50","","4528 EP","Sint Kruis","NL","","","","","","","brouwer.sipke@gmail.com","31117720397","","NL35INGB0669944343","Delta","2019-08-15 09:41:02"
"","Dhr.","C.J.","","Geluk","947809","M463273","","Gladiolenstraat","23","","4695 HT","Sint-Maartensdijk","NL","Gladiolenstraat","23","","4695 HT","Sint-Maartensdijk","NL","","","","","","","geluk47@zeelandnet.nl","0651254326","","NL96RABO0340203420","Delta","2019-08-15 09:42:04"
"","Dhr.","G.A.","","Goudzwaard","947810","M129","","Markt","25","","4693 CA","Poortvliet","NL","Markt","25","","4693 CA","Poortvliet","NL","","","","","","","maikel@cafetcentrum.nl","31643276064","","NL59INGB0667437819","Delta","2019-08-15 09:55:59"
"","Mevr.","K.","","de Klerk","947811","M418142","","Liniestraat","42","","4561 ZX","Hulst","NL","Liniestraat","42","","4561 ZX","Hulst","NL","","","","","","","klerkval@hotmail.com","0114316545","","NL73INGB0006365398","Delta","2019-08-15 10:04:08"
"","Dhr.","K.","","Florussen","947812","M129","","Oostelijk Bolwerk 224 ","","","4531 GV","Terneuzen","NL","Oostelijk Bolwerk 224 ","","","4531 GV","Terneuzen","NL","","","","","","","florussen@zeelandnet.nl","31115694582","","NL53RABO0362333483","Delta","2019-08-15 10:05:11"
"","Dhr.","W.A.","","de Lange","947813","M570237","","Van Steveninckstraat","17","","4388 CE","Oost-Souburg","NL","Van Steveninckstraat","17","","4388 CE","Oost-Souburg","NL","","","","","","","wdelange1@zeelandnet.nl","0118466467","","NL36INGB0005364054","Delta","2019-08-15 10:10:47"
"","Dhr.","C.","","van Boven","947814","M111111","","de Butstraat 55 ","","","4561 LT","Hulst","NL","de Butstraat 55 ","","","4561 LT","Hulst","NL","","","","","","","cvanboven@zeelandnet.nl","31613948096","","NL21RABO0330432893","Delta","2019-08-15 10:22:50"
"","Dhr.","V.","","Hoogkamer","947815","M111111","","Lange Nieuwstraat 22 ","","","4561 CD","Hulst","NL","Lange Nieuwstraat 22 ","","","4561 CD","Hulst","NL","","","","","","","vhoogkam@gmail.com","31651757282","","NL06RABO0313845581","Delta","2019-08-15 10:23:13"
"","Mevr.","C.","","van Hooijdonk - Oomen","947816","K03773907","","Dorpsstraat","25","","4589 KP","Ossenisse","NL","Dorpsstraat","25","","4589 KP","Ossenisse","NL","","","","","","","oomentoos559@gmail.com","31611468309","","NL22ABNA0417794878","Delta","2019-08-15 10:23:45"
"","Dhr.","S.H.","","de Vlieger","947817","M388925","","Plataanweg","11","","4441 AM","Ovezande","NL","Plataanweg","11","","4441 AM","Ovezande","NL","","","","","","","shdevlieger82@zeelandnet.nl","0618342028","","NL38RABO0328338648","Delta","2019-08-15 10:24:15"
"","Dhr.","K.","","de Blaeij","947818","M403387","","Fahrenheitlaan","592","","4532 JW","Terneuzen","NL","Fahrenheitlaan","592","","4532 JW","Terneuzen","NL","","","","","","","krynblaey@zeelandnet.nl","0657066744","","NL85RABO0142657395","Delta","2019-08-15 10:33:40"
"","Mevr.","C.","","Maljaars- Dingemanse","947819","M129","","Bosweg","9","","4374 EK","Zoutelande","NL","Bosweg","9","","4374 EK","Zoutelande","NL","","","","","","","christadingemanse@hotmail.com","31652105347","","NL67RABO0163645027","Delta","2019-08-15 10:33:53"
"","Mevr.","C","","Dhondt","947820","M","","Sint Hubrechtstraat 29  ","","","4542 AN","Hoek","NL","Sint Hubrechtstraat 29  ","","","4542 AN","Hoek","NL","","","","","","","cindydhondt78@gmail.com","","","Nl72INGB0001453045","Delta","2019-08-15 10:49:51"
"","Mevr.","K.L.","","de Vries","947821","M111111","","De Warretjes   25 ","","","4421 AL","Kapelle","NL","De Warretjes   25 ","","","4421 AL","Kapelle","NL","","","","","","","karinvries@hotmail.com","31625179112","","NL68INGB0004738604","Delta","2019-08-15 10:50:12"
"","Mevr.","S.D.","","Goossen","947822","K00812368","","Mariastraat","31","","4506 AC","Cadzand","NL","Mariastraat","31","","4506 AC","Cadzand","NL","","","","","","","idssuzie@zeelandnet.nl","31117391843","","NL74INGB0005550677","Delta","2019-08-15 10:56:35"
"","Mevr.","A.","","Walhout","947823","M129","","Prinses Julianastraat 38 ","","","4424 AW","Wemeldinge","NL","Prinses Julianastraat 38 ","","","4424 AW","Wemeldinge","NL","","","","","","","jacwalhout@zeelandnet.nl","31610183582","","NL41INGB0006042576","Delta","2019-08-15 11:01:10"
"","Mevr.","S.","","Pols-Castel","947825","M111111","","Ahornstraat","4","","4388PS","Oost-Souburg","NL","Ahornstraat","4","","4388PS","Oost-Souburg","NL","","","","","","","sandra_zeeland@hotmail.com","31118431806","","NL93ABNA0816500169","Delta","2019-08-15 11:13:49"
"","Dhr.","G.A.S.","","van Waterschoot","947826","M129","","Weststraat","35","","4571 HK","Axel","NL","Weststraat","35","","4571 HK","Axel","NL","","","","","","","margon@zeelandnet.nl","31642332203","","NL24RABO0332645215","Delta","2019-08-15 11:19:26"
"","Dhr.","W.E.A.M.","","Schanck","947828","M129","","Blindewijk","7","","4515 AA","IJzendijke","NL","Blindewijk","7","","4515 AA","IJzendijke","NL","","","","","","","hannieschanck62@gmail.com","31117720129","","NL20ABNA0436615533","Delta","2019-08-15 11:30:17"
"","Dhr.","B.J.M.","","Pauwels","947829","M350671'VERLENGEN","","Groenendijk","77","","4587 CS","Kloosterzande","NL","Groenendijk","77","","4587 CS","Kloosterzande","NL","","","","","","","benpauwels@zeelandnet.nl","31114681863","","NL39RABO0332651541","Delta","2019-08-15 11:49:43"
"","Mevr.","I.","","Hartmann","947831","P48030701 - VERLENGING","","Nieuweweg","14","","4435 AD","Baarland","NL","Nieuweweg","14","","4435 AD","Baarland","NL","","","","","","","ihartmann@zeelandnet.nl","31113568622","","NL36RABO0128519169","Delta","2019-08-15 11:51:48"
"","Mevr.","R.E.","","Kaijser-de Feyter","947833","M111111","","Te Waterstraat 5 ","","","4543 BZ","Middelburg","NL","Te Waterstraat 5 ","","","4543 BZ","Middelburg","NL","","","","","","","keeskaijser@gmail.com","31123456789","","NL86RABO0136284574","Delta","2019-08-15 11:58:40"
"","Dhr.","C.W.","","Kloet","947834","M129","","Ooststraat","13","","4315 AS","Dreischor","NL","Ooststraat","13","","4315 AS","Dreischor","NL","","","","","","","famkloet13@zeelandnet.nl","31111401561","","NL28RABO0375151028","Delta","2019-08-15 11:59:57"
"","Dhr.","A.P.J.","","van Oorschot","947835","M113369","","Valeriaanstraat","12","","4537 DC","Terneuzen","NL","Valeriaanstraat","12","","4537 DC","Terneuzen","NL","","","","","","","jcoorschot@zeelandnet.nl","0115697053","","NL13RABO0392436019","Delta","2019-08-15 12:04:43"
"","Dhr.","E.J.P.","","de Vreeze","947836","M129","","Gouverneurstraat","3","","4524 BB","Sluis","NL","Gouverneurstraat","3","","4524 BB","Sluis","NL","","","","","","","edevreeze@zeelandnet.nl","31117462396","","NL51RABO0144953609","Delta","2019-08-15 12:08:54"
"","Dhr.","J.","","v.d. Welle","947837","M365294","","Prinses Margrietstraat 23 ","","","4311 CH","Bruinisse","NL","Prinses Margrietstraat 23 ","","","4311 CH","Bruinisse","NL","","","","","","","hrvdwelle@zeelandnet.nl","0651990443","","NL35RABO0349760764","Delta","2019-08-15 12:10:20"
"","Dhr.","J.C.","","Eerland","947838","M129","","de Boisotstraat 26 ","","","4371 BM","Koudekerke","NL","de Boisotstraat 26 ","","","4371 BM","Koudekerke","NL","","","","","","","jamaro@zeelandnet.nl","31118552417","","NL62INGB0003631263","Delta","2019-08-15 12:20:57"
"","Dhr.","T.A.","","Sponselee","947839","M315560'VERLENGEN","","Heerlijkheid","24","","4564 EL","Sint Jansteen","NL","Heerlijkheid","24","","4564 EL","Sint Jansteen","NL","","","","","","","tsponselee@zeelandnet.nl","31626992155","","NL04INGB0685353060","Delta","2019-08-15 12:33:04"
"","Mevr.","R.M.","","Breure","947840","M111111","","Oudestraat","3","","4695 CW","St. Maartensdijk","NL","Oudestraat","3","","4695 CW","St. Maartensdijk","NL","","","","","","","rbreure@zeelandnet.nl","31166662022","","NL26RBRB0687854016","Delta","2019-08-15 12:37:35"
"","Mevr.","S.","","Kondic","947841","M129","","Ghistelkerke","352","","4511 JH","Breskens","NL","Ghistelkerke","352","","4511 JH","Breskens","NL","","","","","","","eurotrade01@zeelandnet.nl","31117720250","","NL15RABO0147872502","Delta","2019-08-15 12:37:44"
"","Mevr.","A.","","Crets","947842","D456","","Zelzaetseweg","20","","4574 NV","Zuiddorpe","NL","Zelzaetseweg","20","","4574 NV","Zuiddorpe","NL","","","","","","","zelzate12@zeelandnet.nl","31115608268","","NL42ABNA0468203672","Delta","2019-08-15 12:43:14"
"","Dhr.","F.A.","","Scheppers","947843","M129","","Schengestraat","2","","4461 EZ","Goes","NL","Schengestraat","2","","4461 EZ","Goes","NL","","","","","","","fscheppers@gmail.com","31113217240","","NL92INGB0001897430","Delta","2019-08-15 12:52:28"
"","Dhr.","M.J.","","Goudzwaard","947844","M361117","","Moerplein","115","","4401 HZ","Yerseke","NL","Moerplein","115","","4401 HZ","Yerseke","NL","","","","","","","inamart@zeelandnet.nl","31641300589","","Nl36RABO0142110809","Delta","2019-08-15 12:54:25"
"","Dhr.","J.C.","","van Iwaarden","947845","M131982","","Ambachtsherenlaan","35","","4401 JP","Yerseke","NL","Ambachtsherenlaan","35","","4401 JP","Yerseke","NL","","","","","","","hansvani@zeelandnet.nl","31651118922","","NL63RABO0373910835","Delta","2019-08-15 13:08:08"
"","Dhr.","J.","","Vermaat","947846","M129","","Rentmeesterlaan","3","","4336 EC","Middelburg","NL","Rentmeesterlaan","3","","4336 EC","Middelburg","NL","","","","","","","jvermaat@zeelandnet.nl","31118627031","","NL97INGB0002455187","Delta","2019-08-15 13:12:20"
"","Dhr.","C.","","Paauwe","947848","M116246","","Langeville","14","","4401 GN","Yerseke","NL","Langeville","14","","4401 GN","Yerseke","NL","","","","","","","keespaauwe@zeelandnet.nl","31682290019","","NL66RABO0333613392","Delta","2019-08-15 13:30:15"
"","Dhr.","R.J.A.M","","Grootzwagers","947849","K10002397","","Weverstraat","17","","4589 RN","Ossenisse","NL","Weverstraat","17","","4589 RN","Ossenisse","NL","","","","","","","groot1976@zeelandnet.nl","31114681768","","nl35snsb0938150839","Delta","2019-08-15 13:36:36"
"","Dhr.","E","","Kayisci","947850","M","","Rozenstraat","36","","4537 SE","Terneuzen","NL","Rozenstraat","36","","4537 SE","Terneuzen","NL","","","","","","","golgem0571@hotmail.com","","","NL08RABO0392423790","Delta","2019-08-15 13:40:34"
"","Dhr.","A.J.S.H.","","Brussen","947851","M111111","","Vinkenissestraat","2","","4411 CD","Rilland","NL","Vinkenissestraat","2","","4411 CD","Rilland","NL","","","","","","","joopbrussen@me.com","31123456789","","NL35INGB0668457236","Delta","2019-08-15 13:44:25"
"","Dhr.","A.J.H.","","Wagenaar","947852","M","","Ten Anker 4 ","","","4311 GA","Bruinisse","NL","Ten Anker 4 ","","","4311 GA","Bruinisse","NL","","","","","","","aren42@zeelandnet.nl","31621827499","","NL65INGB0002740846","Delta","2019-08-15 13:54:35"
"","Mevr.","J.M.N.","","van Bloois","947853","M111111","","Spreeuwenhof","17","","4357 ER","Domburg","NL","Spreeuwenhof","17","","4357 ER","Domburg","NL","","","","","","","wabloo@zeelandnet.nl","31118582915","","NL84INGB0003827389","Delta","2019-08-15 14:11:45"
"","Dhr.","A.J.","","de Waard","947854","M313785","","Hoogaarsplein","3","","4401 JG","Yerseke","NL","Hoogaarsplein","3","","4401 JG","Yerseke","NL","","","","","","","ajdewaard@zeelandnet.nl","31621817630","","NL83ABNA0427618037","Delta","2019-08-15 14:18:18"
"","Mevr.","C.C.","","Oreel-Zuidweg","947855","M323756VERLENGEN","","Pieter Gootjesstraat 7 ","","","4333 CT","Middelburg","NL","Pieter Gootjesstraat 7 ","","","4333 CT","Middelburg","NL","","","","","","","ioreel@zeelandnet.nl","31654970050","","NL83INGB0000760170","Delta","2019-08-15 14:27:14"
"","Dhr.","P.A.M.","","Schellekens","947856","M311511","","Schoolstraat","7","","4417 AA","Hansweert","NL","Schoolstraat","7","","4417 AA","Hansweert","NL","","","","","","","bernadet@zeelandnet.nl","011338258","","NL98INGB0001055750","Delta","2019-08-15 14:30:12"
"","Dhr.","J.E.E","","Willems","947857","C123","","Clausstraat","17","","4561 JC","Hulst","NL","Clausstraat","17","","4561 JC","Hulst","NL","","","","","","","sjoske101@hotmail.com","31639112121","","NL42RABO0150732643","Delta","2019-08-15 14:32:38"
"","Dhr.","D.","","Schipper","947859","M374918","","Groeninx van Zoelenstraat 2 ","","","4401 KB","Yerseke","NL","Groeninx van Zoelenstraat 2 ","","","4401 KB","Yerseke","NL","","","","","","","schipperdanny@zeelandnet.nl","31618160517","","NL86INGB0002426964","Delta","2019-08-15 14:38:19"
"","Dhr.","C.H.","","Boogaard","947860","M409748-VERLENGING","","Duiveneestraat","4","","4416 BE","Kruiningen","NL","Duiveneestraat","4","","4416 BE","Kruiningen","NL","","","","","","","chboogaard@zeelandnet.nl","31600000000","","NL45RABO0334010888","Delta","2019-08-15 14:47:27"
"","Dhr.","R.P","","Jobse","947861","K20023815","","Schulenburg","23","","4356 GT","Oostkapelle","NL","Schulenburg","23","","4356 GT","Oostkapelle","NL","","","","","","","ricocx94@hotmail.com","31628829817","","NL45RABO0312253206","Delta","2019-08-15 14:47:43"
"","Dhr.","R.","","Naessens-Teixeira","947862","C123","","Basiliekstraatje","26","","4561 AW","Hulst","NL","Basiliekstraatje","26","","4561 AW","Hulst","NL","","","","","","","marion.ruud@hetnet.nl","3130698711","","NL85INGB0006324054","Delta","2019-08-15 14:47:56"
"","Dhr.","D.J.","","de Wolff","947864","M129","","Molendijk","50","","4339 AE","Nieuw- en Sint Joosland","NL","Molendijk","50","","4339 AE","Nieuw- en Sint Joosland","NL","","","","","","","jeroenbritta@zeelandnet.nl","31118593431","","NL46RABO0349365679","Delta","2019-08-15 15:01:51"
"","Dhr.","R.","","Janse","947866","M129","","Groenedijk","31","","4441 TH","Ovezande","NL","Groenedijk","31","","4441 TH","Ovezande","NL","","","","","","","royjanse93@hotmail.com","31624522184","","NL95RABO0107137658","Delta","2019-08-15 15:23:28"
"","Dhr.","R. ","","de Braal","947867","K04542078","","Lingestraat","61","","4535 ER","Terneuzen","NL","Lingestraat","61","","4535 ER","Terneuzen","NL","","","","","","","rdebraal@outlook.com","31640649260","","NL29RABO0136471064","Delta","2019-08-15 15:30:14"
"","Dhr.","M.J.","","Flock","947869","M111","","Oude Rijksweg 34 ","","","4472 AH","\'s-Heer Hendrikskinderen","NL","Oude Rijksweg 34 ","","","4472 AH","\'s-Heer Hendrikskinderen","NL","","","","","","","jerenmi@zeelandnet.nl","31638106275","","NL62INGB0752667688","Delta","2019-08-15 15:42:59"
"","Mevr.","C.J.","","Fraanje","947871","M358154","","van Rooijenstraat 1 ","","","4401 KG","Yerseke","NL","van Rooijenstraat 1 ","","","4401 KG","Yerseke","NL","","","","","","","lifra@zeelandnet.nl","31614570223","","NL46INGB0006107767","Delta","2019-08-15 15:50:13"
"","Dhr.","J.","","de Waard","947872","M587771","","Breeweg","14","","4401 BP","Yerseke","NL","Breeweg","14","","4401 BP","Yerseke","NL","","","","","","","jeroen@traas.nl","31646177038","","NL83ABNA0492651396","Delta","2019-08-15 15:58:37"
"","Mevr.","D.M.C. ","","Ottjes","947873","K02096234","","1e Verbindingsstraat 17 ","","","4531 BH","Terneuzen","NL","1e Verbindingsstraat 17 ","","","4531 BH","Terneuzen","NL","","","","","","","dottjes@zeelandnet.nl","31622332712","","NL40RABO0392457164","Delta","2019-08-15 16:04:55"
"","Mevr.","P.","","Vuijk","947874","M129","","Bakkersland","55","","4364 BL","Grijpskerke","NL","Bakkersland","55","","4364 BL","Grijpskerke","NL","","","","","","","amvuijk@zeelandnet.nl","31118611226","","NL38INGB0001808871","Delta","2019-08-15 16:06:29"
"","Dhr.","J.P.","","Geilings","947875","M","","Coentjesweg  12  ","","","4698 CM","Oud-Vossemeer","NL","Coentjesweg  12  ","","","4698 CM","Oud-Vossemeer","NL","","","","","","","famgeilings@zeelandnet.nl","","","NL34INGB0756799325","Delta","2019-08-15 16:13:47"
"","Dhr.","N.A.","","Dommisse","947876","M105150","","van Randwijckstraat 21 ","","","4401 KL","Yerseke","NL","van Randwijckstraat 21 ","","","4401 KL","Yerseke","NL","","","","","","","dommie@zeelandnet.nl","0612659581","","Nl45RABO0373915136","Delta","2019-08-15 16:14:03"
"","Dhr.","D.I.","","Goudzwaard","947878","M129","","Oud Heiligeweg 19 ","","","4307 LA","Oosterland","NL","Oud Heiligeweg 19 ","","","4307 LA","Oosterland","NL","","","","","","","davivon@zeelandnet.nl","31111481030","","NL18SNSB0923825312","Delta","2019-08-15 16:15:37"
"","Mevr.","Y.A.","","Baljeu","947879","M535470'VERLENGEN","","Tulpstraat","21","","4569 BB","Graauw","NL","Tulpstraat","21","","4569 BB","Graauw","NL","","","","","","","tulp21@zeelandnet.nl","31114633161","","NL95RABO0342293109","Delta","2019-08-15 16:20:23"
"","Dhr.","W.","","Kaptein","947881","C123","","Beethovenstraat","34","","4536 AH","Terneuzen","NL","Beethovenstraat","34","","4536 AH","Terneuzen","NL","","","","","","","wkaptein@zeelandnet.nl","31651797804","","NL69ABNA0810828138","Delta","2019-08-15 16:23:18"
"","Mevr.","G.","","Vercouteren - Van Velzen","947882","M120673","","Groeninx van Zoelenstraat 13 ","","","4401 KB","Yerseke","NL","Groeninx van Zoelenstraat 13 ","","","4401 KB","Yerseke","NL","","","","","","","tvanvelzen@zeelandnet.nl","31612053505","","NL14RABO0373955464","Delta","2019-08-15 16:32:29"
"","Dhr.","J.K.","","Stuij","947883","K20143585-NIEUW","","Vroonlandseweg","130","","4421 BX","Kapelle","NL","Vroonlandseweg","130","","4421 BX","Kapelle","NL","","","","","","","carla@stuij-installatietechniek.nl","31648467959","","NL52INGB0007483410","Delta","2019-08-15 16:42:37"
"","Dhr.","D.P.","","Geldof","947884","M","","Zuidstraat","16","","4328 AD","Burgh-Haamstede","NL","Zuidstraat","16","","4328 AD","Burgh-Haamstede","NL","","","","","","","geldofdaan@gmail.com","31111851325","","NL15RABO0375178228","Delta","2019-08-15 16:54:06"
"","Dhr.","J.","","Beije","947886","M111111","","Christinastraat","41","","4328 CA","Burgh-Haamstede","NL","Christinastraat","41","","4328 CA","Burgh-Haamstede","NL","","","","","","","beijej@zeelandnet.nl","31111654283","","NL76RABO0357821599","Delta","2019-08-15 17:01:34"
"","Dhr.","R.","","Andeweg","947888","M129","","Tragelsingel","24","","4501 EE","Oostburg","NL","Tragelsingel","24","","4501 EE","Oostburg","NL","","","","","","","ronandeweg@zeelandnet.nl","31117454838","","NL07INGB0000612837","Delta","2019-08-15 17:40:35"
"","Dhr.","S","","Venugopalan","947889","P586256","","Paul Krugerstraat  399 ","","","4382 ML","Vlissingen","NL","Paul Krugerstraat  399 ","","","4382 ML","Vlissingen","NL","","","","","","","svenugopalan93@gmail.com","3112345678","","NL09INGB0794454593","Delta","2019-08-15 18:02:06"
"","Dhr.","F.","","Sorgedrager","947890","M111","","Zuidbeekseweg","12","","4386 ND","Vlissingen","NL","Zuidbeekseweg","12","","4386 ND","Vlissingen","NL","","","","","","","sorgeloos@zeelandnet.nl","31118476810","","NL80INGB0005121053","Delta","2019-08-15 18:03:21"
"","Dhr.","J.","","Haalboom","947891","1234","","Gentsevaart","29","","4565 ER","Kapellebrug","NL","Gentsevaart","29","","4565 ER","Kapellebrug","NL","","","","","","","dorthyveld@zeelandnet.nl","3112345678","","NL09INGB0003434046","Delta","2019-08-15 18:28:14"
"","Dhr.","B.W.","","Straten","947892","1234","","Lange Groendal 22 ","","","4301 DG","Zierikzee","NL","Lange Groendal 22 ","","","4301 DG","Zierikzee","NL","","","","","","","feeksje@zeelandnet.nl","3112345","","NL57ABNA0530515911","Delta","2019-08-15 18:49:06"
"","Dhr.","G.J. ","","de Putter","947893","K20005907","","Narcissenlaan","17","","4542 BS","Hoek","NL","Narcissenlaan","17","","4542 BS","Hoek","NL","","","","","","","truusdeputter@hotmail.com","31657055192","","NL90INGB0007383980","Delta","2019-08-15 18:51:00"
"","Mevr.","A","","de Dreu-Westerterp","947894","M34588501","","Oosterscheldestraat","128","","4335 PL","Middelburg","NL","Oosterscheldestraat","128","","4335 PL","Middelburg","NL","","","","","","","adedreuwest@simpc.nl","31118614998","","NL43ABNA0811054713","Delta","2019-08-15 19:02:43"
"","Dhr.","D.A.","","Coomans / van Marion","947895","M111","","Alexanderstraat","24","","4421 CH","Kapelle","NL","Alexanderstraat","24","","4421 CH","Kapelle","NL","","","","","","","familiecoomansvanmarion@gmail.com","31113340087","","NL07RABO0132794772","Delta","2019-08-15 19:04:59"
"","Dhr.","J","","Kirn","947898","M111111","","Nieuwe Oostersestraat 7 ","","","4331 TD","Middelburg","NL","Nieuwe Oostersestraat 7 ","","","4331 TD","Middelburg","NL","","","","","","","johnk@zeelandnet.nl","31311185539","","NL39INGB0003247460","Delta","2019-08-15 20:58:59"
"","Dhr.","JB","","Stigter","947824","","M","Van Scorelstraat 91  ","","","3141 HV","Maassluis","NL","","","","","","","Van Scorelstraat 91  ","","","3141 HV","Maassluis","NL","john.stigter@jbshosting.com","","","NL74INGB0005032697","Caiway","2019-08-15 11:13:00"
"","Dhr.","P.J.M.","","Barendse","947827","","27551","Vredebestlaan","45","","2685 AM","Poeldijk","NL","","","","","","","Vredebestlaan","45","","2685 AM","Poeldijk","NL","pbar@caiway.nl","31","","NL49ABNA0419122710","Caiway","2019-08-15 11:23:03"
"","Mevr.","MPA","","Gerritsen - Bossink","947830","","M","Oude Twentseweg 1 A ","","","8026 PH","Zwolle","NL","","","","","","","Oude Twentseweg 1 A ","","","8026 PH","Zwolle","NL","marja.gerritsen@live.nl","","","NL73RABO0384328261","Caiway","2019-08-15 11:50:43"
"","Dhr.","T.A.","","Hubers","947832","","M","Waelneslaan","8","","3341 VM","Hendrik-Ido-Ambacht","NL","","","","","","","Waelneslaan","8","","3341 VM","Hendrik-Ido-Ambacht","NL","picolo062@gmail.com","","","NL95SNSB0945224648","Caiway","2019-08-15 11:51:56"
"","Dhr.","W.W.","","de Roos","947847","","M","Heetkampsweg","16","","8107 PG","Broekland","NL","","","","","","","Heetkampsweg","16","","8107 PG","Broekland","NL","wim.de.roos2@gmail.com","","","nl67rabo0354558196","Caiway","2019-08-15 13:21:12"
"","Mevr.","W.A.M.","","Bisschop","947858","","M","Prins Mauritsstraat 10   ","","","3116 GG","Schiedam","NL","","","","","","","Prins Mauritsstraat 10   ","","","3116 GG","Schiedam","NL","dejobis@kabelfoon.nl","31104739744","","NL53ABNA0977100006","Caiway","2019-08-15 14:34:20"
"","Dhr.","M","","Trad","947863","","M","Atlantastraat 22 22 ","","","2548 JK","Den haag","NL","","","","","","","Atlantastraat 22 22 ","","","2548 JK","Den haag","NL","mourad19771@outlook.com","31658885692","","Nl07ingb0664635067","Caiway","2019-08-15 15:01:29"
"","Mevr.","MEJ","","Oosterhoff Vreugdenhil","947865","","M","Hondsdraf","15","","2671 DM","Naaldwijk","NL","","","","","","","Hondsdraf","15","","2671 DM","Naaldwijk","NL","marijke@vreughold.nl","31174630760","","NL69ABNA0477388213","Caiway","2019-08-15 15:13:53"
"","Dhr.","FT","","van Ruijven","947868","","M","Simon van Arkelstraat 6 ","","","2671 BK","Naaldwijk","NL","","","","","","","Simon van Arkelstraat 6 ","","","2671 BK","Naaldwijk","NL","frankvanruijven@gmail.com","31644171144","","NL71SNSB0906054540","Caiway","2019-08-15 15:31:25"
"","Dhr.","J M M","","Baak","947870","","M","Baksweg","1","","7156 NG","Beltrum","NL","","","","","","","Baksweg","1","","7156 NG","Beltrum","NL","joszakelijk@hotmail.com","31544481844","","NL27RABO0316430544","Caiway","2019-08-15 15:44:48"
"","Mevr.","M.M.","","Hubers-van Dam","947877","","M","Waelneslaan","8","","3341 VM","Hendrik-Ido-Ambacht","NL","","","","","","","Waelneslaan","8","","3341 VM","Hendrik-Ido-Ambacht","NL","parel065@gmail.com","","","NL95SNSB0945224648","Caiway","2019-08-15 16:15:05"
"","Dhr.","C.p.","","Frutuoso Nobre","947880","","M","Middenweg","216","","2548 VH","\'s-Gravenhage","NL","","","","","","","Middenweg","216","","2548 VH","\'s-Gravenhage","NL","claudioscarcare@gmail.com","31707801417","","Nl46ingb0792616650","Caiway","2019-08-15 16:22:50"
"","Dhr.","H.H.","","ter Braake","947885","","M","Ambtstraat","87","","7605 ER","Almelo","NL","","","","","","","Ambtstraat","87","","7605 ER","Almelo","NL","terbraakeherman@gmail.com","31546800306","","NL34ABNA0488644917","Caiway","2019-08-15 16:56:48"
"","Dhr.","G","","de Ruiter","947896","","M","Herman Gorterhof 84  ","","","1422 JS","Uithoorn","NL","","","","","","","Herman Gorterhof 84  ","","","1422 JS","Uithoorn","NL","maryengijs@gmail.com","","","NL03ABNA0428316034","Caiway","2019-08-15 19:22:28"
"","Dhr.","H ","","Duesman","947897","","M","Beuningerstraat 40 40 ","","","7588 RH","BEUNINGEN OV","NL","","","","","","","Beuningerstraat 40 40 ","","","7588 RH","BEUNINGEN OV","NL","h.duesman@gmail.com","31649269599","","Nl75rabo0139149376","Caiway","2019-08-15 19:49:52"
