"CustomerNumber","IMSI","Productid","Start_date","End_Of_Contract","Date_Contract_Prolong","MRR","MRR_Discount","MRR_Discount_Duration","Date_Mutation","Brand"
"948551","204164750206572","82","2019-09-09","2019-09-11","2021-09-09","17.5000","2.50","6","2019-09-11 15:08:34","Caiway"
"948830","204164750206739","83","2019-09-11","","2019-10-11","24.5000","","","2019-09-11 09:56:09","Caiway"
"946167","204164750207186","81","2019-07-31","2019-09-11","2021-07-31","12.5000","","","2019-09-11 11:28:14","Caiway"
"948781","204164750206784","81","2019-09-11","","2019-10-11","12.5000","","","2019-09-11 08:49:46","Caiway"
"947031","204164750207173","82","2020-01-02","","2022-01-02","17.5000","","","2019-09-11 11:00:07","Caiway"
"948590","204164750210906","11","2019-09-11","","2019-10-11","20.0000","20.00","4","2019-09-11 00:05:06","Delta"
"948834","","11","2019-09-11","","2021-09-11","20.0000","20.00","4","2019-09-11 00:05:06","Delta"
"945094","204164750201062","11","2019-09-02","2019-09-11","2019-10-11","20.0000","5.00","6","2019-09-11 00:05:05","Delta"
"947543","204164750212934","11","2019-09-11","","2019-10-11","20.0000","20.00","4","2019-09-11 00:05:06","Delta"
"948403","204164750210907","11","2019-09-12","","2019-10-12","20.0000","20.00","4","2019-09-11 15:43:19","Delta"
"948692","204164750211395","11","2019-09-10","","2019-10-11","20.0000","20.00","4","2019-09-11 00:05:06","Delta"
"948882","","11","2019-09-11","","2019-10-11","20.0000","20.00","4","2019-09-11 11:01:14","Delta"
"946873","204164750213450","11","2019-09-11","","2019-10-11","20.0000","20.00","4","2019-09-11 00:05:05","Delta"
"947598","204164750201245","11","2019-09-11","","2019-10-11","20.0000","20.00","4","2019-09-11 00:05:06","Delta"
"948558","204164750210953","11","2019-09-11","","2019-10-11","20.0000","5.00","6","2019-09-11 00:05:06","Delta"
"948832","204164750210908","11","2019-09-11","2019-09-11","2019-10-11","20.0000","20.00","4","2019-09-11 13:09:41","Delta"
"947423","204164750213126","11","2019-09-11","","2019-10-11","20.0000","20.00","6","2019-09-11 00:05:05","Delta"
"948341","204164750210532","10","2019-09-11","","2019-10-11","7.0000","","","2019-09-11 00:05:06","Delta"
"948592","204164750210948","11","2019-09-05","2019-09-10","2019-10-11","20.0000","20.00","4","2019-09-11 00:05:06","Delta"
"948777","204164750211294","11","2019-09-10","","2019-10-11","20.0000","20.00","4","2019-09-11 00:05:06","Delta"
"946400","204164750201988","11","2019-09-11","","2019-10-11","20.0000","5.00","6","2019-09-11 00:05:05","Delta"
"947575","204164750212992","43","2019-09-11","","2019-10-11","25.0000","20.00","4","2019-09-11 00:05:06","Delta"
"947181","204164750213210","11","2019-09-11","","2019-10-11","20.0000","5.00","6","2019-09-11 00:05:05","Delta"
"948341","204164750210531","10","2019-09-11","","2019-10-11","7.0000","","","2019-09-11 00:05:06","Delta"
"948591","204164750210998","11","2019-09-06","2019-09-11","2019-10-11","20.0000","20.00","4","2019-09-11 09:43:23","Delta"
"948840","204164750210940","11","2019-09-11","","2019-10-11","20.0000","20.00","4","2019-09-11 00:05:06","Delta"
"947567","204164750212989","11","2019-09-11","","2019-10-11","20.0000","20.00","4","2019-09-11 00:05:06","Delta"
"948438","204164750212533","11","2019-09-02","2019-09-11","2019-10-11","20.0000","20.00","4","2019-09-11 13:54:20","Delta"
"948921","204164750211263","11","2019-09-11","","2019-10-11","20.0000","20.00","4","2019-09-11 13:10:28","Delta"
"948225","204164750212554","10","2019-09-11","","2019-10-11","7.0000","","","2019-09-11 00:05:06","Delta"
