"CustomerNumber","IMSI","Productid","Start_date","End_Of_Contract","Date_Contract_Prolong","MRR","MRR_Discount","MRR_Discount_Duration","Date_Mutation","Brand"
"948405","204164750206724","81","2019-08-30","","2019-09-30","12.5000","2.50","6","2019-08-30 09:28:54","Caiway"
"944892","204164750206590","83","2019-05-19","2019-09-01","2021-05-19","24.5000","","","2019-08-30 12:05:01","Caiway"
"948162","204164750206823","82","2019-09-02","","2019-10-02","17.5000","","","2019-08-30 10:40:03","Caiway"
"947033","204164750213428","11","2019-08-30","","2019-09-30","20.0000","20.00","4","2019-08-30 00:06:32","Delta"
"947534","204164750212572","43","2019-08-30","","2019-09-30","25.0000","20.00","4","2019-08-30 00:06:32","Delta"
"948072","","35","2019-08-29","2019-08-31","2021-08-29","22.5000","20.00","4","2019-08-30 00:06:32","Delta"
"948429","204164750201448","11","2019-08-30","","2019-09-30","20.0000","20.00","4","2019-08-30 00:06:32","Delta"
"946065","204164750200389","43","2019-06-25","2019-08-30","2019-09-30","25.0000","5.00","6","2019-08-30 00:06:31","Delta"
"947080","204164750201299","11","2019-08-30","","2019-09-30","20.0000","20.00","4","2019-08-30 00:06:32","Delta"
"948274","204164750212602","11","2019-08-30","","2019-09-30","20.0000","20.00","4","2019-08-30 00:06:32","Delta"
"927411","204164750202161","11","2018-12-10","2019-08-30","2019-09-30","20.0000","5.00","6","2019-08-30 00:06:31","Delta"
"946978","204164750213401","11","2019-08-30","","2019-09-30","20.0000","20.00","4","2019-08-30 00:06:32","Delta"
"948056","204164750212774","11","2019-08-22","2019-08-30","2019-09-30","20.0000","5.00","6","2019-08-30 12:14:36","Delta"
"948344","204164750212686","11","2019-08-30","","2019-09-30","20.0000","20.00","4","2019-08-30 00:06:32","Delta"
"948427","204164750201449","11","2019-08-30","","2019-09-30","20.0000","20.00","4","2019-08-30 00:06:32","Delta"
"947051","204164750200012","11","2019-08-30","","2019-09-30","20.0000","20.00","4","2019-08-30 00:06:32","Delta"
"948239","204164750211451","11","2019-08-30","","2021-08-30","20.0000","20.00","4","2019-08-30 00:06:32","Delta"
"948379","204164750200218","11","2019-08-30","","2019-09-30","20.0000","20.00","4","2019-08-30 00:06:32","Delta"
"946923","204164750213320","43","2019-08-30","","2019-09-30","25.0000","5.00","6","2019-08-30 00:06:32","Delta"
"948027","204164750212626","11","2019-08-22","2019-08-30","2019-09-30","20.0000","20.00","4","2019-08-30 10:15:37","Delta"
"948327","204164750201440","11","2019-08-30","","2019-09-30","20.0000","20.00","4","2019-08-30 00:06:32","Delta"
"947945","204164750201230","11","2019-08-29","","2019-09-30","20.0000","20.00","4","2019-08-30 00:06:32","Delta"
"942947","204164750202120","11","2019-08-30","","2019-09-30","20.0000","5.00","6","2019-08-30 00:06:31","Delta"
"947050","204164750200016","11","2019-08-30","","2021-08-30","20.0000","20.00","4","2019-08-30 00:06:32","Delta"
"948373","","11","2019-08-29","","2019-09-30","20.0000","20.00","4","2019-08-30 00:06:32","Delta"
"948462","204164750203009","7","2019-08-30","","2019-09-30","20.0000","","","2019-08-30 11:00:27","Delta"
"946850","204164750213448","10","2019-08-30","","2019-09-30","7.0000","","","2019-08-30 00:06:31","Delta"
"947720","204164750212884","10","2019-08-15","2019-08-30","2019-09-30","7.0000","","","2019-08-30 12:08:18","Delta"
"948324","204164750201439","11","2019-08-30","","2019-09-30","20.0000","20.00","4","2019-08-30 00:06:32","Delta"
"948419","204164750201078","11","2019-08-30","","2021-08-30","20.0000","20.00","4","2019-08-30 00:06:32","Delta"
"800304","204164750203004","6","2018-12-14","2019-08-30","2019-12-14","7.0000","5.00","6","2019-08-30 10:50:04","Delta"
