"initial","salutation","firstname","middlename","lastname","id","deltaid","caiwayid","address1","housenumber","alphabet","postcode","city","country","delta_address1","delta_housenumber","delta_alphabet","delta_postcode","delta_city","delta_country","caiway_address1","caiway_housenumber","caiway_alphabet","caiway_postcode","caiway_city","caiway_country","email","phonenumber","phonenumber2","iban","brand","date_modified"
"","Dhr.","F.","","Renwarin","950026","M112009","","Driewegenhof ","377 ","","4337 GJ","Middelburg","NL","Driewegenhof ","377 ","","4337 GJ","Middelburg","NL","","","","","","","fastferry@gmail.com","31627554280","","NL26ABNA0510334261","Delta","2019-10-02 09:39:53"
"","Dhr.","C.A.","","Huisman","950028","M315622","","de Genestetstraat ","5","","4532 GB","Terneuzen","NL","de Genestetstraat ","5","","4532 GB","Terneuzen","NL","","","","","","","khuisman@zeelandnet.nl","0636102147","","NL72ABNA0482732180","Delta","2019-10-02 10:22:29"
"","Dhr.","J.P. ","","Verschelling","950032","K04527758","","\'s-Heer","Hendrikskindere","","4461 BW","Goes","NL","\'s-Heer","Hendrikskindere","","4461 BW","Goes","NL","","","","","","","446174@deltafibernederland.nl","31113323946","","NL68RABO0335077765","Delta","2019-10-02 12:41:20"
"","Dhr.","F.","","Bom","950034","M111111","","Breedstraat ","11 ","","4301 AW","Zierikzee","NL","Breedstraat ","11 ","","4301 AW","Zierikzee","NL","","","","","","","eixample@live.nl","31123456789","","NL46ABNA0413548368","Delta","2019-10-02 12:45:46"
"","Dhr.","J.","","Ooms","950035","M111111","","Prinsenhove","150 ","","4336 HG","Middelburg","NL","Prinsenhove","150 ","","4336 HG","Middelburg","NL","","","","","","","jaapooms@zeelandnet.nl","31118629783","","NL09ABNA0510319823","Delta","2019-10-02 12:49:57"
"","Dhr.","A.","","Kaasjager","950036","M111111","","Oesterputten","24 ","","4532 AK","Terneuzen","NL","Oesterputten","24 ","","4532 AK","Terneuzen","NL","","","","","","","aljoni@zeelandnet.nl","31115696178","","NL59INGB0001288185","Delta","2019-10-02 13:04:02"
"","Dhr.","M.P.","","Goedbloed","950037","M","","Spaarnestraat","2 ","","4388 TK","OOST-SOUBURG","NL","Spaarnestraat","2 ","","4388 TK","OOST-SOUBURG","NL","","","","","","","mahanisa@zeelandnet.nl","31612780404","","NL35ABNA0816609659","Delta","2019-10-02 13:34:02"
"","Mevr.","M","","Grazell","950038","M477144","","Steengrachtstraat","3 ","","4356 AT","Oostkapelle","NL","Steengrachtstraat","3 ","","4356 AT","Oostkapelle","NL","","","","","","","mchgrazell@zeelandnet.nl","31118850957","","NL21INGB0007154653","Delta","2019-10-02 14:00:51"
"","Dhr.","L.","","Van Vessem","950039","356721","","Dauwnetelpad","4 ","","4322 CJ","Zeeland","NL","Dauwnetelpad","4 ","","4322 CJ","Zeeland","NL","","","","","","","albie76@zeelandnet.nl","31653363201","","NL33RABO0357855159","Delta","2019-10-02 14:20:01"
"","Dhr.","M.P.","","van der Maas","950041","M","","Zuidstraat ","12 ","","4328 AD","BURGH HAAMSTEDE","NL","Zuidstraat ","12 ","","4328 AD","BURGH HAAMSTEDE","NL","","","","","","","mpvdmaas@zeelandnet.nl","31111652629","","NL33INGB0003333413","Delta","2019-10-02 14:52:20"
"","Mevr.","J.M.","","de Feijter","950042","M111111","","Visartstraat","53 ","","4541 BA","Sluiskil","NL","Visartstraat","53 ","","4541 BA","Sluiskil","NL","","","","","","","hdefeijter@zeelandnet.nl","31123456789","","NL88ABNA0527285544","Delta","2019-10-02 14:56:26"
"","Dhr.","R.","","de Vos Burchart","950043","M","","Van","Borselelaan","","4351 NP","VEERE","NL","Van","Borselelaan","","4351 NP","VEERE","NL","","","","","","","daridi@zeelandnet.nl","31614027367","","NL12ASNB0708375553","Delta","2019-10-02 15:01:17"
"","Dhr.","J.","","Beekman","950045","M539270","","Zilvermeeuwstraat","17 ","","4332 DE","Middelburg","NL","Zilvermeeuwstraat","17 ","","4332 DE","Middelburg","NL","","","","","","","ja.beekman@outlook.com","31118625582","","NL08INGB0005577958","Delta","2019-10-02 15:19:39"
"","Mevr.","V.A.M.","","Metdepenningen","950046","K20151873","","Diepenbrockstraat","299 ","","4536 GS","Terneuzen","NL","Diepenbrockstraat","299 ","","4536 GS","Terneuzen","NL","","","","","","","aurora.vampje@gmail.com","31655182327","","NL68INGB0003896644","Delta","2019-10-02 15:29:31"
"","Dhr.","J.P.","","van der Horst","950048","M111111","","Minaret","20 ","","4336 JB","Middelburg","NL","Minaret","20 ","","4336 JB","Middelburg","NL","","","","","","","jpvanderhorst5@hotmail.com","31118627283","","NL42INGB0004245827","Delta","2019-10-02 15:49:08"
"","Dhr.","M.A","","Ideler","950049","M111111","","Waadvogelstraat","20 ","","4451 DJ","Heinkenszand","NL","Waadvogelstraat","20 ","","4451 DJ","Heinkenszand","NL","","","","","","","maideler@zeelandnet.nl","31113563931","","NL47INGB0004222166","Delta","2019-10-02 15:55:47"
"","Dhr.","A.L.M.","","Hemelaar-Zegers","950050","111111","","onbekend","26 ","","4583 SW","TERHOLE","NL","onbekend","26 ","","4583 SW","TERHOLE","NL","","","","","","","anniehemelaar47@hotmail.nl","31114315439","","NL93RABO0150794096","Delta","2019-10-02 15:58:22"
"","Dhr.","J.","","Theunis","950051","M111111","","Elvis","Presleylaan","","4462 LB","Goes","NL","Elvis","Presleylaan","","4462 LB","Goes","NL","","","","","","","jtheunis@zeelandnet.nl","31113670799","","NL82INGB0004531839","Delta","2019-10-02 16:06:26"
"","Dhr.","W.A. ","","van Herreveld","950052","K03490755","","Meekrap ","18 ","","4413 GS","Krabbendijke","NL","Meekrap ","18 ","","4413 GS","Krabbendijke","NL","","","","","","","fvanherreveld@xs4all.nl","31113502464","","NL73INGB0002871943","Delta","2019-10-02 16:09:21"
"","Mevr.","R","","van 't hoff","950053","M1111","","Clivialaan ","27 ","","4542 CJ","HOEK","NL","Clivialaan ","27 ","","4542 CJ","HOEK","NL","","","","","","","n.keten@hotmail.com","31316136415","","NL67RABO0163852413","Delta","2019-10-02 16:10:48"
"","Dhr.","M.H.","","Simonse","950054","1234","","Roofvogelstraat ","71 ","","4451 CR","HEINKENSZAND","NL","Roofvogelstraat ","71 ","","4451 CR","HEINKENSZAND","NL","","","","","","","melvin.simonse@live.nl","31650837035","","NL80INGB0658173553","Delta","2019-10-02 16:17:52"
"","Dhr.","W","","Morales-Pennings","950055","M1111","","Kanariesprenk ","237 ","","4386 DK","VLISSINGEN","NL","Kanariesprenk ","237 ","","4386 DK","VLISSINGEN","NL","","","","","","","ciffix@gmail.com","31316140390","","NL70INGB0009388360","Delta","2019-10-02 16:23:37"
"","Mevr.","J.C","","Vroegop","950057","M111111","","Bierensstraat","62 ","","4697 GG","Sint-Annaland","NL","Bierensstraat","62 ","","4697 GG","Sint-Annaland","NL","","","","","","","arentas@zeelandnet.nl","31123456789","","NL45RABO0303006390","Delta","2019-10-02 16:33:28"
"","Dhr.","J","","Fondse","950058","M","","Platteweg","8 ","","4322 BE","Scharendijke","NL","Platteweg","8 ","","4322 BE","Scharendijke","NL","","","","","","","johanfondse@gmail.com","31639842514","","NL82ABNA0453935028","Delta","2019-10-02 16:35:12"
"","Dhr.","C.A.","","Schipper","950059","M111","","Everingseweg ","2 B ","","4436 AA","OUDELANDE","NL","Everingseweg ","2 B ","","4436 AA","OUDELANDE","NL","","","","","","","chrisschipper04@gmail.com","31316175908","","NL43SNSB0902224611","Delta","2019-10-02 16:36:13"
"","Dhr.","C.J.","","Groenleer","950060","M","","Haeskenshof","4a ","","4328 CE","BURGH-HAAMSTEDE","NL","Haeskenshof","4a ","","4328 CE","BURGH-HAAMSTEDE","NL","","","","","","","cgroenleer@zeelandnet.nl","31651005158","","NL63RABO0357845307","Delta","2019-10-02 16:41:49"
"","Mevr.","C.","","de Blaeij","950061","M","","Gerbernesseweg","2","","4443 AJ","Nisse","NL","Gerbernesseweg","2","","4443 AJ","Nisse","NL","","","","","","","cynthiadeblaeij@gmail.com","31622761207","","NL93RABO0121365654","Delta","2019-10-02 16:45:58"
"","Mevr.","J.P.","","van Dierendonck","950062","M111111","","Klaprooslaan ","2 ","","4537 CR","Terneuzen","NL","Klaprooslaan ","2 ","","4537 CR","Terneuzen","NL","","","","","","","info@sgsolutions.eu","31115612158","","NL80ABNA0613398505","Delta","2019-10-02 16:50:48"
"","Mevr.","A","","De Meza","950063","M","","Spaakstraa5","29","","4463 EA","Goes","NL","Spaakstraa5","29","","4463 EA","Goes","NL","","","","","","","astriddemeza@gmail.com","31113403300","","NL74ABNA0473613077","Delta","2019-10-02 16:51:01"
"","Dhr.","R.T.","","Florusse-Vervoorn","950064","1234","","onbekend","4 ","","4335 VN","MIDDELBURG","NL","onbekend","4 ","","4335 VN","MIDDELBURG","NL","","","","","","","royfloruss@zeelandnet.nl","3164019021","","NL40INGB0001497853","Delta","2019-10-02 16:51:13"
"","Mevr.","Test","","Test","950065","TEST","","adres","22","","1234 TT","TEST ","NL","adres","22","","1234 TT","TEST ","NL","","","","","","","test@hannisse.nl","3108469999","","NL78ABNA4991062764","Delta","2019-10-02 16:54:26"
"","Dhr.","J.C.","","Boone","950067","1234","","zandweg","26 ","","4416 CL","KRUININGEN","NL","zandweg","26 ","","4416 CL","KRUININGEN","NL","","","","","","","montiedoes@zeelandnet.nl","31113382030","","NL55INGB0004360926","Delta","2019-10-02 17:12:58"
"","Mevr.","G.","","Dobbeleir","950069","M","","Monseigneur Luijpenstraat 1 A","1 A ","","4513 AE","Hoofdplaat","NL","Monseigneur Luijpenstraat 1 A","1 A ","","4513 AE","Hoofdplaat","NL","","","","","","","geertruidobbeleir@gmail.com","31475974449","","NL84ABNA0561813736","Delta","2019-10-02 17:32:10"
"","Dhr.","K.","","Borg","950070","M111111","","van der Veerlaan","5 ","","4386 EH","Vlissingen","NL","van der Veerlaan","5 ","","4386 EH","Vlissingen","NL","","","","","","","kbfoto@zeelandnet.nl","31118466946","","NL18RABO0349365407","Delta","2019-10-02 17:32:48"
"","Dhr.","H.G","","Mieras ","950072","M1111","","zuidelijkeachterweg ","17 ","","4424 CR","WEMELDINGE","NL","zuidelijkeachterweg ","17 ","","4424 CR","WEMELDINGE","NL","","","","","","","rmieras@zeelandnet.nl","31316222622","","NL89INGB0004849388","Delta","2019-10-02 17:45:58"
"","Dhr.","Hans","","Nieuwdorp","950073","M","","Donkerstraat","24","","4463 VV","Goes","NL","Donkerstraat","24","","4463 VV","Goes","NL","","","","","","","hans59@zeelandnet.nl","31651422843","","NL36SNSB0963530968","Delta","2019-10-02 17:48:44"
"","Dhr.","J.","","Geuze","950074","M111111","","Molenweg","15 ","","4698 AW","Oud-Vossemeer","NL","Molenweg","15 ","","4698 AW","Oud-Vossemeer","NL","","","","","","","famgeuze2@zeelandnet.nl","31166672414","","NL59RABO0353400548","Delta","2019-10-02 17:49:34"
"","Dhr.","E.A.M.","","van den Branden","950075","K04655592","","Vinkstraat ","15 ","","4561 KG","Hulst","NL","Vinkstraat ","15 ","","4561 KG","Hulst","NL","","","","","","","evdbranden@zeelandnet.nl","31623041642","","NL53RBRB0850586453","Delta","2019-10-02 17:57:23"
"","Dhr.","C.J.","","van Eck","950076","1234","","joost de moorstraat","26 ","","4461 XH","GOES","NL","joost de moorstraat","26 ","","4461 XH","GOES","NL","","","","","","","cjvaneck@zeelandnet.nl","31113220224","","NL19ABNA0442243103","Delta","2019-10-02 18:00:36"
"","Dhr.","B","","Alibrahim","950077","M1111","","Boeijerstraat ","7 ","","4311 EW","BRUINISSE","NL","Boeijerstraat ","7 ","","4311 EW","BRUINISSE","NL","","","","","","","bjjb173@gmail.com","31316863874","","NL23INGB0703809199","Delta","2019-10-02 18:20:15"
"","Dhr.","R.","","van Belzen","950078","1234","","doornenburg","85 ","","4385 EK","VLISSINGEN","NL","doornenburg","85 ","","4385 EK","VLISSINGEN","NL","","","","","","","grapje10@hotmail.com","31118470531","","NL36ABNA0419240799","Delta","2019-10-02 18:23:52"
"","Mevr.","K.","","Boswinkel","950079","M","","Gentsevaart","37 ","","4565 ER","KAPELLEBRUG","NL","Gentsevaart","37 ","","4565 ER","KAPELLEBRUG","NL","","","","","","","irilizzbos@zeelandnet.nl","31621659141","","NL40RABO0159436877","Delta","2019-10-02 18:26:37"
"","Dhr.","M.C.A.","","Jonkers","950080","M","","van Riebeecklaan 39","39 ","","4562 AK","Hulst","NL","van Riebeecklaan 39","39 ","","4562 AK","Hulst","NL","","","","","","","manakini@zeelandnet.nl","31114316207","","NL26RABO0330468596","Delta","2019-10-02 18:52:07"
"","Dhr.","J.C.","","Renses","950081","1234","","ahornstraat","25 ","","4388 PR","OOST-SOUBURG","NL","ahornstraat","25 ","","4388 PR","OOST-SOUBURG","NL","","","","","","","jcrenses@zeelandnet.nl","31118795342","","NL03INGB0652750311","Delta","2019-10-02 18:52:33"
"","Mevr.","C.","","de Smet","950082","M111111","","Peter van Anrooylaan","57 ","","4536 CD","Terneuzen","NL","Peter van Anrooylaan","57 ","","4536 CD","Terneuzen","NL","","","","","","","cdesmet411@zeelandnet.nl","31115851791","","NL79RABO0129429031","Delta","2019-10-02 19:15:24"
"","Dhr.","P.M.A.","","Hector","950083","1234","","vereekstraat","43 ","","4421 CC","KAPELLE","NL","vereekstraat","43 ","","4421 CC","KAPELLE","NL","","","","","","","phector@zeelandnet.nl","31638513493","","NL15RABO0320520765","Delta","2019-10-02 19:26:49"
"","Mevr.","S","","Kikkert","950084","M","","Sluiswachterstraat","4","","2694 CB","\'s-Gravenzande","NL","Sluiswachterstraat","4","","2694 CB","\'s-Gravenzande","NL","","","","","","","ian.kikkert@live.nl","","","NL08INGB0756173949","Delta","2019-10-02 19:55:09"
"","Dhr.","F.S.C","","Keerssemeeckers","950085","M111111","","Vredehoflaan","5 ","","4382 BT","Vlissingen","NL","Vredehoflaan","5 ","","4382 BT","Vlissingen","NL","","","","","","","fransriet@zeelandnet.nl","31118502201","","NL89INGB0007962409","Delta","2019-10-02 20:26:50"
"","Dhr.","A.P","","Pieterse","950086","M111111","","Noordweg","10 ","","4356 EC","Oostkapelle","NL","Noordweg","10 ","","4356 EC","Oostkapelle","NL","","","","","","","pieterse10@zeelandnet.nl","31118582129","","NL19RABO0324013663","Delta","2019-10-02 20:32:17"
"","Dhr.","H.J","","de Vos","950087","M111111","","Vrije","30 ","","4301 JZ","Zierikzee","NL","Vrije","30 ","","4301 JZ","Zierikzee","NL","","","","","","","hjdevos@zeelandnet.nl","31111412263","","NL28INGB0001761909","Delta","2019-10-02 20:40:45"
"","Mevr.","A.","","Harenberg","950021","","1474510","Schooldijk","4","","7223 KM","Baak","NL","","","","","","","Schooldijk","4","","7223 KM","Baak","NL","w.harenberg@caiway.nl","31575441372","","nl81rabo0327475447","Caiway","2019-10-02 02:00:06"
"","Mevr.","T","","Verkooijen","950022","","1481243","Horick","2","","6035 PH","Ospel","NL","","","","","","","Horick","2","","6035 PH","Ospel","NL","adentoosverkooijen@outlook.com","31495641170","","nl94rabo0140327002","Caiway","2019-10-02 02:00:17"
"","Dhr.","A.p.p","","Pijnappel","950023","","1375443","Aanslagdwarsstraat","7","","7641 BP","Wierden","NL","","","","","","","Aanslagdwarsstraat","7","","7641 BP","Wierden","NL","pijnappelschartman@caiway.nl","31546577106","","NL94RABO0354812238","Caiway","2019-10-02 02:00:29"
"","Dhr.","P","","Klaver","950024","","757749","Ebro","110","","1423 AX","Uithoorn","NL","","","","","","","Ebro","110","","1423 AX","Uithoorn","NL","swaning@caiway.nl","","","NL36ABNA0895257920","Caiway","2019-10-02 02:00:47"
"","Dhr.","M","","Visser","950025","","1149760","Grift","3","","1423 DH","Uithoorn","NL","","","","","","","Grift","3","","1423 DH","Uithoorn","NL","martinvisser@gmail.com","","","NL39INGB0748370323","Caiway","2019-10-02 02:00:58"
