"initial","salutation","firstname","middlename","lastname","id","deltaid","caiwayid","address1","housenumber","alphabet","postcode","city","country","delta_address1","delta_housenumber","delta_alphabet","delta_postcode","delta_city","delta_country","caiway_address1","caiway_housenumber","caiway_alphabet","caiway_postcode","caiway_city","caiway_country","email","phonenumber","phonenumber2","iban","brand","date_modified"
"","Meneer","G.","","van Driel","948863","M353854","","Putwijkstraat","17","","4388 HP","Oost-Souburg","NL","Putwijkstraat","17","","4388 HP","Oost-Souburg","NL","","","","","","","guusnel@zeelandnet.nl","0650866808","","NL10ABNA0440499690","Delta","2019-09-10 10:19:29"
"","Dhr.","H.J.","","Schumacher","948868","M329934","","Spuistraat","20","","4381 HR","Vlissingen","NL","Spuistraat","20","","4381 HR","Vlissingen","NL","","","","","","","schumacherellen@hotmail.com","0642153450","","NL87ABNA0484377612","Delta","2019-09-10 12:14:56"
"","Mevr.","A.H.W. ","","Nijsse","948872","M502794","","Magnoliastraat","194","","4431 EL","'s-Gravenpolder","NL","Magnoliastraat","194","","4431 EL","'s-Gravenpolder","NL","","","","","","","pmdelange@outlook.com","0625137410","","NL49RABO0331529459","Delta","2019-09-10 13:31:23"
"","Mevr.","C.G. ","","de Pagter","948873","M303239>VERLENGING","","Stuvesande","356","","4532 MK","Terneuzen","NL","Stuvesande","356","","4532 MK","Terneuzen","NL","","","","","","","bhoven@zeelandnet.nl","0115696810","","NL23ABNA0482706872","Delta","2019-09-10 13:40:28"
"","","W.A. ","","Geelhoed","948875","M308289","","Soelekerkestraat","14","","4493 BS","Kamperland","NL","Soelekerkestraat","14","","4493 BS","Kamperland","NL","","","","","","","wilmargeelhoed@hotmail.com","0113655531","","NL30ABNA0579883868","Delta","2019-09-10 15:29:39"
"","Dhr.","E","","Zahradnik","948876","113979","","Graafjansdijk","B","","4554 LB","Westdorpe","NL","Graafjansdijk","B","","4554 LB","Westdorpe","NL","","","","","","","zahra@zeelandnet.nl","31115460260","","NL69INGB0006417462","Delta","2019-09-10 15:36:55"
"","Mevr.","S.A.A.","","van  Zweden","948877","M568287VERLENGEN","","Bergstraat","21 ","","4371 AK","Koudekerke","NL","Bergstraat","21 ","","4371 AK","Koudekerke","NL","","","","","","","pimenpom@zeelandnet.nl","31612183647","","NL45RABO0150111983","Delta","2019-09-10 15:37:29"
"","Dhr.","P. ","","Meulmeester","948879","M307675","","Dokstraat","45 ","","4341 ES","Arnemuiden","NL","Dokstraat","45 ","","4341 ES","Arnemuiden","NL","","","","","","","demijl@zeelandnet.nl","31118601578","","NL65INGB0001611378","Delta","2019-09-10 15:42:45"
"","Mevr.","J.J.M. ","","Kas","948880","M312803","","Elzenlaan","7","","4564 CC","Sint Jansteen","NL","Elzenlaan","7","","4564 CC","Sint Jansteen","NL","","","","","","","kasbaart@zeelandnet.nl","0114310053","","NL31INGB0002680736","Delta","2019-09-10 15:53:05"
"","Mevr.","C.M.","","Hus","948881","M516674","","Langestraat ","8","","4693 BT","Poortvliet","NL","Langestraat ","8","","4693 BT","Poortvliet","NL","","","","","","","marielle.hus@gmail.com","0657515238","","NL63ABNA0562828540","Delta","2019-09-10 16:00:58"
"","Mevr.","H.J","","Van der Horst","948882","M462697","","Evertsenstraat","5-04 ","","4461 XN","Goes","NL","Evertsenstraat","5-04 ","","4461 XN","Goes","NL","","","","","","","hennie.vantwist@zeelandnet.nl","31621950551","","NL12RABO0357851463","Delta","2019-09-10 16:11:11"
"","Dhr.","W.","","Corstanje","948883","M595805","","Boogstraat","17","","4458 CB","'s-Heer Arendskerke","NL","Boogstraat","17","","4458 CB","'s-Heer Arendskerke","NL","","","","","","","wcorstanje@gmail.com","0641777342","","NL27RABO0170676986","Delta","2019-09-10 16:17:43"
"","Dhr.","L.","","Pont","948885","M512301","","Vinkenhof","35 ","","4332 DM","Middelburg","NL","Vinkenhof","35 ","","4332 DM","Middelburg","NL","","","","","","","info@pontext.nl","31624678678","","NL18ABNA0823753433","Delta","2019-09-10 16:27:52"
"","Dhr.","H.E.K.","","de Greve","948886","M340360","","Spinhuisweg","4","","4336 JA","Middelburg","NL","Spinhuisweg","4","","4336 JA","Middelburg","NL","","","","","","","hdegreve@zeelandnet.nl","0611788601","","NL59RABO0335070264","Delta","2019-09-10 16:32:31"
"","Mevr.","A.","","Schouten","948887","M111111","","Johan Guiliëlmus Schorerstraat","22 ","","4336 GT","Middelburg","NL","Johan Guiliëlmus Schorerstraat","22 ","","4336 GT","Middelburg","NL","","","","","","","barrel10@quicknet.nl","31123456789","","NL41ABNA0587739215","Delta","2019-09-10 16:42:10"
"","Mevr.","J.C.","","Louwerse","948888","M312617","","Kalkoensprenk","42 ","","4386 DD","Vlissingen","NL","Kalkoensprenk","42 ","","4386 DD","Vlissingen","NL","","","","","","","jokelouwerse@yahoo.com","0628277387","","NL56INGB0002250479","Delta","2019-09-10 16:49:59"
"","Dhr.","A","","Wijnacker","948890","111111","","Van","Hallstraat","","4384 BN","VLISSINGEN","NL","Van","Hallstraat","","4384 BN","VLISSINGEN","NL","","","","","","","anboog@zeelandnet.nl","31118467194","","NL12INGB0659090554","Delta","2019-09-10 17:11:02"
"","Dhr.","I.J.","","Ribbens","948906","K00194873","","Hamerstedestraat","6 ","","4485 AT","Kats","NL","Hamerstedestraat","6 ","","4485 AT","Kats","NL","","","","","","","iribbens@hotmail.com","31113601980","","NL32RABO0371432073","Delta","2019-09-10 18:43:50"
"","Dhr.","WJ","","de Braal","948907","M","","Berkellaan","2","","4417 DJ","Hansweert","NL","Berkellaan","2","","4417 DJ","Hansweert","NL","","","","","","","wimb@zeelandnet.nl","31113215354","","NL04RABO0320573052","Delta","2019-09-10 19:10:10"
"","Dhr.","W","","Acda","948908","M111111","","Gouwestraat","115 ","","4388 RB","OOST-SOUBURG","NL","Gouwestraat","115 ","","4388 RB","OOST-SOUBURG","NL","","","","","","","wihen@zeelandnet.nl","31118467058","","NL91ABNA0426235061","Delta","2019-09-10 19:26:28"
"","Mevr.","I","","de Braal","948909","M","","Berkellaan","2","","4417 DJ","Hansweert","NL","Berkellaan","2","","4417 DJ","Hansweert","NL","","","","","","","inadebraal@icloud.com","31113215354","","NL04RABO0320573052","Delta","2019-09-10 19:30:25"
"","Mevr.","A.G.","","Jansen-Lansen","948910","M","","Troelstralaan ","124 ","","4463 XZ","Goes","NL","Troelstralaan ","124 ","","4463 XZ","Goes","NL","","","","","","","riannejansenlansen@gmail.com","3113252218","","NL28RABO0344840565","Delta","2019-09-10 19:59:21"
"","Dhr.","A.H.M.","","Seghers","948911","M11111","","Dommelstraat ","11 ","","4535 HC","4535HC","NL","Dommelstraat ","11 ","","4535 HC","4535HC","NL","","","","","","","ahmseghers@gmail.com","31311156958","","NL35RABO0103790977","Delta","2019-09-10 20:15:55"
"","Dhr.","G.A. ","","Henneberke","948889","","M","Apollolaan","50","","7604 EK","Almelo","NL","","","","","","","Apollolaan","50","","7604 EK","Almelo","NL","ga.henneberke@gmail.com","31546822897","","NL92SNSB0958548331","Caiway","2019-09-10 17:09:07"
"","Dhr.","KSF","","Riezebos","948891","","M","Molweg","26","","3784 VC","Terschuur","NL","","","","","","","Molweg","26","","3784 VC","Terschuur","NL","karin@riezebos.net","","","NL32INGB0005712259","Caiway","2019-09-10 17:15:38"
"","Dhr.","A","","ezendam","948893","","M","Brouwerijstraat","1a-306","","7601 BK","almelo","NL","","","","","","","Brouwerijstraat","1a-306","","7601 BK","almelo","NL","damezen@gmail.com","","","nl57rabo0381301761","Caiway","2019-09-10 17:41:44"
"","Dhr.","G.","","Kroezen","948894","","M","Goudenregenstraat","16","","7783 AC","Gramsbergen","NL","","","","","","","Goudenregenstraat","16","","7783 AC","Gramsbergen","NL","geertkroezen43@hotmail.com","31524562593","","NL33RBRB0917903455","Caiway","2019-09-10 17:42:48"
"","Dhr.","HJA","","Katgert","948895","","M","Oude Diepenheimseweg 5"," ","","7274 AB","Geesteren","NL","","","","","","","Oude Diepenheimseweg 5"," ","","7274 AB","Geesteren","NL","hjakatgert@gmail.com","31545481641","","NL82RBRB0828947171","Caiway","2019-09-10 17:43:53"
"","Mevr.","JJ","","Mulder","948896","","M","Zanddijk","66","","2691 PH","\'s-Gravenzande","NL","","","","","","","Zanddijk","66","","2691 PH","\'s-Gravenzande","NL","jjmulder@caiway.nl","31174501919","","NL69RABO0342935135","Caiway","2019-09-10 17:44:18"
"","Dhr.","G.M. ","","Kraaieveld","948897","","M","Provincialeweg Noord 86","  ","","4286 EC","Almkerk","NL","","","","","","","Provincialeweg Noord 86","  ","","4286 EC","Almkerk","NL","vugt134@zonnet.nl","","","NL27RABO0372553095","Caiway","2019-09-10 17:44:41"
"","Dhr.","M.T. ","","Schriks","948898","","M","De Vloot 118"," ","","3144 PE","Maassluis","NL","","","","","","","De Vloot 118"," ","","3144 PE","Maassluis","NL","rschriks@caiway.nl","31105916616","","NL78INGB0000178454","Caiway","2019-09-10 17:45:02"
"","Dhr.","R","","Van Schrojenstein Lantman ","948899","","M","Lieshoutseweg","27","","5674 RK","Nuenen","NL","","","","","","","Lieshoutseweg","27","","5674 RK","Nuenen","NL","reinlantman@gmail.com","31402834362","","Nl42rabo0137484577","Caiway","2019-09-10 17:45:47"
"","Mevr.","a","","kremers zoon","948900","","M","Huisstededijk","3","","7122 KC","Aalten","NL","","","","","","","Huisstededijk","3","","7122 KC","Aalten","NL","pkremers14@gmail.com","31543466437","","NL71TRIO0390464694","Caiway","2019-09-10 17:46:08"
"","Dhr.","H.W.","","Schol","948901","","M","Boesveldsedijk","4","","7091 EN","Dinxperlo","NL","","","","","","","Boesveldsedijk","4","","7091 EN","Dinxperlo","NL","hansschol31@gmail.com","31315236264","","NL31INGB0003477785","Caiway","2019-09-10 17:46:47"
"","Dhr.","P.","","van Rijthoven","948902","","M","Achterdijk","46","","3984 LE","Odijk","NL","","","","","","","Achterdijk","46","","3984 LE","Odijk","NL","p.van.rijthoven@outlook.com","","","NL02ABNA0424412578","Caiway","2019-09-10 17:47:07"
"","Dhr.","J.","","Borkent","948903","","M","Van Stolberglaan 60","  ","","7681 GD","Vroomshoop","NL","","","","","","","Van Stolberglaan 60","  ","","7681 GD","Vroomshoop","NL","borkentjoop@gmail.com","","","NL50ABNA0487179056","Caiway","2019-09-10 17:47:25"
"","Dhr.","Gerhardus Stefanus Johannus","","Boerkamp","948904","","M","Schoolstraat","22","","7571 CK","Oldenzaal","NL","","","","","","","Schoolstraat","22","","7571 CK","Oldenzaal","NL","boerkamp61@gmail.com","31541517852","","NL57SNSB0960918477","Caiway","2019-09-10 18:30:56"
"","Dhr.","L.G.","","Vije","948905","","M","Pompstationweg","65","","7522 PG","Enschede","NL","","","","","","","Pompstationweg","65","","7522 PG","Enschede","NL","leovije@hotmail.com","31534332740","","NL43RBRB0827283741","Caiway","2019-09-10 18:34:48"
