"initial","salutation","firstname","middlename","lastname","id","deltaid","caiwayid","address1","housenumber","alphabet","postcode","city","country","delta_address1","delta_housenumber","delta_alphabet","delta_postcode","delta_city","delta_country","caiway_address1","caiway_housenumber","caiway_alphabet","caiway_postcode","caiway_city","caiway_country","email","phonenumber","phonenumber2","iban","brand","date_modified"
"","Dhr.","P.","","Bakker","948758","M316312","","Heernisseweg","102 ","","4461 PX","Goes","NL","Heernisseweg","102 ","","4461 PX","Goes","NL","","","","","","","bakkerpl@zeelandnet.nl","0113226147","","NL81RABO0320514145","Delta","2019-09-05 21:02:51"
"","Dhr.","P.","","Niwele","948765","M303399","","Spinhuisweg","133 ","","4336 GD","Middelburg","NL","Spinhuisweg","133 ","","4336 GD","Middelburg","NL","","","","","","","niwele@zeelandnet.nl","31640944705","","NL39INGB0002739180","Delta","2019-09-06 10:08:36"
"","Dhr.","D.P.S","","van Eijzeren","948767","M1111","","Haringvlietstraat","118 ","","4335 XM","Middelburg","NL","Haringvlietstraat","118 ","","4335 XM","Middelburg","NL","","","","","","","flipperroos@hotmail.com","31650575068","","NL59RABO0335001491","Delta","2019-09-06 10:38:31"
"","Dhr.","F.A.","","Rijn","948768","M322114","","Singel ","71 ","","4554 CP","Westdorpe","NL","Singel ","71 ","","4554 CP","Westdorpe","NL","","","","","","","farijn@zeelandnet.nl","31115620384","","NL61INGB0008140520","Delta","2019-09-06 10:41:10"
"","Dhr.","F.","","Wehmuller","948769","M11111","","Spreeuwehof","2 ","","4451 CB","Heinkenszand","NL","Spreeuwehof","2 ","","4451 CB","Heinkenszand","NL","","","","","","","fwehmuller@gmail.com","3113567369","","NL98SNSB0866302581","Delta","2019-09-06 10:46:16"
"","Dhr.","A","","van de Weele","948770","M1111","","Oude","Vlissingseweg","","4336 AB","MIDDELBURG","NL","Oude","Vlissingseweg","","4336 AB","MIDDELBURG","NL","","","","","","","gilwee@zeelandnet.nl","31188474388","","NL15RABO0385337426","Delta","2019-09-06 10:56:38"
"","Dhr.","L.A.","","Peute","948772","M","","Haven","28 ","","4695 CP","Sint-Maartensdijk","NL","Haven","28 ","","4695 CP","Sint-Maartensdijk","NL","","","","","","","leopeute@hetnet.nl","31654697383","","NL63ABNA0525141324","Delta","2019-09-06 11:19:48"
"","Dhr.","F.E","","Nieuwersteeg","948774","M","","Pablo Picassoplein 38","  ","","4382 KB","Vlissingen","NL","Pablo Picassoplein 38","  ","","4382 KB","Vlissingen","NL","","","","","","","franse@zeelandnet.nl","","","Nl15abna0507942051","Delta","2019-09-06 11:53:43"
"","Dhr.","P.C.","","Meertens","948775","M129963","","Melkweg","32 ","","4501 GK","Oostburg","NL","Melkweg","32 ","","4501 GK","Oostburg","NL","","","","","","","pcmeertens@zeelandnet.nl","31117453385","","NL48INGB0004094011","Delta","2019-09-06 12:04:17"
"","Dhr.","P","","Steyn","948776","M338516","","Plataanstraat","14 ","","4675 AX","Sint Philipsland","NL","Plataanstraat","14 ","","4675 AX","Sint Philipsland","NL","","","","","","","pietsteyn@zeelandnet.nl","31618496600","","NL07RABO0362620849","Delta","2019-09-06 12:05:57"
"","Dhr.","J.A.","","de  Koster","948777","M370865","","Dorpsstraat ","30 ","","4513 AM","Hoofdplaat","NL","Dorpsstraat ","30 ","","4513 AM","Hoofdplaat","NL","","","","","","","jdekoster@zeelandnet.nl","31117348271","","NL61RABO0308122658","Delta","2019-09-06 12:23:45"
"","Mevr.","I.A.","","van Dam","948778","M424691","","Burgemeester","Wautersstraat","","4551 GW","Sas van Gent","NL","Burgemeester","Wautersstraat","","4551 GW","Sas van Gent","NL","","","","","","","ivandam@zeelandnet.nl","31620120828","","NL67RABO0330010018","Delta","2019-09-06 12:45:11"
"","Mevr.","S","","Llorente","948779","MALLESNIEUW","","Koolsweg ","24 ","","4506 AR","Cadzand","NL","Koolsweg ","24 ","","4506 AR","Cadzand","NL","","","","","","","sonia.llorente.chacon@gmail.com","31639803911","","ES4314650140861729562694","Delta","2019-09-06 13:05:39"
"","Mevr.","R.M.","","Rosemarije","948780","M1111","","NIEUW","BONEDIJKELAAN","","4382 HD","VLISSINGEN","NL","NIEUW","BONEDIJKELAAN","","4382 HD","VLISSINGEN","NL","","","","","","","mkamermans@hotmail.com","31614038855","","NL63RABO0305548727","Delta","2019-09-06 13:30:15"
"","Dhr.","F.S.","","FRANSE","948782","M1111","","ANNIE M.G. SCHMIDTLAAN","30 ","","4481 DS","KLOETINGE","NL","ANNIE M.G. SCHMIDTLAAN","30 ","","4481 DS","KLOETINGE","NL","","","","","","","fabianfranse@zeelandnet.nl","31630011429","","NL09RABO0320595854","Delta","2019-09-06 13:34:00"
"","Dhr.","I.E.M.","","Hinneman","948784","M565238'VERLENGEN","","Oude","Rijksweg","","4511 HW","Breskens","NL","Oude","Rijksweg","","4511 HW","Breskens","NL","","","","","","","imardoh@hotmail.com","31611874853","","NL21RABO0105386103","Delta","2019-09-06 13:47:05"
"","Mevr.","C.M","","Hoogendijk","948785","M108216VERLENGING","","Leeuwenburg","50 ","","4307 CC","Oosterland","NL","Leeuwenburg","50 ","","4307 CC","Oosterland","NL","","","","","","","hoogend40@zeelandnet.nl","311643240","","NL85INGB0001278017","Delta","2019-09-06 13:51:56"
"","Mevr.","P.C.E.","","Thomaes","948786","M565238'VERLENGEN","","Oude","Rijksweg","","4511 HW","Breskens","NL","Oude","Rijksweg","","4511 HW","Breskens","NL","","","","","","","patricia_thomaes@hotmail.com","31627120677","","NL07RABO0147816580","Delta","2019-09-06 13:55:33"
"","Dhr.","L","","Post","948787","M","","Pablo Picassoplein 104","   ","","4382 KB","Vlissingen","NL","Pablo Picassoplein 104","   ","","4382 KB","Vlissingen","NL","","","","","","","postl38ria@zeelandnet.nl","","","Nl21ingb0001453672","Delta","2019-09-06 14:05:14"
"","Dhr.","A.M.W.","","van der Zande","948788","K20079353","","Van","Zeylstraat","","4698 DC","Oud-Vossemeer","NL","Van","Zeylstraat","","4698 DC","Oud-Vossemeer","NL","","","","","","","amw.vanderzande@rotterdam.nl","31646182038","","NL97RABO0362612730","Delta","2019-09-06 14:37:35"
"","Dhr.","A.","","HAGEMES","948789","M11111","","DS. VAN WOUWESTRAAT","34 ","","4353 AJ","SEROOSKERKE","NL","DS. VAN WOUWESTRAAT","34 ","","4353 AJ","SEROOSKERKE","NL","","","","","","","am-onderhoudsbedrijf@hotmail.com","318850658","","NL24RABO0143887483","Delta","2019-09-06 14:42:08"
"","Dhr.","C.L. ","","VAN DER KEMP","948791","M1111","","markt","5 ","","4521 BN","biervliet","NL","markt","5 ","","4521 BN","biervliet","NL","","","","","","","steenbrak@zeelandnet.nl","315482880","","nl91abna0412272105","Delta","2019-09-06 14:46:32"
"","Dhr.","N.F.P.","","Groothaert","948792","M109352'VERLENGEN","","Oosterstraat ","66 ","","4571 GP","Axel","NL","Oosterstraat ","66 ","","4571 GP","Axel","NL","","","","","","","nickgroo@zeelandnet.nl","31115608590","","NL72RABO0103782745","Delta","2019-09-06 14:49:37"
"","Dhr.","J.F.","","Constansia","948793","K10026024","","Larixstraat","39 ","","4537 VJ","Terneuzen","NL","Larixstraat","39 ","","4537 VJ","Terneuzen","NL","","","","","","","missismena@live.nl","31658827756","","NL86ABNA0460057790","Delta","2019-09-06 15:21:37"
"","Mevr.","F.L.","","Schanssema","948794","M388353'VERLENGEN","","Jan van Eyckstraat","24 ","","4571 LT","Axel","NL","Jan van Eyckstraat","24 ","","4571 LT","Axel","NL","","","","","","","frouro@zeelandnet.nl","31651086054","","NL48RBRB0898249627","Delta","2019-09-06 15:22:28"
"","Dhr.","H.","","Sayah","948795","M","","Tulpenlaan","22","","4382 PG","Vlissingen","NL","Tulpenlaan","22","","4382 PG","Vlissingen","NL","","","","","","","hesham100868@gmail.com","","","NL63INGB0704394553","Delta","2019-09-06 15:37:37"
"","Dhr.","B.","","Slot","948797","M111111","","Etty","Hillesumlaan","","4481 DE","KLOETINGE","NL","Etty","Hillesumlaan","","4481 DE","KLOETINGE","NL","","","","","","","famslot@zeelandnet.nl","31611844863","","NL67INGB0003848259","Delta","2019-09-06 15:51:40"
"","Dhr.","M","","Belzen","948798","1234","","Klaproos","39 ","","4421 MA","KAPELLE","NL","Klaproos","39 ","","4421 MA","KAPELLE","NL","","","","","","","mitta_pimp@hotmail.com","3163825890","","NL80RABO0380580055","Delta","2019-09-06 16:04:24"
"","Dhr.","H.","","Steunenberg","948799","M","","Zuiderbaan","18","","4386 CG","Vlissingen","NL","Zuiderbaan","18","","4386 CG","Vlissingen","NL","","","","","","","steung@zeelandnet.nl","","","NL87ABNA0246895616","Delta","2019-09-06 16:05:11"
"","Mevr.","S.","","Rijsdijk","948800","K03440404","","Huismeet","12 ","","4327 AK","Serooskerke","NL","Huismeet","12 ","","4327 AK","Serooskerke","NL","","","","","","","theorijsdijk@hotmail.com","31683336926","","NL30RABO0365629472","Delta","2019-09-06 16:08:23"
"","Dhr.","J.J.","","Liplijn","948801","12345","","Brahmslaan","2 ","","4462 JR","goes","NL","Brahmslaan","2 ","","4462 JR","goes","NL","","","","","","","kadam6@zeelandnet.nl","31623601025","","NL98RABO0380524635","Delta","2019-09-06 16:32:22"
"","Dhr.","M.H","","Miltenburg","948803","M","","Pablo Picassoplein 108","    ","","4382 KB","Vlissingen","NL","Pablo Picassoplein 108","    ","","4382 KB","Vlissingen","NL","","","","","","","jmiltenburg@zeelandnet.nl","","","Nl04abna0510838863","Delta","2019-09-06 17:24:59"
"","Dhr.","L.","","de Pauw","948804","1234","","Prins","Willem-Alexande","","4506 AM","CADZAND","NL","Prins","Willem-Alexande","","4506 AM","CADZAND","NL","","","","","","","ldepauw2017@gmail.com","31641114011","","NL50RABO0141202637","Delta","2019-09-06 17:41:34"
"","Dhr.","D.K.","","Konkin","948805","1234","","Molenpolderweg","46  ","","4401 NR","YERSEKE","NL","Molenpolderweg","46  ","","4401 NR","YERSEKE","NL","","","","","","","dkkonkin64@zeelandnet.nl","31645480512","","NL20INGB0002965435","Delta","2019-09-06 18:09:57"
"","Dhr.","J.","","Geleedst","948806","M111111","","Oranjepad","58 ","","4461 TR","GOES","NL","Oranjepad","58 ","","4461 TR","GOES","NL","","","","","","","jeroengeleedst@gmail.com","31641248470","","NL90RABO0315245816","Delta","2019-09-06 18:22:12"
"","Dhr.","J.M.","","Deelen","948807","1234","","Ritthemsestraat","96 ","","4388 JS","OOST-SOUBURG","NL","Ritthemsestraat","96 ","","4388 JS","OOST-SOUBURG","NL","","","","","","","johan@zeelandnet.nl","3112345","","NL26INGB0004053473","Delta","2019-09-06 19:05:01"
"","Dhr.","R.D.P.","","Szydlowski","948809","1234","","Van","Hogendorpweg","","384","4384 GX","NL","Van","Hogendorpweg","","384","4384 GX","NL","","","","","","","robinszyd@zeelandnet.nl","3112345","","NL72RABO0349335141","Delta","2019-09-06 19:25:37"
"","Dhr.","B.J.","","Deelman","948810","M111111","","Jonagoldstraat","16 ","","4421 DW","KAPELLE","NL","Jonagoldstraat","16 ","","4421 DW","KAPELLE","NL","","","","","","","petra@deelmannet.nl","31622261888","","NL74RABO0162223366","Delta","2019-09-06 19:28:50"
"","Dhr.","A.","","Sturm","948811","MVERLENGING","","Bastiaan de Langestraat","39 ","","4351 ND","Veere","NL","Bastiaan de Langestraat","39 ","","4351 ND","Veere","NL","","","","","","","adriese@zeelandnet.nl","31118501667","","NL65RABO0365214361","Delta","2019-09-06 19:36:36"
"","Dhr.","M.J.A.","","Lamper","948812","1234","","Kanaalstraat ","42 ","","4417 AJ","HANSWEERT","NL","Kanaalstraat ","42 ","","4417 AJ","HANSWEERT","NL","","","","","","","sundip@zeelandnet.nl","3112345","","NL65INGB0006030116","Delta","2019-09-06 20:12:24"
"","Dhr.","J","","Westerholt","948761","","M","Lange Nieuwstraat 199","G ","","3111 AJ","Schiedam","NL","","","","","","","Lange Nieuwstraat 199","G ","","3111 AJ","Schiedam","NL","justinwesterholt@gmail.com","","","NL03ABNA0824291956","Caiway","2019-09-05 23:50:39"
"","Dhr.","T.A.G.","","van Wezel","948762","","M","Heuvelstraat","18","","5087 AB","Diessen","NL","","","","","","","Heuvelstraat","18","","5087 AB","Diessen","NL","thomasvanwezel1984@hotmail.com","","","NL89RABO0111333695","Caiway","2019-09-06 05:24:17"
"","Mevr.","n ","","klein","948766","","M","Damlaan","82","","3119 AB","Schiedam","NL","","","","","","","Damlaan","82","","3119 AB","Schiedam","NL","nelwimklein@gmail.com","31104271124","","NL74INGB0002287888","Caiway","2019-09-06 10:09:23"
"","Dhr.","L.C.","","Olsthoorn","948781","","M","Windrecht","25","","2636 JB","Schipluiden","NL","","","","","","","Windrecht","25","","2636 JB","Schipluiden","NL","lco@kabelfoon.nl","","","NL95RABO0358230306","Caiway","2019-09-06 13:30:25"
