"CustomerNumber","IMSI","Productid","Start_date","End_Of_Contract","Date_Contract_Prolong","MRR","MRR_Discount","MRR_Discount_Duration","Date_Mutation","Brand"
"950396","204164750213877","11","2019-10-11","","2019-11-12","20.0000","20.00","4","2019-10-12 00:01:36","Delta"
"950412","204164750213931","11","2019-10-11","","2019-11-12","20.0000","20.00","4","2019-10-12 00:01:36","Delta"
"950054","204164750213832","11","2019-10-07","2019-10-11","2019-11-12","20.0000","20.00","4","2019-10-12 00:01:35","Delta"
"950405","204164750213736","11","2019-10-12","","2019-11-12","20.0000","20.00","4","2019-10-12 00:01:36","Delta"
"950417","204164750213929","11","2019-10-11","","2019-11-12","20.0000","20.00","4","2019-10-12 00:01:36","Delta"
"950395","204164750213878","11","2019-10-11","","2019-11-12","20.0000","20.00","4","2019-10-12 00:01:35","Delta"
"950409","204164750213888","11","2019-10-11","","2019-11-12","20.0000","20.00","4","2019-10-12 00:01:36","Delta"
"950050","204164750213836","11","2019-10-07","2019-10-11","2019-11-12","20.0000","20.00","4","2019-10-12 00:01:35","Delta"
"950399","204164750213733","11","2019-10-12","","2019-11-12","20.0000","20.00","4","2019-10-12 00:01:36","Delta"
"950415","204164750213937","11","2019-10-11","","2019-11-12","20.0000","20.00","4","2019-10-12 00:01:36","Delta"
"950385","","11","2019-10-11","","2019-11-12","20.0000","20.00","4","2019-10-12 00:01:35","Delta"
"950408","204164750213889","11","2019-10-11","","2019-11-12","20.0000","20.00","4","2019-10-12 00:01:36","Delta"
"949293","204164750210636","11","2019-09-24","2019-10-11","2019-11-12","20.0000","20.00","4","2019-10-12 00:01:35","Delta"
"950398","204164750213875","11","2019-10-11","","2019-11-12","20.0000","20.00","4","2019-10-12 00:01:36","Delta"
"950414","204164750213887","11","2019-10-11","","2019-11-12","20.0000","20.00","4","2019-10-12 00:01:36","Delta"
"950367","204164750213891","11","2019-10-11","","2019-11-12","20.0000","20.00","4","2019-10-12 00:01:35","Delta"
"950406","204164750213890","11","2019-10-11","","2019-11-12","20.0000","20.00","4","2019-10-12 00:01:36","Delta"
