"CustomerNumber","IMSI","Productid","Start_date","End_Of_Contract","Date_Contract_Prolong","MRR","MRR_Discount","MRR_Discount_Duration","Date_Mutation","Brand"
"947190","","11","2019-08-03","","2019-09-03","20.0000","5.00","6","2019-08-03 00:02:11","Delta"
"947162","","11","2019-08-03","","2019-09-03","20.0000","20.00","4","2019-08-03 00:02:10","Delta"
"945028","204164750203717","10","2019-05-09","","2019-09-03","7.0000","","","2019-08-03 11:50:01","Delta"
"947183","","11","2019-08-02","","2019-09-03","20.0000","20.00","4","2019-08-03 00:02:11","Delta"
"946734","204164750200264","11","2019-08-02","","2019-09-03","20.0000","20.00","4","2019-08-03 00:02:10","Delta"
"947174","","11","2019-08-02","","2019-09-03","20.0000","20.00","4","2019-08-03 00:02:10","Delta"
"946262","204164750200367","11","2019-08-02","","2019-09-03","20.0000","5.00","6","2019-08-03 00:02:10","Delta"
"947232","","11","2019-08-02","","2019-09-03","20.0000","20.00","4","2019-08-03 00:02:11","Delta"
"947164","","11","2019-08-03","","2019-09-03","20.0000","20.00","4","2019-08-03 00:02:10","Delta"
"946236","204164750201737","10","2019-08-02","","2019-09-03","7.0000","","","2019-08-03 00:02:10","Delta"
