starting.
starting.
starting.
starting.
starting.
starting.
starting.
starting.
starting.
starting.
starting.
starting.
starting.
starting.
starting.
starting.
starting.
starting.
starting.
starting.
starting.
starting.
starting.
starting.
starting.
starting.
starting.
starting.
starting.
starting.
starting.
starting.
starting.
starting.
starting.
starting.
starting.
starting.
starting.
starting.
starting.
starting.
starting.
starting.
starting.
starting.
starting.
starting.
starting.
starting.
starting.
starting.
starting.
starting.
starting.
starting.
starting.
starting.
starting.
starting.
starting.
starting.
starting.
starting.
starting.
starting.
starting.
starting.
starting.
starting.
starting.
starting.
starting.
starting.
starting.
starting.
starting.
starting.
starting.
starting.
starting.
starting.
starting.
starting.
starting.
starting.
starting.
starting.
starting.
starting.
starting.
starting.
starting.
starting.
starting.
starting.
starting.
starting.
starting.
starting.
starting.
starting.
starting.
starting.
starting.
starting.
starting.
starting.
starting.
starting.
starting.
starting.
starting.
starting.
starting.
starting.
starting.
starting.
starting.
starting.
starting.
starting.
starting.
starting.
starting.
starting.
starting.
starting.
