[
  {
    "type": "post",
    "url": "api/dev/crm/AcceptOrder",
    "title": "AcceptOrder",
    "name": "AcceptOrder",
    "group": "Crm",
    "version": "1.3.3",
    "description": "<p>check if particular email has exists already</p>",
    "parameter": {
      "fields": {
        "Parameter": [
          {
            "group": "Parameter",
            "type": "string",
            "optional": false,
            "field": "simcard",
            "description": "<p>simcard you wish to assign to the order (Required).</p>"
          },
          {
            "group": "Parameter",
            "type": "string",
            "optional": false,
            "field": "orderid",
            "description": "<p>orderid of the service (Required).</p>"
          }
        ]
      }
    },
    "header": {
      "examples": [
        {
          "title": "Header:",
          "content": "{\n    \"X-API-KEY\": \"string\"\n}",
          "type": "json"
        }
      ]
    },
    "success": {
      "fields": {
        "Success 200": [
          {
            "group": "Success 200",
            "type": "string",
            "optional": false,
            "field": "result",
            "description": "<p>success/error.</p>"
          },
          {
            "group": "Success 200",
            "type": "int",
            "optional": false,
            "field": "clientid",
            "description": "<p>id of customer when return any value.</p>"
          },
          {
            "group": "Success 200",
            "type": "object",
            "optional": false,
            "field": "details",
            "description": "<p>client object informations.</p>"
          },
          {
            "group": "Success 200",
            "type": "string",
            "optional": false,
            "field": "details.id",
            "description": "<p>id of customer when return any value.</p>"
          },
          {
            "group": "Success 200",
            "type": "string",
            "optional": false,
            "field": "details.firsname",
            "description": "<p>firstname</p>"
          },
          {
            "group": "Success 200",
            "type": "string",
            "optional": false,
            "field": "details.lastname",
            "description": "<p>lastname.</p>"
          },
          {
            "group": "Success 200",
            "type": "string",
            "optional": false,
            "field": "details.companyname",
            "description": "<p>companyname.</p>"
          },
          {
            "group": "Success 200",
            "type": "string",
            "optional": false,
            "field": "details.email",
            "description": "<p>email.</p>"
          },
          {
            "group": "Success 200",
            "type": "string",
            "optional": false,
            "field": "details.address1",
            "description": "<p>address1.</p>"
          },
          {
            "group": "Success 200",
            "type": "string",
            "optional": false,
            "field": "details.postcode",
            "description": "<p>postcode NN XXXX.</p>"
          },
          {
            "group": "Success 200",
            "type": "string",
            "optional": false,
            "field": "details.city",
            "description": "<p>cityname.</p>"
          },
          {
            "group": "Success 200",
            "type": "string",
            "optional": false,
            "field": "details.country",
            "description": "<p>country.</p>"
          }
        ]
      },
      "examples": [
        {
          "title": "Success-Response:",
          "content": "HTTP/1.1 200 OK\n  {\n   \"clientid\": \"1\",\n   \"result\": \"string\"\n   \"details\": {\n   \"firstname\": \"string\"\n   \"lastname\": \"string\"\n   ...\n       }\n  }",
          "type": "json"
        }
      ]
    },
    "filename": "application/controllers/api/dev/Crm.php",
    "groupTitle": "Crm"
  },
  {
    "type": "post",
    "url": "api/dev/crm/AddClient",
    "title": "AddClient",
    "name": "AddClient",
    "group": "Crm",
    "version": "1.3.3",
    "description": "<p>Inserting customer to Artilium database. This is required before AddOrder where you will received your clientid</p>",
    "parameter": {
      "fields": {
        "Parameter": [
          {
            "group": "Parameter",
            "type": "string",
            "optional": false,
            "field": "firstname",
            "description": "<p>firstname (Required).</p>"
          },
          {
            "group": "Parameter",
            "type": "string",
            "optional": false,
            "field": "lastname",
            "description": "<p>lastname (Required).</p>"
          },
          {
            "group": "Parameter",
            "type": "string",
            "optional": false,
            "field": "companyname",
            "description": "<p>companyname (Optional).</p>"
          },
          {
            "group": "Parameter",
            "type": "string",
            "optional": false,
            "field": "phonenumber",
            "description": "<p>phonenumber (Required).</p>"
          },
          {
            "group": "Parameter",
            "type": "string",
            "optional": false,
            "field": "email",
            "description": "<p>email address where relation id to Delta SSO (Required).</p>"
          },
          {
            "group": "Parameter",
            "type": "string",
            "optional": false,
            "field": "address1",
            "description": "<p>billing street (Required).</p>"
          },
          {
            "group": "Parameter",
            "type": "string",
            "optional": false,
            "field": "housenumber",
            "description": "<p>billing house number (Required).</p>"
          },
          {
            "group": "Parameter",
            "type": "string",
            "optional": false,
            "field": "alphabet",
            "description": "<p>billing alphabet (Optional).</p>"
          },
          {
            "group": "Parameter",
            "type": "string",
            "optional": false,
            "field": "postcode",
            "description": "<p>zipcode of the billing address NNNN XX</p>"
          },
          {
            "group": "Parameter",
            "type": "string",
            "optional": false,
            "field": "city",
            "description": "<p>City name (Required)..</p>"
          },
          {
            "group": "Parameter",
            "type": "string",
            "optional": false,
            "field": "country",
            "description": "<p>ISO-2 ex nl (Required).</p>"
          },
          {
            "group": "Parameter",
            "type": "string",
            "optional": false,
            "field": "language",
            "description": "<p>dutch,english,french (Required).</p>"
          },
          {
            "group": "Parameter",
            "type": "string",
            "optional": false,
            "field": "paymentmethod",
            "description": "<p>banktransfer,directdebit (Required).</p>"
          },
          {
            "group": "Parameter",
            "type": "string",
            "optional": false,
            "field": "password2",
            "description": "<p>alphanumberic password (Required).</p>"
          },
          {
            "group": "Parameter",
            "type": "string",
            "optional": false,
            "field": "relationid",
            "description": "<p>alphanumberic ID of delta reference (Required).</p>"
          },
          {
            "group": "Parameter",
            "type": "string",
            "optional": false,
            "field": "agentid",
            "description": "<p>id of agent can ge found on Agent/reseller or getAgents functions.</p>"
          },
          {
            "group": "Parameter",
            "type": "string",
            "optional": false,
            "field": "iban",
            "description": "<p>IBAN Number (Required).</p>"
          },
          {
            "group": "Parameter",
            "type": "string",
            "optional": false,
            "field": "bic",
            "description": "<p>BIC Code (Optional if iBAN entered correctly BIc will be generated).</p>"
          },
          {
            "group": "Parameter",
            "type": "string",
            "optional": false,
            "field": "vat",
            "description": "<p>VAT number (Optional).</p>"
          },
          {
            "group": "Parameter",
            "type": "string",
            "optional": false,
            "field": "kvk",
            "description": "<p>kvk number (Optional).</p>"
          },
          {
            "group": "Parameter",
            "type": "string",
            "optional": false,
            "field": "date_birth",
            "description": "<p>Date Of Birth YYYY-MM-DD (Optional).</p>"
          },
          {
            "group": "Parameter",
            "type": "string",
            "optional": false,
            "field": "gender",
            "description": "<p>gender: male/female (Optional).</p>"
          },
          {
            "group": "Parameter",
            "type": "string",
            "optional": false,
            "field": "refferal",
            "description": "<p>refferal information ex: google.com (Optional).</p>"
          },
          {
            "group": "Parameter",
            "type": "bool",
            "optional": false,
            "field": "vatexempt",
            "description": "<p>VAT Exemption value  1/0 (Optional).</p>"
          },
          {
            "group": "Parameter",
            "type": "bool",
            "optional": false,
            "field": "invoice_email",
            "description": "<p>Invoice Email if customer wish to received email via email value: yes/no, standard value: yes (Optional)</p>"
          },
          {
            "group": "Parameter",
            "type": "payment_duedays",
            "optional": false,
            "field": "payment_duedays",
            "description": "<p>Invoice due days, standard value: 14 if not added (Optional).</p>"
          },
          {
            "group": "Parameter",
            "type": "string",
            "optional": false,
            "field": "initial",
            "description": "<p>Customer Name intital (Optional).</p>"
          },
          {
            "group": "Parameter",
            "type": "string",
            "optional": false,
            "field": "salutation",
            "description": "<p>salutation of the customer ex: Mrs., Mr., etc  (Optional).</p>"
          },
          {
            "group": "Parameter",
            "type": "string",
            "optional": false,
            "field": "delta_username",
            "description": "<p>Specify if you wish sso  to be activated and username will be link to this customer  (Optional).</p>"
          }
        ]
      }
    },
    "header": {
      "examples": [
        {
          "title": "Header:",
          "content": "{\n    \"X-API-KEY\": \"string\"\n}",
          "type": "json"
        }
      ]
    },
    "success": {
      "fields": {
        "Success 200": [
          {
            "group": "Success 200",
            "type": "string",
            "optional": false,
            "field": "result",
            "description": "<p>success/error.</p>"
          },
          {
            "group": "Success 200",
            "type": "string",
            "optional": false,
            "field": "clientid",
            "description": "<p>Id Artilium of the client.</p>"
          }
        ]
      },
      "examples": [
        {
          "title": "Success-Response:",
          "content": "HTTP/1.1 200 OK\n  {\n   \"clientid\": \"1\",\n   \"result\": \"success\"\n  }",
          "type": "json"
        }
      ]
    },
    "filename": "application/controllers/api/dev/Crm.php",
    "groupTitle": "Crm"
  },
  {
    "type": "post",
    "url": "api/dev/crm/AddOrder",
    "title": "AddOrder",
    "name": "AddOrder",
    "group": "Crm",
    "version": "1.3.3",
    "description": "<p>Adding Order to an existing client (Required)</p>",
    "parameter": {
      "fields": {
        "Parameter": [
          {
            "group": "Parameter",
            "type": "int",
            "optional": false,
            "field": "clientid",
            "description": "<p>Client unique ID. (Required)</p>"
          },
          {
            "group": "Parameter",
            "type": "int",
            "optional": false,
            "field": "brand",
            "description": "<p>Id of the brand (Required)</p>"
          },
          {
            "group": "Parameter",
            "type": "int",
            "optional": false,
            "field": "pid",
            "description": "<p>Product id (Required).</p>"
          },
          {
            "group": "Parameter",
            "type": "bool",
            "optional": false,
            "field": "porting",
            "description": "<p>Number situation value(1/0) 1= porting 0=New number (Required)</p>"
          },
          {
            "group": "Parameter",
            "type": "string",
            "optional": false,
            "field": "addons",
            "description": "<p>comma seperated addon id.</p>"
          },
          {
            "group": "Parameter",
            "type": "string",
            "optional": false,
            "field": "handset_price",
            "description": "<p>rest price of the handset  (Optional).</p>"
          },
          {
            "group": "Parameter",
            "type": "string",
            "optional": false,
            "field": "handset_name",
            "description": "<p>Name of the handset.  (Optional).</p>"
          },
          {
            "group": "Parameter",
            "type": "string",
            "optional": false,
            "field": "handset_terms",
            "description": "<p>Rest month handset price needs to be paid  (Optional).</p>"
          },
          {
            "group": "Parameter",
            "type": "string",
            "optional": false,
            "field": "startdate",
            "description": "<p>MM-DD-YYYY format for start date contract,  (Optional).</p>"
          },
          {
            "group": "Parameter",
            "type": "string",
            "optional": false,
            "field": "priceoverride",
            "description": "<p>(Optional)</p>"
          },
          {
            "group": "Parameter",
            "type": "int",
            "optional": false,
            "field": "contractduration",
            "description": "<p>in months 12 = 1 year,  24 = 2 year (Optional).</p>"
          },
          {
            "group": "Parameter",
            "type": "string",
            "optional": false,
            "field": "promocode",
            "description": "<p>Promocode of the Promotion  (Optional).</p>"
          },
          {
            "group": "Parameter",
            "type": "string",
            "optional": false,
            "field": "porting_msisdn",
            "description": "<p>MSISDN that need to be ported, format should be country code+number without leading 0 (Required if porting = 1)</p>"
          },
          {
            "group": "Parameter",
            "type": "string",
            "optional": false,
            "field": "porting_provider",
            "description": "<p>(Required if porting = 1)</p>"
          },
          {
            "group": "Parameter",
            "type": "string",
            "optional": false,
            "field": "porting_simnumber",
            "description": "<p>(Required if porting = 1)</p>"
          },
          {
            "group": "Parameter",
            "type": "string",
            "optional": false,
            "field": "porting_type",
            "description": "<p>(Required if porting = 1)</p>"
          },
          {
            "group": "Parameter",
            "type": "string",
            "optional": false,
            "field": "porting_customer_type",
            "description": "<p>(Required if porting = 1)</p>"
          },
          {
            "group": "Parameter",
            "type": "string",
            "optional": false,
            "field": "porting_date",
            "description": "<p>YYYY-MM-DD and not in the weekend (Required if porting = 1)</p>"
          },
          {
            "group": "Parameter",
            "type": "string",
            "optional": false,
            "field": "porting_accountnumber",
            "description": "<p>(Required if porting_customer_type = 1)</p>"
          },
          {
            "group": "Parameter",
            "type": "string",
            "optional": false,
            "field": "delta_sim",
            "description": "<p>Sim Id for assigning deltaSimcard 19 Digit it does check if simcard is free (Optional), otherwise insert 1111111111111111111, if simcard is valid the order will be automaticly executed to platform</p>"
          },
          {
            "group": "Parameter",
            "type": "bool",
            "optional": false,
            "field": "setupfee",
            "description": "<p>(Optional, value= 1/0)</p>"
          },
          {
            "group": "Parameter",
            "type": "string",
            "optional": false,
            "field": "setupfee_description",
            "description": "<p>(Description on Invoice Line, required when setupfee is 1)</p>"
          },
          {
            "group": "Parameter",
            "type": "string",
            "optional": false,
            "field": "setupfee_amount",
            "description": "<p>(Amount of setup fee ex: 10.00 2 decimal behind dot)</p>"
          }
        ]
      }
    },
    "header": {
      "examples": [
        {
          "title": "Header:",
          "content": "{\n  \"X_API_KEY\": \"string\"\n}",
          "type": "json"
        }
      ]
    },
    "success": {
      "fields": {
        "Success 200": [
          {
            "group": "Success 200",
            "type": "string",
            "optional": false,
            "field": "result",
            "description": "<p>success/error.</p>"
          },
          {
            "group": "Success 200",
            "type": "int",
            "optional": false,
            "field": "serviceid",
            "description": "<p>Id of the serviceid</p>"
          },
          {
            "group": "Success 200",
            "type": "int",
            "optional": false,
            "field": "orderid",
            "description": "<p>Id of the order</p>"
          },
          {
            "group": "Success 200",
            "type": "string",
            "optional": false,
            "field": "productids",
            "description": "<p>Subscription ID.</p>"
          },
          {
            "group": "Success 200",
            "type": "string",
            "optional": false,
            "field": "addonids",
            "description": "<p>Client id.</p>"
          }
        ]
      },
      "examples": [
        {
          "title": "Success-Response:",
          "content": "HTTP/1.1 200 OK\n  {\n   \"result\": \"success\",\n     \"serviceid\": \"1\",\n     \"orderid\": \"1\",\n     \"productids\": \"1\"\n  }",
          "type": "json"
        }
      ]
    },
    "filename": "application/controllers/api/dev/Crm.php",
    "groupTitle": "Crm"
  },
  {
    "type": "post",
    "url": "api/dev/crm/GetClient",
    "title": "GetClient",
    "name": "GetClient",
    "group": "Crm",
    "version": "1.3.3",
    "description": "<p>Get client information</p>",
    "parameter": {
      "fields": {
        "Parameter": [
          {
            "group": "Parameter",
            "type": "clientid",
            "optional": false,
            "field": "clientid",
            "description": "<p>clientid (Required).</p>"
          }
        ]
      }
    },
    "header": {
      "examples": [
        {
          "title": "Header:",
          "content": "{\n    \"X-API-KEY\": \"string\"\n}",
          "type": "json"
        }
      ]
    },
    "success": {
      "fields": {
        "Success 200": [
          {
            "group": "Success 200",
            "type": "string",
            "optional": false,
            "field": "result",
            "description": "<p>success/error.</p>"
          }
        ]
      },
      "examples": [
        {
          "title": "Success-Response:",
          "content": "HTTP/1.1 200 OK\n  {\n   \"id\": \"1\",\n   \"result\": \"string\"\n   \"firstname\": \"string\"\n   \"lastname\": \"string\"\n   \"companyname\": \"string\"\n   \"address1\": \"string\"\n   \"postcode\": \"string\"\n   \"city\": \"string\"\n   \"country\": \"string\"\n   \"deltaid\": \"string\"\n   \"email\": \"string\"\n   \"password\": \"hashpassword\"\n  }",
          "type": "json"
        }
      ]
    },
    "filename": "application/controllers/api/dev/Crm.php",
    "groupTitle": "Crm"
  },
  {
    "type": "post",
    "url": "api/dev/crm/GetClientInvoices",
    "title": "GetClientInvoices",
    "name": "GetClientInvoices",
    "group": "Crm",
    "version": "1.3.3",
    "description": "<p>Get List of a client Invoices</p>",
    "parameter": {
      "fields": {
        "Parameter": [
          {
            "group": "Parameter",
            "type": "clientid",
            "optional": false,
            "field": "clientid",
            "description": "<p>id of the client must be artilium id (Required).</p>"
          }
        ]
      }
    },
    "success": {
      "fields": {
        "Success 200": [
          {
            "group": "Success 200",
            "type": "string",
            "optional": false,
            "field": "result",
            "description": "<p>success/error.</p>"
          },
          {
            "group": "Success 200",
            "type": "int",
            "optional": false,
            "field": "count",
            "description": "<p>amount of result returned</p>"
          },
          {
            "group": "Success 200",
            "type": "array",
            "optional": false,
            "field": "invoices",
            "description": "<p>array of the invoices</p>"
          },
          {
            "group": "Success 200",
            "type": "int",
            "optional": false,
            "field": "invoices.id",
            "description": "<p>id of the invoices</p>"
          },
          {
            "group": "Success 200",
            "type": "string",
            "optional": false,
            "field": "invoices.invoicenum",
            "description": "<p>invoice number</p>"
          }
        ]
      },
      "examples": [
        {
          "title": "Success-Response:",
          "content": "HTTP/1.1 200 OK\n\n    {\n   \"result\": \"success\",\n  \"count\": 2,\n \"invoices\": [\n      {\n          \"id\": \"200000001\",\n          \"invoicenum\": \"200000001\"\n      },\n      {\n          \"id\": \"200000002\",\n          \"invoicenum\": \"200000002\"\n      }\n   ]\n}",
          "type": "json"
        }
      ]
    },
    "header": {
      "examples": [
        {
          "title": "Header:",
          "content": "{\n    \"X-API-KEY\": \"string\"\n}",
          "type": "json"
        }
      ]
    },
    "filename": "application/controllers/api/dev/Crm.php",
    "groupTitle": "Crm"
  },
  {
    "type": "post",
    "url": "api/dev/crm/GetClientServices",
    "title": "GetClientServices",
    "name": "GetClientServices",
    "group": "Crm",
    "version": "1.3.3",
    "description": "<p>Get List of a client Subscriptions/Services</p>",
    "parameter": {
      "fields": {
        "Parameter": [
          {
            "group": "Parameter",
            "type": "clientid",
            "optional": false,
            "field": "clientid",
            "description": "<p>id of the client must be artilium id (Required).</p>"
          }
        ]
      }
    },
    "header": {
      "examples": [
        {
          "title": "Header:",
          "content": "{\n    \"X-API-KEY\": \"string\"\n}",
          "type": "json"
        }
      ]
    },
    "success": {
      "fields": {
        "Success 200": [
          {
            "group": "Success 200",
            "type": "string",
            "optional": false,
            "field": "result",
            "description": "<p>success/error.</p>"
          },
          {
            "group": "Success 200",
            "type": "int",
            "optional": false,
            "field": "count",
            "description": "<p>amount of result returned</p>"
          },
          {
            "group": "Success 200",
            "type": "array",
            "optional": false,
            "field": "subscriptions",
            "description": "<p>array of subscriptions</p>"
          },
          {
            "group": "Success 200",
            "type": "int",
            "optional": false,
            "field": "subscriptions.id",
            "description": "<p>Product service/subscription id.</p>"
          },
          {
            "group": "Success 200",
            "type": "int",
            "optional": false,
            "field": "subscriptions.packageid",
            "description": "<p>Product packageid.</p>"
          },
          {
            "group": "Success 200",
            "type": "string",
            "optional": false,
            "field": "subscriptions.identifier",
            "description": "<p>Product identifier can be mssisdn or circuitid.</p>"
          },
          {
            "group": "Success 200",
            "type": "date",
            "optional": false,
            "field": "subscriptions.regdate",
            "description": "<p>Product date registration.</p>"
          },
          {
            "group": "Success 200",
            "type": "decimal",
            "optional": false,
            "field": "subscriptions.amount",
            "description": "<p>Product base recurring price.</p>"
          },
          {
            "group": "Success 200",
            "type": "string",
            "optional": false,
            "field": "subscriptions.status",
            "description": "<p>Product status.</p>"
          }
        ]
      },
      "examples": [
        {
          "title": "Success-Response:",
          "content": "HTTP/1.1 200 OK\n    {\n    \"result\": \"success\",\n    \"count\": 2,\n    \"subscriptions\": [\n    {\n    \"serviceid\": \"146\",\n    \"packageid\": \"1\",\n    \"identifier\": \"31648924972\",\n    \"regdate\": \"2018-02-19\",\n    \"amount\": \"21.00\",\n    \"status\": \"Active\"\n    },\n    {\n    \"serviceid\": \"147\",\n    \"packageid\": \"30\",\n    \"identifier\": \"31648924985\",\n    \"regdate\": \"2018-02-20\",\n    \"amount\": \"0.00\",\n\"status\": \"Active\"\n}\n]\n}",
          "type": "json"
        }
      ]
    },
    "filename": "application/controllers/api/dev/Crm.php",
    "groupTitle": "Crm"
  },
  {
    "type": "get",
    "url": "api/dev/crm/GetProducts",
    "title": "GetProducts",
    "name": "GetProducts",
    "group": "Crm",
    "version": "1.3.3",
    "description": "<p>Query Products that are configured for selling</p>",
    "header": {
      "examples": [
        {
          "title": "Header:",
          "content": "{\n  \"X_API_KEY\": \"string\"\n}",
          "type": "json"
        }
      ]
    },
    "success": {
      "fields": {
        "Success 200": [
          {
            "group": "Success 200",
            "type": "string",
            "optional": false,
            "field": "result",
            "description": "<p>success/error.</p>"
          },
          {
            "group": "Success 200",
            "type": "int",
            "optional": false,
            "field": "orderid",
            "description": "<p>Id of the order</p>"
          },
          {
            "group": "Success 200",
            "type": "object",
            "optional": false,
            "field": "products",
            "description": "<p>products object</p>"
          },
          {
            "group": "Success 200",
            "type": "int",
            "optional": false,
            "field": "products.id",
            "description": "<p>Product id.</p>"
          },
          {
            "group": "Success 200",
            "type": "string",
            "optional": false,
            "field": "products.name",
            "description": "<p>Product name.</p>"
          }
        ]
      },
      "examples": [
        {
          "title": "Success-Response:",
          "content": " HTTP/1.1 200 OK\n {\n\"result\": \"success\",\n\"products\": [\n{\n\"id\": \"6\",\n\"name\": \"Delta Mobiel 300Mb\"\n   }\n   ]\n }",
          "type": "json"
        }
      ]
    },
    "filename": "application/controllers/api/dev/Crm.php",
    "groupTitle": "Crm"
  },
  {
    "type": "post",
    "url": "api/dev/crm/GetService",
    "title": "GetService",
    "name": "GetService",
    "group": "Crm",
    "version": "1.3.3",
    "description": "<p>Get Service details</p>",
    "parameter": {
      "fields": {
        "Parameter": [
          {
            "group": "Parameter",
            "type": "serviceid",
            "optional": false,
            "field": "serviceid",
            "description": "<p>serviceid (Required).</p>"
          }
        ]
      }
    },
    "header": {
      "examples": [
        {
          "title": "Header:",
          "content": "{\n    \"X-API-KEY\": \"string\"\n}",
          "type": "json"
        }
      ]
    },
    "success": {
      "fields": {
        "Success 200": [
          {
            "group": "Success 200",
            "type": "string",
            "optional": false,
            "field": "result",
            "description": "<p>success/error.</p>"
          },
          {
            "group": "Success 200",
            "type": "string",
            "optional": false,
            "field": "identifier",
            "description": "<p>identifier can be msisdn or circuitid.</p>"
          },
          {
            "group": "Success 200",
            "type": "string",
            "optional": false,
            "field": "regdate",
            "description": "<p>date of registration.</p>"
          },
          {
            "group": "Success 200",
            "type": "string",
            "optional": false,
            "field": "brand",
            "description": "<p>brand of the service</p>"
          },
          {
            "group": "Success 200",
            "type": "array",
            "optional": false,
            "field": "products",
            "description": "<p>array of product assigned.</p>"
          },
          {
            "group": "Success 200",
            "type": "date",
            "optional": false,
            "field": "products.regdate",
            "description": "<p>date of registration.</p>"
          },
          {
            "group": "Success 200",
            "type": "date",
            "optional": false,
            "field": "products.billingcycle",
            "description": "<p>payment cycle.</p>"
          },
          {
            "group": "Success 200",
            "type": "date",
            "optional": false,
            "field": "products.status",
            "description": "<p>status of the product</p>"
          },
          {
            "group": "Success 200",
            "type": "date",
            "optional": false,
            "field": "products.name",
            "description": "<p>name of the addon/product</p>"
          },
          {
            "group": "Success 200",
            "type": "date",
            "optional": false,
            "field": "products.addonid",
            "description": "<p>Addon id of the product</p>"
          },
          {
            "group": "Success 200",
            "type": "date",
            "optional": false,
            "field": "products.price",
            "description": "<p>price of the product</p>"
          }
        ]
      },
      "examples": [
        {
          "title": "Success-Response:",
          "content": "HTTP/1.1 200 OK\n{\n \"result\":\"success\",\n\"domain\":\"31632288223\",\n\"regdate\":\"2018-06-26\",\n\"brand\":\"Delta Postpaid\",\n\"products\":[\n{\n\"regdate\":\"2018-06-26\",\n\"billingcycle\":\"Monthly\",\n\"status\":\"Active\",\n\"name\":\"Delta Mobiel 300Mb\",\n\"addonid\":\"6\",\n\"price\":\"7.00\"\n},\n{\n\"regdate\":\"2018-06-26\",\n\"billingcycle\":\"Monthly\",\n\"status\":\"Active\",\n\"name\":\"Tariff 300 Units\",\n\"addonid\":\"33\",\n\"price\":\"0.00\"\n}\n]\n}",
          "type": "json"
        }
      ]
    },
    "filename": "application/controllers/api/dev/Crm.php",
    "groupTitle": "Crm"
  },
  {
    "type": "post",
    "url": "api/dev/crm/SearchClient",
    "title": "SearchClient",
    "name": "SearchClient",
    "group": "Crm",
    "version": "1.3.3",
    "description": "<p>check if particular email has exists already</p>",
    "parameter": {
      "fields": {
        "Parameter": [
          {
            "group": "Parameter",
            "type": "string",
            "optional": false,
            "field": "email",
            "description": "<p>email address of customer (Required).</p>"
          }
        ]
      }
    },
    "header": {
      "examples": [
        {
          "title": "Header:",
          "content": "{\n    \"X-API-KEY\": \"string\"\n}",
          "type": "json"
        }
      ]
    },
    "success": {
      "fields": {
        "Success 200": [
          {
            "group": "Success 200",
            "type": "string",
            "optional": false,
            "field": "result",
            "description": "<p>success/error.</p>"
          },
          {
            "group": "Success 200",
            "type": "int",
            "optional": false,
            "field": "clientid",
            "description": "<p>id of customer when return any value.</p>"
          },
          {
            "group": "Success 200",
            "type": "object",
            "optional": false,
            "field": "details",
            "description": "<p>client object informations.</p>"
          },
          {
            "group": "Success 200",
            "type": "string",
            "optional": false,
            "field": "details.id",
            "description": "<p>id of customer when return any value.</p>"
          },
          {
            "group": "Success 200",
            "type": "string",
            "optional": false,
            "field": "details.firsname",
            "description": "<p>firstname</p>"
          },
          {
            "group": "Success 200",
            "type": "string",
            "optional": false,
            "field": "details.lastname",
            "description": "<p>lastname.</p>"
          },
          {
            "group": "Success 200",
            "type": "string",
            "optional": false,
            "field": "details.companyname",
            "description": "<p>companyname.</p>"
          },
          {
            "group": "Success 200",
            "type": "string",
            "optional": false,
            "field": "details.email",
            "description": "<p>email.</p>"
          },
          {
            "group": "Success 200",
            "type": "string",
            "optional": false,
            "field": "details.address1",
            "description": "<p>address1.</p>"
          },
          {
            "group": "Success 200",
            "type": "string",
            "optional": false,
            "field": "details.postcode",
            "description": "<p>postcode NN XXXX.</p>"
          },
          {
            "group": "Success 200",
            "type": "string",
            "optional": false,
            "field": "details.city",
            "description": "<p>cityname.</p>"
          },
          {
            "group": "Success 200",
            "type": "string",
            "optional": false,
            "field": "details.country",
            "description": "<p>country.</p>"
          }
        ]
      },
      "examples": [
        {
          "title": "Success-Response:",
          "content": "HTTP/1.1 200 OK\n  {\n   \"clientid\": \"1\",\n   \"result\": \"string\"\n   \"details\": {\n   \"firstname\": \"string\"\n   \"lastname\": \"string\"\n   ...\n       }\n  }",
          "type": "json"
        }
      ]
    },
    "filename": "application/controllers/api/dev/Crm.php",
    "groupTitle": "Crm"
  },
  {
    "type": "get",
    "url": "api/dev/crm/getAddons",
    "title": "getAddons",
    "name": "getAddons",
    "group": "Crm",
    "version": "1.3.3",
    "description": "<p>get addons that are set to be sell</p>",
    "header": {
      "examples": [
        {
          "title": "Header:",
          "content": "{\n  \"X_API_KEY\": \"string\"\n}",
          "type": "json"
        }
      ]
    },
    "success": {
      "fields": {
        "Success 200": [
          {
            "group": "Success 200",
            "type": "string",
            "optional": false,
            "field": "result",
            "description": "<p>success/error.</p>"
          },
          {
            "group": "Success 200",
            "type": "object",
            "optional": false,
            "field": "addons",
            "description": "<p>addons object</p>"
          },
          {
            "group": "Success 200",
            "type": "int",
            "optional": false,
            "field": "addons.id",
            "description": "<p>id of the addon.</p>"
          },
          {
            "group": "Success 200",
            "type": "string",
            "optional": false,
            "field": "addons.name",
            "description": "<p>name of the addons.</p>"
          }
        ]
      },
      "examples": [
        {
          "title": "Success-Response:",
          "content": "HTTP/1.1 200 OK\n{\n \"result\": \"success\",\n \"addons\": [\n {\n \"id\": \"14\",\n \"name\": \"Option 250 MB 30 dagen\"\n }\n           ],\n }",
          "type": "json"
        }
      ]
    },
    "filename": "application/controllers/api/dev/Crm.php",
    "groupTitle": "Crm"
  }
]
